MKC.csv,67.15,67.15,3291.5215000000003,3291.5215000000003,49.0,"[200, 259]"
MKC.csv,67.16,67.33,3292.0114999999996,3300.3415,49.0,"[289, 335]"
MOS.csv,41.51,41.41,1786.0804999999998,1781.7804999999998,43.0,"[219, 278]"
GWR.csv,87.4,87.44,4458.5785000000005,4460.6185,51.0,"[218, 277]"
GWR.csv,87.74,87.92,3247.5094999999997,3254.1695,37.0,"[349, 375]"
ENS.csv,51.81,51.94,1710.8455000000001,1715.1355,33.0,"[138, 141]"
ENS.csv,51.69,51.88,1706.8855,1713.1555000000003,33.0,"[153, 156]"
ENS.csv,52.07,51.81,2448.4545,2436.2345,47.0,"[205, 264]"
ENS.csv,51.78,51.51,1709.8555000000001,1700.9455,33.0,"[266, 325]"
ENS.csv,51.65,51.77,3151.8635,3159.1835,61.0,"[351, 366]"
APH.csv,75.2,75.07,3761.175,3754.6749999999997,50.0,"[260, 319]"
EXPR.csv,21.23,21.28,1487.345,1490.845,70.0,"[119, 140]"
EXPR.csv,21.28,21.33,1490.845,1494.3449999999998,70.0,"[218, 220]"
EXPR.csv,21.25,21.3,1488.745,1492.245,70.0,"[234, 236]"
EXPR.csv,21.3,21.25,1492.245,1488.745,70.0,"[251, 310]"
COO.csv,131.61,130.38,16715.914500000003,16559.7045,127.0,"[78, 122]"
COO.csv,130.79,131.07,6540.675,6554.675,50.0,"[127, 132]"
COO.csv,131.02,131.33,16640.984500000002,16680.3545,127.0,"[285, 325]"
COO.csv,131.6,131.87,5923.1575,5935.307500000001,45.0,"[328, 340]"
COO.csv,131.51,131.94,7760.2964999999995,7785.6665,59.0,"[358, 368]"
JCI.csv,40.59,40.68,1584.1465000000003,1587.6565,39.0,"[120, 123]"
JCI.csv,40.69,40.47,1588.0465,1579.4665,39.0,"[156, 215]"
JCI.csv,40.65,40.74,2602.824,2608.5840000000003,64.0,"[348, 374]"
ITT.csv,33.35,33.14,1535.2610000000002,1525.601,46.0,"[142, 201]"
ITT.csv,33.05,32.87,1389.2469999999998,1381.687,42.0,"[215, 274]"
ITT.csv,33.02,33.1,1288.9165000000003,1292.0365000000002,39.0,"[371, 375]"
ITT.csv,32.95,33.02,1648.6750000000002,1652.1750000000002,50.0,"[382, 388]"
MSI.csv,56.15,56.28,2752.5215,2758.8915,49.0,"[320, 335]"
DLTR.csv,52.47,52.58,6612.661,6626.521,126.0,"[233, 237]"
DLTR.csv,52.53,52.65,9982.365000000002,10005.165,190.0,"[331, 339]"
MTZ.csv,32.08,31.94,1476.841,1470.401,46.0,"[162, 221]"
MTZ.csv,31.99,31.76,1472.701,1462.121,46.0,"[229, 288]"
LII.csv,69.59,69.78,5429.293000000001,5444.113,78.0,"[72, 76]"
LII.csv,69.15,69.29,2352.2190000000005,2356.9790000000003,34.0,"[114, 125]"
LII.csv,69.13,69.04,4149.009999999999,4143.610000000001,60.0,"[146, 205]"
LII.csv,69.06,69.26,3177.9210000000003,3187.121,46.0,"[206, 221]"
LII.csv,69.17,68.94,3252.1545,3241.3444999999997,47.0,"[237, 296]"
LII.csv,69.21,69.37,3184.821,3192.1810000000005,46.0,"[337, 339]"
FDX.csv,107.57,107.41,20547.5385,20516.978499999997,191.0,"[112, 171]"
BPL.csv,69.78,70.05,3769.3089999999997,3783.8889999999997,54.0,"[170, 186]"
BPL.csv,69.76,69.9,3210.121,3216.561,46.0,"[211, 234]"
BPL.csv,69.77,69.4,3071.0339999999997,3054.7540000000004,44.0,"[238, 297]"
BPL.csv,69.89,70.03,3076.314,3082.474,44.0,"[360, 372]"
MCO.csv,64.17,64.22,3787.2365,3790.1865,59.0,"[119, 178]"
MCO.csv,63.81,63.97,2362.0995000000003,2368.0195,37.0,"[213, 221]"
MCO.csv,63.79,63.96,2042.392,2047.832,32.0,"[261, 282]"
CYT.csv,75.79,76.05,5988.686500000001,6009.2265,79.0,"[110, 113]"
CYT.csv,75.58,75.76,2646.4224999999997,2652.7225000000003,35.0,"[147, 204]"
CYT.csv,75.05,75.26,3303.354,3312.594,44.0,"[267, 275]"
CYT.csv,75.2,75.37,3009.14,3015.94,40.0,"[278, 330]"
CYT.csv,75.37,75.53,3015.94,3022.3399999999997,40.0,"[331, 336]"
CRZO.csv,35.11,34.99,2037.5829999999999,2030.623,58.0,"[144, 203]"
LNKD.csv,242.28,242.85,7996.3555,8015.1655,33.0,"[271, 274]"
LNKD.csv,245.8,246.36,49407.5085,49520.0685,201.0,"[365, 374]"
IBB.csv,197.27,197.69,12626.504,12653.384,64.0,"[77, 92]"
IBB.csv,197.09,196.59,12614.984,12582.984,64.0,"[143, 202]"
IBB.csv,196.04,196.19,7646.696499999999,7652.5464999999995,39.0,"[261, 320]"
IBB.csv,197.07,197.51,12613.704,12641.864,64.0,"[340, 366]"
EQR.csv,51.19,51.1,3021.4165,3016.1065,59.0,"[72, 131]"
EQR.csv,50.92,51.03,4787.809,4798.148999999999,94.0,"[326, 333]"
ADM.csv,35.35,35.41,1662.6145000000001,1665.4344999999998,47.0,"[192, 251]"
ADM.csv,35.41,35.41,1665.4344999999998,1665.4344999999998,47.0,"[274, 333]"
MPC.csv,73.94,74.11,2367.192,2372.632,32.0,"[132, 159]"
MPC.csv,73.44,73.62,4774.827499999999,4786.5275,65.0,"[314, 339]"
AWI.csv,49.1,48.65,3045.4170000000004,3017.517,62.0,"[129, 163]"
AWI.csv,48.79,48.91,2684.6425,2691.2425,55.0,"[176, 189]"
AWI.csv,48.77,48.93,3707.7860000000005,3719.946,76.0,"[212, 221]"
AWI.csv,48.72,48.87,3752.7095,3764.2594999999997,77.0,"[232, 236]"
AWI.csv,48.65,48.75,2676.9425,2682.4425,55.0,"[257, 280]"
AWI.csv,48.8,48.92,3270.8345,3278.8745000000004,67.0,"[283, 337]"
AWI.csv,48.8,48.91,3758.8695,3767.3394999999996,77.0,"[365, 369]"
CME.csv,72.29,72.12,3760.262,3751.422,52.0,"[166, 225]"
HES.csv,75.77,75.75,2577.299,2576.619,34.0,"[188, 247]"
HES.csv,75.49,75.66,3624.6879999999996,3632.848,48.0,"[314, 335]"
KSU.csv,106.12,105.53,7217.398,7177.278,68.0,"[115, 174]"
KSU.csv,105.67,105.85,17437.1275,17466.8275,165.0,"[176, 235]"
IBM.csv,183.48,182.95,6973.373,6953.232999999999,38.0,"[159, 218]"
IBM.csv,182.69,182.85,16991.495499999997,17006.3755,93.0,"[232, 291]"
FBHS.csv,36.93,37.01,1810.7414999999999,1814.6615,49.0,"[116, 123]"
ENR.csv,97.32,96.38,3601.9694999999997,3567.1895,37.0,"[85, 96]"
GME.csv,50.75,50.39,1777.3725,1764.7725,35.0,"[89, 148]"
GME.csv,50.36,49.96,4332.261,4297.861000000001,86.0,"[240, 299]"
GME.csv,50.14,50.28,4213.054,4224.814,84.0,"[319, 335]"
CSOD.csv,52.02,51.47,1977.8930000000003,1956.993,38.0,"[113, 169]"
CSOD.csv,51.39,51.29,4215.267000000001,4207.067,82.0,"[180, 239]"
CSOD.csv,50.87,51.03,3867.386,3879.5460000000003,76.0,"[298, 335]"
CSOD.csv,51.1,51.25,2913.8995000000004,2922.4495,57.0,"[342, 361]"
CSOD.csv,51.24,51.37,2921.8795000000005,2929.2895,57.0,"[363, 374]"
AMTD.csv,26.01,26.08,807.4185000000001,809.5885,31.0,"[136, 159]"
AMTD.csv,25.88,25.95,1036.3400000000001,1039.14,40.0,"[288, 339]"
AMTD.csv,25.89,25.95,1036.74,1039.14,40.0,"[379, 385]"
CNQR.csv,99.39,99.69,5070.0685,5085.3685,51.0,"[98, 104]"
IT.csv,57.89,57.6,1911.4855000000002,1901.9155,33.0,"[95, 154]"
FSLR.csv,36.84,36.92,1732.6445000000003,1736.4045,47.0,"[118, 165]"
FSLR.csv,37.06,37.14,1483.5400000000002,1486.74,40.0,"[283, 286]"
FSLR.csv,36.91,36.99,1735.9344999999998,1739.6945000000003,47.0,"[312, 326]"
CTXS.csv,72.05,71.38,2522.8725,2499.4224999999997,35.0,"[73, 121]"
CTXS.csv,71.28,71.14,2353.3555,2348.7355,33.0,"[137, 196]"
CTXS.csv,70.8,70.96,2974.747,2981.4669999999996,42.0,"[284, 338]"
CTXS.csv,71.0,71.18,6320.3115,6336.3315,89.0,"[345, 366]"
CVI.csv,43.47,43.56,6043.8165,6056.3265,139.0,"[160, 176]"
CVI.csv,43.38,43.51,6031.306500000001,6049.376499999999,139.0,"[197, 200]"
CVI.csv,43.52,43.61,6050.766500000001,6063.2765,139.0,"[225, 235]"
CVI.csv,43.45,43.54,6649.3855,6663.1555,153.0,"[246, 297]"
CVI.csv,43.5,43.1,5569.448,5518.2480000000005,128.0,"[303, 332]"
CVI.csv,43.27,43.39,1385.7520000000002,1389.592,32.0,"[341, 370]"
COF.csv,64.7,64.41,3106.7680000000005,3092.848,48.0,"[113, 172]"
COF.csv,64.34,64.24,5920.602000000001,5911.402,92.0,"[196, 255]"
MMM.csv,113.88,113.3,3645.272,3626.712,32.0,"[113, 172]"
MMM.csv,113.19,112.94,3509.9984999999997,3502.2484999999997,31.0,"[237, 296]"
MMM.csv,113.0,113.23,3843.119,3850.9390000000003,34.0,"[302, 335]"
CPA.csv,132.32,132.6,11380.820999999998,11404.901,86.0,"[99, 102]"
CPA.csv,131.69,130.39,11326.641,11214.840999999999,86.0,"[111, 135]"
CPA.csv,130.4,130.78,5217.14,5232.34,40.0,"[149, 154]"
CPA.csv,130.63,131.01,5226.34,5241.54,40.0,"[233, 240]"
ALKS.csv,32.56,32.52,2801.4610000000002,2798.021,86.0,"[112, 171]"
ALKS.csv,32.5,32.57,2048.7205,2053.1304999999998,63.0,"[302, 310]"
CVLT.csv,84.0,83.4,3697.154,3670.7540000000004,44.0,"[110, 169]"
CVLT.csv,83.02,83.2,8718.4675,8737.3675,105.0,"[216, 218]"
CVLT.csv,82.8,83.07,9523.4025,9554.4525,115.0,"[228, 237]"
CVLT.csv,83.23,82.46,7908.182500000001,7835.0325,95.0,"[241, 269]"
CVLT.csv,82.56,82.83,3055.8495000000003,3065.8395,37.0,"[273, 281]"
CVLT.csv,82.72,82.91,3309.94,3317.5399999999995,40.0,"[379, 382]"
HOT.csv,64.23,64.37,2570.34,2575.94,40.0,"[129, 161]"
HOT.csv,64.34,64.21,3604.236,3596.9559999999997,56.0,"[163, 222]"
HOT.csv,64.12,64.25,3656.0395000000003,3663.4495,57.0,"[226, 240]"
HOT.csv,64.25,64.08,2956.661,2948.841,46.0,"[241, 300]"
FLT.csv,105.45,105.72,17506.281,17551.101,166.0,"[82, 93]"
FLT.csv,105.27,105.24,17476.400999999998,17471.421,166.0,"[195, 254]"
FLT.csv,105.5,105.85,17514.581,17572.680999999997,166.0,"[335, 343]"
ACOR.csv,34.99,35.06,1610.7010000000002,1613.9210000000003,46.0,"[90, 102]"
ACOR.csv,35.09,35.18,1545.114,1549.074,44.0,"[103, 144]"
ACOR.csv,34.93,35.01,1538.074,1541.5939999999998,44.0,"[313, 325]"
ACOR.csv,35.05,35.15,1403.14,1407.14,40.0,"[339, 364]"
ALXN.csv,109.37,109.59,4594.687,4603.927,42.0,"[137, 140]"
ALXN.csv,109.19,109.53,4587.1269999999995,4601.407,42.0,"[171, 176]"
ALXN.csv,109.46,109.0,4598.467,4579.147,42.0,"[197, 256]"
DDD.csv,53.06,53.17,2866.429,2872.369,54.0,"[198, 203]"
DDD.csv,52.55,52.74,1892.926,1899.766,36.0,"[219, 220]"
DDD.csv,52.74,52.85,4167.7365,4176.4265000000005,79.0,"[225, 236]"
DDD.csv,52.81,52.27,4173.2665,4130.6065,79.0,"[239, 270]"
DDD.csv,52.23,52.35,1881.406,1885.726,36.0,"[293, 300]"
DDD.csv,52.86,53.0,4177.2164999999995,4188.2765,79.0,"[336, 338]"
CAB.csv,67.12,67.31,3625.6690000000003,3635.929,54.0,"[98, 103]"
CAB.csv,66.97,67.15,3617.569,3627.289,54.0,"[110, 127]"
CAB.csv,66.58,65.96,3063.841,3035.321,46.0,"[235, 268]"
CAB.csv,65.64,65.8,2626.74,2633.14,40.0,"[302, 320]"
AMP.csv,86.79,86.36,4340.675,4319.175,50.0,"[161, 220]"
AMP.csv,86.21,86.42,4828.955999999999,4840.716,56.0,"[233, 237]"
AMP.csv,86.24,86.46,4830.6359999999995,4842.955999999999,56.0,"[261, 281]"
AMP.csv,86.26,86.49,4831.756,4844.6359999999995,56.0,"[295, 326]"
AMP.csv,86.51,86.69,3721.0805000000005,3728.8205000000003,43.0,"[333, 335]"
GD.csv,84.26,84.2,2613.1684999999998,2611.3085,31.0,"[150, 209]"
FOSL.csv,115.08,114.03,16803.191,16649.891,146.0,"[122, 162]"
BAP.csv,121.21,121.47,5334.394,5345.834000000001,44.0,"[89, 93]"
BAP.csv,120.64,120.71,8084.1145,8088.804499999999,67.0,"[115, 174]"
BAP.csv,120.71,121.0,13400.198499999999,13432.3885,111.0,"[180, 186]"
BAP.csv,120.98,121.06,5324.274,5327.794000000001,44.0,"[196, 255]"
BAP.csv,120.96,121.25,5323.394,5336.154,44.0,"[319, 335]"
DECK.csv,59.86,59.42,7543.8009999999995,7488.361,126.0,"[246, 305]"
DECK.csv,59.87,59.99,7664.808,7680.168000000001,128.0,"[365, 370]"
FNV.csv,45.55,45.68,3736.3869999999997,3747.0469999999996,82.0,"[148, 151]"
FNV.csv,45.84,45.68,2339.0185,2330.8585,51.0,"[230, 289]"
FFIV.csv,84.8,84.5,10007.813,9972.413,118.0,"[148, 207]"
FFIV.csv,84.91,85.08,10020.793,10040.853000000001,118.0,"[336, 344]"
DISCK.csv,71.71,71.35,2869.5399999999995,2855.14,40.0,"[120, 179]"
DISCK.csv,71.24,70.9,3135.714,3120.7540000000004,44.0,"[199, 258]"
MELI.csv,121.9,122.56,17920.8145,18017.8345,147.0,"[85, 88]"
MELI.csv,122.14,121.02,5008.8835,4962.9635,41.0,"[115, 120]"
MELI.csv,120.99,121.38,10890.415,10925.515,90.0,"[135, 139]"
MELI.csv,120.88,121.16,6045.175,6059.175,50.0,"[148, 151]"
MELI.csv,120.5,120.9,15666.455,15718.455,130.0,"[212, 218]"
MELI.csv,120.7,120.99,9536.576500000001,9559.486499999999,79.0,"[255, 281]"
MELI.csv,121.05,121.38,9564.226499999999,9590.2965,79.0,"[282, 329]"
MELI.csv,121.0,121.48,6051.175,6075.175,50.0,"[360, 374]"
IHS.csv,108.81,108.35,7944.3855,7910.8054999999995,73.0,"[109, 168]"
IHS.csv,108.08,108.3,15889.2745,15921.6145,147.0,"[171, 175]"
IHS.csv,108.25,107.71,15914.2645,15834.884499999998,147.0,"[201, 260]"
IHS.csv,107.55,107.77,8067.5125,8084.0125,75.0,"[271, 286]"
ATHN.csv,105.9,105.55,6037.4995,6017.549499999999,57.0,"[173, 232]"
BWA.csv,96.48,96.1,10228.251,10187.970999999998,106.0,"[200, 259]"
BWA.csv,96.09,96.29,3268.179,3274.9790000000003,34.0,"[260, 280]"
BWA.csv,96.29,96.52,3274.9790000000003,3282.799,34.0,"[297, 334]"
IOC.csv,70.0,70.15,2311.1155,2316.0655,33.0,"[90, 103]"
IOC.csv,69.97,70.23,13435.912,13485.832,192.0,"[120, 121]"
IOC.csv,69.9,70.06,2307.8155,2313.0955,33.0,"[150, 153]"
IOC.csv,70.26,70.47,13491.592000000002,13531.912,192.0,"[197, 201]"
IOC.csv,70.0,70.15,4971.2485,4981.8985,71.0,"[207, 234]"
IOC.csv,70.34,69.7,13506.952000000001,13384.072000000002,192.0,"[238, 267]"
IOC.csv,69.3,69.55,4228.5135,4243.7635,61.0,"[269, 274]"
IOC.csv,69.71,69.88,2301.5454999999997,2307.1555,33.0,"[358, 360]"
CP.csv,118.69,119.07,6054.3685,6073.7485,51.0,"[91, 95]"
CP.csv,118.61,117.42,6050.2885,5989.5985,51.0,"[115, 129]"
CP.csv,117.91,117.82,5071.2805,5067.410499999999,43.0,"[284, 343]"
AAPL.csv,494.27,495.3,32128.7775,32195.7275,65.0,"[98, 101]"
AAPL.csv,494.04,495.36,41994.6975,42106.8975,85.0,"[116, 161]"
AAPL.csv,493.31,491.26,86330.8625,85972.1125,175.0,"[172, 231]"
AAPL.csv,488.91,489.94,63559.755000000005,63693.655,130.0,"[291, 328]"
AZO.csv,422.41,422.07,47311.312000000005,47273.231999999996,112.0,"[104, 163]"
AZO.csv,421.69,420.16,21085.675,21009.175,50.0,"[198, 257]"
AZO.csv,420.16,420.01,37815.715000000004,37802.215000000004,90.0,"[259, 318]"
ADS.csv,198.22,196.01,8524.610499999999,8429.5805,43.0,"[86, 124]"
ADS.csv,196.92,197.66,15361.032999999998,15418.752999999999,78.0,"[129, 130]"
ADS.csv,196.31,196.75,10994.556,11019.196,56.0,"[147, 149]"
ADS.csv,197.04,197.67,32119.090500000002,32221.7805,163.0,"[340, 370]"
CELG.csv,142.43,141.86,7692.409000000001,7661.629000000001,54.0,"[205, 264]"
CELG.csv,141.71,142.06,6944.9615,6962.111500000001,49.0,"[297, 310]"
BLK.csv,261.5,262.04,13337.6785,13365.2185,51.0,"[196, 220]"
BLK.csv,261.81,262.36,13353.4885,13381.5385,51.0,"[233, 237]"
BLK.csv,262.01,261.95,13363.6885,13360.628499999999,51.0,"[251, 310]"
BLK.csv,261.48,262.15,10198.856500000002,10224.986499999999,39.0,"[317, 325]"
BLK.csv,263.47,264.06,72720.066,72882.906,276.0,"[371, 372]"
