AYI.csv,91.67,91.53,4859.6955,4852.2755,53.0,"[90, 149]"
AYI.csv,91.19,91.5,5563.8035,5582.7135,61.0,"[179, 218]"
AYI.csv,91.21,91.42,5565.023499999999,5577.8335,61.0,"[270, 282]"
AYI.csv,91.25,91.47,5567.4635,5580.8835,61.0,"[308, 321]"
AYI.csv,91.3,91.49,5570.5135,5582.103499999999,61.0,"[344, 373]"
AFSI.csv,35.44,35.52,3580.7934999999998,3588.8735000000006,101.0,"[197, 210]"
AWAY.csv,31.86,31.94,1116.2224999999999,1119.0225,35.0,"[134, 149]"
CP.csv,122.05,121.39,6713.9425,6677.6425,55.0,"[81, 140]"
CP.csv,121.56,121.65,6079.175,6083.675,50.0,"[299, 358]"
HAIN.csv,79.66,79.55,6453.7435,6444.8335,81.0,"[161, 220]"
GWRE.csv,47.02,47.06,2446.2219999999998,2448.3019999999997,52.0,"[90, 149]"
INCY.csv,37.02,37.08,1407.8930000000003,1410.173,38.0,"[122, 181]"
ETP.csv,51.81,51.93,2073.54,2078.3399999999997,40.0,"[124, 165]"
ETP.csv,51.71,51.7,3000.383,2999.8030000000003,58.0,"[264, 323]"
LMCA.csv,144.55,144.68,11276.173,11286.313,78.0,"[127, 186]"
LMCA.csv,144.89,145.18,7535.461999999999,7550.542,52.0,"[190, 230]"
LMCA.csv,144.57,144.34,11277.732999999998,11259.793,78.0,"[262, 321]"
FIO.csv,14.6,14.65,906.4169999999999,909.517,62.0,"[85, 90]"
FIO.csv,14.56,14.59,903.937,905.797,62.0,"[220, 221]"
FIO.csv,14.57,14.61,904.557,907.0369999999999,62.0,"[273, 294]"
HAS.csv,46.99,46.78,2585.6425000000004,2574.0925,55.0,"[78, 137]"
HAS.csv,46.95,47.07,2583.4425,2590.0425,55.0,"[227, 264]"
AGN.csv,88.86,88.68,2933.4955,2927.5555,33.0,"[88, 147]"
AGN.csv,88.75,88.95,4349.9215,4359.721500000001,49.0,"[169, 224]"
AGN.csv,89.2,89.11,2944.7155,2941.7455,33.0,"[251, 310]"
HBI.csv,61.21,61.36,6061.1365,6075.9865,99.0,"[103, 122]"
HBI.csv,61.32,61.46,5336.1445,5348.324500000001,87.0,"[123, 144]"
HBI.csv,61.32,61.48,6072.0265,6087.866499999999,99.0,"[180, 227]"
HBI.csv,61.28,61.33,4290.845,4294.344999999999,70.0,"[300, 359]"
CHD.csv,59.28,59.4,2075.9225,2080.1225,35.0,"[203, 258]"
DDS.csv,78.63,78.76,4483.1095,4490.5195,57.0,"[191, 250]"
MOS.csv,44.15,44.26,1590.5259999999998,1594.4859999999999,36.0,"[110, 117]"
CYN.csv,66.99,67.12,2948.714,2954.434,44.0,"[167, 226]"
CYN.csv,66.95,67.1,2946.954,2953.5539999999996,44.0,"[262, 288]"
IOC.csv,73.94,73.54,2515.079,2501.4790000000003,34.0,"[85, 144]"
IOC.csv,73.5,73.34,5293.252,5281.732000000001,72.0,"[172, 231]"
IOC.csv,73.42,74.11,5287.492,5337.1720000000005,72.0,"[302, 311]"
CBST.csv,64.52,64.67,4775.739,4786.839,74.0,"[138, 146]"
CBST.csv,64.71,64.84,6278.209499999999,6290.8195000000005,97.0,"[216, 221]"
MHK.csv,126.79,127.12,17878.8835,17925.413500000002,141.0,"[193, 227]"
BMRN.csv,71.4,71.67,13282.051000000001,13332.271,186.0,"[130, 136]"
BMRN.csv,71.49,71.65,13298.791,13328.551000000001,186.0,"[150, 200]"
BMRN.csv,71.59,71.41,13317.391,13283.911,186.0,"[279, 338]"
BJRI.csv,31.64,31.72,1298.3835,1301.6634999999999,41.0,"[126, 142]"
BJRI.csv,31.63,31.33,1297.9734999999998,1285.6734999999999,41.0,"[162, 209]"
BJRI.csv,31.37,31.44,1067.6989999999998,1070.079,34.0,"[214, 220]"
BJRI.csv,31.43,31.51,1981.3104999999998,1986.3505,63.0,"[265, 273]"
BJRI.csv,31.41,31.3,1980.0504999999998,1973.1205,63.0,"[293, 352]"
BJRI.csv,31.35,31.42,1067.019,1069.399,34.0,"[376, 385]"
DLR.csv,54.19,54.13,9484.8625,9474.3625,175.0,"[239, 298]"
DLR.csv,54.14,54.28,9476.1125,9500.6125,175.0,"[373, 380]"
ACM.csv,29.64,29.73,1690.6795,1695.8095,57.0,"[94, 97]"
ACM.csv,29.64,29.6,1690.6795,1688.3995,57.0,"[111, 170]"
ACM.csv,29.64,29.7,1305.314,1307.954,44.0,"[221, 277]"
AMG.csv,183.31,183.68,13199.572,13226.212000000001,72.0,"[209, 218]"
CLB.csv,164.3,164.66,20867.544500000004,20913.2645,127.0,"[74, 122]"
CLB.csv,164.56,164.31,20900.5645,20868.8145,127.0,"[130, 189]"
CLB.csv,164.16,164.0,20849.7645,20829.4445,127.0,"[246, 305]"
IDXX.csv,96.68,96.46,5028.542,5017.102,52.0,"[95, 154]"
IDXX.csv,96.69,96.31,5029.062,5009.302,52.0,"[325, 384]"
CRZO.csv,35.17,35.25,1337.593,1340.633,38.0,"[96, 106]"
ARG.csv,104.57,104.0,6379.983499999999,6345.2135,61.0,"[110, 169]"
CVLT.csv,86.43,85.64,6051.345,5996.045,70.0,"[92, 112]"
CVLT.csv,85.84,85.81,3949.8010000000004,3948.4210000000003,46.0,"[151, 210]"
CVLT.csv,85.92,85.14,5070.4865,5024.4665,59.0,"[243, 295]"
CVLT.csv,85.22,85.47,3324.7165,3334.4665,39.0,"[297, 328]"
CCK.csv,43.69,43.64,1486.579,1484.879,34.0,"[201, 260]"
FMX.csv,100.53,100.3,3017.005,3010.105,30.0,"[75, 134]"
FMX.csv,100.47,100.75,4120.4135,4131.8935,41.0,"[216, 227]"
FMX.csv,100.39,100.16,3012.805,3005.9049999999997,30.0,"[310, 369]"
HSY.csv,91.38,91.5,3747.7235,3752.6435,41.0,"[170, 229]"
EPR.csv,48.3,48.16,3478.852,3468.7719999999995,72.0,"[121, 180]"
EPR.csv,48.11,48.0,1492.5185000000001,1489.1085,31.0,"[251, 310]"
GS.csv,164.22,163.66,10839.751,10802.791,66.0,"[98, 157]"
GS.csv,164.07,163.99,18541.3055,18532.2655,113.0,"[226, 285]"
DTE.csv,65.97,66.11,8577.555,8595.755,130.0,"[75, 121]"
DTE.csv,65.99,65.86,8580.154999999999,8563.255,130.0,"[190, 249]"
DTE.csv,65.86,65.72,7970.483499999999,7953.5435,121.0,"[308, 367]"
CMA.csv,40.59,40.65,1990.0815,1993.0214999999998,49.0,"[180, 239]"
CMA.csv,40.59,40.47,1990.0815,1984.2015,49.0,"[268, 327]"
MGA.csv,80.15,80.0,5531.5915,5521.2415,69.0,"[223, 282]"
AVB.csv,129.14,129.09,8395.3275,8392.077500000001,65.0,"[75, 134]"
AVB.csv,129.26,129.48,8403.1275,8417.4275,65.0,"[272, 331]"
MNST.csv,55.25,55.09,11770.0605,11735.9805,213.0,"[290, 349]"
DECK.csv,59.4,59.53,5406.7185,5418.548500000001,91.0,"[77, 78]"
DECK.csv,59.43,59.06,10104.695,10041.795,170.0,"[134, 193]"
DECK.csv,59.45,59.59,10108.095,10131.895,170.0,"[220, 227]"
GHL.csv,48.88,49.0,3618.3790000000004,3627.259,74.0,"[111, 113]"
GHL.csv,49.0,49.13,3137.224,3145.5440000000003,64.0,"[114, 115]"
GHL.csv,48.88,48.99,3618.3790000000004,3626.5190000000002,74.0,"[130, 147]"
GHL.csv,48.95,49.06,3134.0240000000003,3141.0640000000003,64.0,"[149, 194]"
KORS.csv,73.47,73.63,16238.7485,16274.1085,221.0,"[154, 192]"
KORS.csv,73.5,73.65,8894.9235,8913.073500000002,121.0,"[196, 231]"
KORS.csv,73.78,73.67,14757.7,14735.7,200.0,"[288, 347]"
GWW.csv,268.62,268.11,21222.2565,21181.966500000002,79.0,"[72, 131]"
GWW.csv,268.4,269.09,18789.245,18837.545,70.0,"[188, 216]"
GWW.csv,269.74,270.98,11599.9705,11653.290500000001,43.0,"[234, 253]"
IBB.csv,205.78,206.02,16463.68,16482.88,80.0,"[144, 203]"
ALXN.csv,113.56,113.79,5224.921,5235.501,46.0,"[168, 190]"
HAR.csv,65.4,64.86,2093.9120000000003,2076.632,32.0,"[113, 172]"
HAR.csv,65.07,65.21,3384.821999999999,3392.1019999999994,52.0,"[218, 231]"
HAR.csv,65.07,65.27,4556.1449999999995,4570.1449999999995,70.0,"[262, 280]"
GMCR.csv,84.13,83.34,8750.884,8668.724,104.0,"[78, 129]"
GMCR.csv,83.72,83.46,8875.690999999999,8848.131,106.0,"[149, 208]"
GMCR.csv,83.71,83.9,8874.631,8894.771,106.0,"[232, 268]"
GMCR.csv,83.8,83.47,12822.9355,12772.4455,153.0,"[285, 344]"
BLK.csv,263.12,260.86,12104.681,12000.721000000001,46.0,"[116, 175]"
BLK.csv,261.66,262.23,44222.1315,44318.461500000005,169.0,"[182, 218]"
BLK.csv,262.49,262.91,41737.4665,41804.2465,159.0,"[221, 280]"
BLK.csv,262.45,263.17,29920.699,30002.779000000002,114.0,"[289, 319]"
BLK.csv,262.95,261.99,100976.06399999998,100607.424,384.0,"[324, 383]"
AMZN.csv,299.6,300.2,12284.7435,12309.343499999999,41.0,"[110, 113]"
AMZN.csv,299.49,298.92,12280.2335,12256.863500000001,41.0,"[125, 184]"
AMZN.csv,299.55,300.26,55418.3975,55549.7475,185.0,"[227, 277]"
AMZN.csv,299.87,300.5,12295.8135,12321.6435,41.0,"[314, 326]"
LNKD.csv,255.0,252.67,9691.133,9602.592999999999,38.0,"[112, 125]"
LNKD.csv,253.76,251.47,47962.3015,47529.491500000004,189.0,"[148, 176]"
LNKD.csv,252.23,252.8,9838.1065,9860.336500000001,39.0,"[178, 183]"
LNKD.csv,251.34,251.98,8546.679,8568.439,34.0,"[193, 196]"
LNKD.csv,251.98,252.63,9828.3565,9853.7065,39.0,"[205, 220]"
LNKD.csv,252.25,250.68,17910.9985,17799.5285,71.0,"[278, 337]"
GOOG.csv,894.07,892.4,144840.907,144570.367,162.0,"[82, 141]"
GOOG.csv,894.38,895.72,144891.127,145108.20700000002,162.0,"[221, 280]"
