DVA.csv,58.37,58.21,2219.1929999999998,2213.113,38.0,"[266, 325]"
MD.csv,101.35,101.31,8818.7545,8815.2745,87.0,"[235, 294]"
MD.csv,101.23,101.27,8808.3145,8811.7945,87.0,"[302, 361]"
DRQ.csv,114.14,114.3,10616.345500000001,10631.2255,93.0,"[100, 159]"
DRQ.csv,114.18,114.43,10620.0655,10643.3155,93.0,"[170, 193]"
DRQ.csv,114.15,114.06,10617.275500000002,10608.9055,93.0,"[203, 262]"
DRQ.csv,114.06,114.29,10608.9055,10630.295500000002,93.0,"[312, 324]"
BWLD.csv,110.25,110.52,5182.9145,5195.6044999999995,47.0,"[148, 173]"
BWLD.csv,110.39,110.02,3533.592,3521.752,32.0,"[184, 243]"
BWLD.csv,109.83,110.11,12961.353000000001,12994.393,118.0,"[249, 258]"
BWLD.csv,109.7,109.98,12946.013,12979.053000000002,118.0,"[270, 273]"
BWLD.csv,110.2,109.8,5180.5645,5161.764499999999,47.0,"[288, 347]"
CAT.csv,87.52,87.73,3589.4635,3598.0735000000004,41.0,"[149, 155]"
CAT.csv,87.55,87.57,3590.6935,3591.5135,41.0,"[190, 249]"
CAT.csv,87.52,87.7,3589.4635,3596.8435000000004,41.0,"[255, 298]"
INTU.csv,66.01,66.15,4753.972000000001,4764.052000000001,72.0,"[221, 277]"
DLPH.csv,57.84,57.96,1967.679,1971.759,34.0,"[223, 228]"
DLPH.csv,57.99,58.13,1972.779,1977.539,34.0,"[274, 286]"
ABG.csv,53.35,53.49,2508.6145,2515.1945,47.0,"[324, 354]"
ETE.csv,64.99,64.54,2080.792,2066.3920000000003,32.0,"[218, 277]"
MUR.csv,62.31,62.19,3116.675,3110.675,50.0,"[87, 146]"
MUR.csv,62.32,62.02,2930.2045,2916.1045,47.0,"[155, 214]"
GMCR.csv,85.61,84.71,3083.0860000000002,3050.686,36.0,"[74, 79]"
GMCR.csv,84.41,84.77,5065.8099999999995,5087.41,60.0,"[87, 89]"
GMCR.csv,84.69,84.86,6776.48,6790.08,80.0,"[96, 124]"
GMCR.csv,84.74,84.98,7288.941,7309.581000000001,86.0,"[144, 154]"
GMCR.csv,85.52,85.7,4448.222,4457.582,52.0,"[171, 180]"
GMCR.csv,85.64,85.27,3084.166,3070.846,36.0,"[181, 240]"
GMCR.csv,84.79,84.58,2968.7725,2961.4224999999997,35.0,"[314, 373]"
ARIA.csv,21.0,21.05,799.133,801.033,38.0,"[81, 88]"
ARIA.csv,21.36,21.41,1859.6245,1863.9745,87.0,"[187, 189]"
KSU.csv,111.65,111.91,6141.9425,6156.2425,55.0,"[174, 181]"
KSU.csv,112.05,112.01,5267.514499999999,5265.6345,47.0,"[192, 251]"
AEM.csv,29.28,29.34,2343.6800000000003,2348.48,80.0,"[142, 147]"
AEM.csv,28.95,29.03,2809.4895,2817.2495000000004,97.0,"[189, 193]"
AEM.csv,29.03,28.76,2817.2495000000004,2791.0595000000003,97.0,"[229, 243]"
AEM.csv,28.55,28.65,4426.7925,4442.2925,155.0,"[290, 299]"
AEM.csv,28.61,28.73,4436.0925,4454.692499999999,155.0,"[308, 332]"
AEM.csv,28.71,28.81,4451.5925,4467.0925,155.0,"[333, 336]"
AWAY.csv,31.7,31.77,1427.6575,1430.8075000000001,45.0,"[72, 74]"
AWAY.csv,31.84,31.93,1370.2704999999999,1374.1405,43.0,"[92, 110]"
AWAY.csv,31.88,31.95,1021.2719999999999,1023.512,32.0,"[148, 160]"
AWAY.csv,31.9,31.97,1021.9119999999999,1024.152,32.0,"[223, 276]"
AWAY.csv,31.94,31.93,1023.192,1022.872,32.0,"[293, 352]"
LSTR.csv,56.74,56.87,3235.3795000000005,3242.7895,57.0,"[83, 111]"
LSTR.csv,56.69,56.54,2722.288,2715.088,48.0,"[241, 300]"
DECK.csv,61.68,61.83,2283.2895,2288.8395,37.0,"[74, 95]"
DECK.csv,61.97,61.75,4029.2774999999997,4014.9775,65.0,"[209, 268]"
DECK.csv,61.84,61.97,2412.8965000000003,2417.9665,39.0,"[294, 299]"
ATW.csv,56.82,56.71,2444.4105000000004,2439.6805000000004,43.0,"[245, 304]"
CIE.csv,25.55,25.65,1253.1215,1258.0214999999998,49.0,"[362, 370]"
KMR.csv,76.35,76.09,4124.089,4110.049000000001,54.0,"[277, 336]"
IBM.csv,193.58,193.58,8325.0905,8325.0905,43.0,"[261, 320]"
CBST.csv,64.81,64.95,2982.4210000000003,2988.8610000000003,46.0,"[82, 89]"
CBST.csv,65.01,65.0,4551.945000000001,4551.245,70.0,"[117, 176]"
CBST.csv,64.66,64.55,2716.8669999999997,2712.247,42.0,"[219, 278]"
CBST.csv,64.29,64.43,2958.501,2964.9410000000003,46.0,"[313, 325]"
CBST.csv,64.31,64.45,2959.4210000000003,2965.8610000000003,46.0,"[375, 388]"
KORS.csv,76.0,76.2,3421.1575,3430.1575,45.0,"[95, 97]"
JCOM.csv,50.68,50.55,2079.0235000000002,2073.6935,41.0,"[180, 239]"
ISRG.csv,371.5,371.13,163092.2315,162929.8015,439.0,"[74, 133]"
ISRG.csv,371.03,370.33,162885.90149999998,162578.6015,439.0,"[177, 236]"
GPOR.csv,63.06,63.27,2145.159,2152.2990000000004,34.0,"[109, 157]"
GPOR.csv,62.88,63.04,2327.6895,2333.6095,37.0,"[220, 226]"
GPOR.csv,63.07,62.6,3785.41,3757.21,60.0,"[230, 289]"
GPOR.csv,62.58,62.29,3005.0080000000003,2991.088,48.0,"[302, 361]"
GS.csv,168.16,167.27,9081.829,9033.769,54.0,"[238, 297]"
CVD.csv,85.78,85.83,7378.381,7382.6810000000005,86.0,"[86, 145]"
CVD.csv,85.62,85.07,9333.9615,9274.011499999999,109.0,"[204, 263]"
CVD.csv,84.99,85.19,9095.3045,9116.7045,107.0,"[267, 282]"
CVD.csv,85.18,85.36,9030.451,9049.530999999999,106.0,"[305, 329]"
GG.csv,27.43,27.15,1564.7095,1548.7495,57.0,"[238, 271]"
GG.csv,27.32,27.39,1476.469,1480.249,54.0,"[290, 299]"
GG.csv,27.54,27.6,1047.653,1049.933,38.0,"[336, 346]"
GG.csv,27.59,27.31,1159.927,1148.167,42.0,"[349, 368]"
GG.csv,27.28,27.35,1474.3090000000002,1478.0890000000002,54.0,"[369, 370]"
INCY.csv,35.84,35.93,1183.8355000000001,1186.8055000000002,33.0,"[79, 114]"
INCY.csv,35.83,35.97,1183.5055,1188.1255,33.0,"[138, 153]"
INCY.csv,36.07,36.17,2959.027,2967.227,82.0,"[159, 162]"
INCY.csv,36.04,36.13,4542.481,4553.821,126.0,"[170, 178]"
INCY.csv,35.98,36.06,4714.838499999999,4725.3185,131.0,"[220, 230]"
INCY.csv,36.05,36.13,2993.4404999999997,3000.0805000000005,83.0,"[354, 379]"
COO.csv,134.03,133.37,6434.608,6402.928,48.0,"[75, 134]"
COO.csv,133.22,132.26,7061.845499999999,7010.965499999999,53.0,"[148, 207]"
COO.csv,131.73,132.0,10671.413499999999,10693.2835,81.0,"[332, 351]"
GTLS.csv,124.0,123.06,21453.6055,21290.985500000003,173.0,"[165, 224]"
GTLS.csv,123.36,123.66,3948.632,3958.232,32.0,"[248, 268]"
GTLS.csv,124.17,124.59,21483.0155,21555.6755,173.0,"[278, 308]"
BIDU.csv,147.56,147.97,5165.722500000001,5180.0725,35.0,"[145, 157]"
BIDU.csv,147.58,147.99,5166.422500000001,5180.772500000001,35.0,"[254, 286]"
BIDU.csv,147.63,147.94,5168.172500000001,5179.0225,35.0,"[294, 329]"
CPA.csv,138.75,139.04,9713.745,9734.045,70.0,"[100, 143]"
CPA.csv,139.03,139.32,9733.345000000001,9753.645,70.0,"[319, 348]"
CVLT.csv,87.48,87.67,4287.691500000001,4297.0015,49.0,"[85, 114]"
GWR.csv,94.45,94.27,3117.9655,3112.0254999999997,33.0,"[118, 177]"
CLB.csv,165.21,165.61,7931.248,7950.448,48.0,"[154, 164]"
ALXN.csv,113.81,113.64,13772.433500000001,13751.863500000001,121.0,"[75, 134]"
ALXN.csv,113.7,113.99,21832.072,21887.751999999997,192.0,"[149, 174]"
ALXN.csv,113.72,113.81,13761.5435,13772.433500000001,121.0,"[190, 249]"
ALXN.csv,113.72,113.95,13761.5435,13789.373500000002,121.0,"[269, 274]"
ALXN.csv,114.02,113.91,11631.396999999999,11620.177,102.0,"[284, 343]"
LMCA.csv,148.06,148.36,7552.2385,7567.538500000001,51.0,"[92, 116]"
LNKD.csv,249.11,249.87,48329.019,48476.458999999995,194.0,"[75, 110]"
LNKD.csv,248.73,248.75,78352.6275,78358.9275,315.0,"[125, 184]"
LNKD.csv,249.07,249.71,78459.72750000001,78661.32750000001,315.0,"[190, 241]"
LNKD.csv,248.87,248.3,11200.307499999999,11174.6575,45.0,"[247, 306]"
LNKD.csv,248.96,249.5,78425.07750000001,78595.1775,315.0,"[345, 363]"
MTB.csv,112.16,112.26,6057.829,6063.229,54.0,"[174, 233]"
MTB.csv,112.24,112.47,6062.149,6074.569,54.0,"[257, 265]"
MTB.csv,112.91,112.99,4291.713,4294.753,38.0,"[278, 337]"
CELG.csv,147.47,147.23,33477.6195,33423.1395,227.0,"[95, 154]"
CELG.csv,147.86,148.05,36375.651000000005,36422.391,246.0,"[218, 277]"
CELG.csv,147.91,148.25,33577.4995,33654.6795,227.0,"[348, 353]"
CELG.csv,148.22,148.52,27422.3475,27477.8475,185.0,"[373, 386]"
MELI.csv,128.0,128.19,8321.2275,8333.577500000001,65.0,"[188, 247]"
MELI.csv,128.81,129.15,18550.144,18599.104000000003,144.0,"[346, 364]"
CMG.csv,423.96,423.0,80978.0285,80794.6685,191.0,"[80, 139]"
CMG.csv,423.6,422.84,134707.50300000003,134465.823,318.0,"[153, 212]"
CMG.csv,422.53,423.38,73099.29550000001,73246.34550000001,173.0,"[222, 241]"
CMG.csv,422.13,421.86,73030.09550000001,72983.3855,173.0,"[252, 311]"
CMG.csv,422.04,421.73,97071.15500000001,96999.85500000001,230.0,"[321, 380]"
AZO.csv,419.39,419.28,78427.5845,78407.0145,187.0,"[81, 140]"
AZO.csv,419.13,420.3,16766.34,16813.14,40.0,"[144, 158]"
AZO.csv,421.17,420.61,24007.8895,23975.9695,57.0,"[196, 255]"
AZO.csv,421.43,422.35,24022.7095,24075.1495,57.0,"[278, 334]"
