DECK.csv,67.29,67.56,3971.3165000000004,3987.2464999999997,59.0,"[76, 92]"
EXR.csv,45.96,45.51,1701.6495,1684.9995,37.0,"[77, 105]"
EXR.csv,46.04,46.01,1612.5224999999998,1611.4724999999999,35.0,"[226, 285]"
EXR.csv,45.97,46.07,1702.0194999999999,1705.7195,37.0,"[334, 345]"
CBD.csv,47.0,47.1,1834.1365,1838.0365000000002,39.0,"[73, 89]"
CBD.csv,47.02,47.17,1834.9165000000003,1840.7665000000002,39.0,"[100, 129]"
CBD.csv,47.29,47.39,2365.675,2370.675,50.0,"[131, 143]"
CBD.csv,47.13,47.25,2876.1435,2883.4635,61.0,"[278, 283]"
CBD.csv,47.09,47.11,2873.7035,2874.9235,61.0,"[295, 354]"
LHO.csv,28.47,28.51,1082.993,1084.5130000000001,38.0,"[317, 376]"
AMT.csv,73.01,72.65,5038.931500000001,5014.0915,69.0,"[81, 140]"
ATK.csv,97.4,97.6,4481.561000000001,4490.7609999999995,46.0,"[82, 104]"
ATK.csv,98.39,98.48,7085.332,7091.812000000001,72.0,"[275, 334]"
CLB.csv,173.48,173.94,16655.415999999997,16699.575999999997,96.0,"[86, 125]"
GILD.csv,62.56,62.7,2753.7940000000003,2759.954,44.0,"[83, 137]"
GTLS.csv,128.84,129.16,8375.827500000001,8396.6275,65.0,"[81, 97]"
GTLS.csv,128.23,127.84,4745.639499999999,4731.2095,37.0,"[223, 282]"
GTLS.csv,127.75,127.32,13287.364,13242.643999999998,104.0,"[302, 361]"
HCN.csv,61.48,61.62,1968.472,1972.952,32.0,"[100, 139]"
HCN.csv,61.59,61.66,1971.9920000000002,1974.232,32.0,"[260, 319]"
HCN.csv,61.54,61.73,1970.392,1976.472,32.0,"[329, 376]"
CRI.csv,76.57,76.61,3140.5135,3142.1535,41.0,"[94, 153]"
DLR.csv,53.1,52.56,4780.315,4731.715,90.0,"[88, 106]"
CLX.csv,82.1,81.55,12727.0425,12641.7925,155.0,"[79, 138]"
CVD.csv,87.38,87.35,2972.039,2971.019,34.0,"[72, 131]"
DE.csv,82.16,82.05,3041.0495,3036.9795,37.0,"[77, 136]"
DE.csv,82.27,82.45,2716.0254999999997,2721.9655,33.0,"[154, 185]"
CLH.csv,58.59,58.71,2754.8945,2760.5344999999998,47.0,"[81, 102]"
DRC.csv,62.05,62.18,3972.424,3980.744,64.0,"[289, 328]"
ENR.csv,93.33,93.56,6067.6775,6082.6275000000005,65.0,"[169, 177]"
ENR.csv,93.28,93.2,6064.4275,6059.2275,65.0,"[223, 282]"
DDS.csv,78.86,79.13,3865.3115,3878.5415,49.0,"[85, 143]"
DDS.csv,79.1,79.28,7674.0395,7691.4995,97.0,"[156, 173]"
DDS.csv,79.09,79.26,3876.5815000000002,3884.9115,49.0,"[298, 300]"
AAXJ.csv,60.0,59.99,4501.2625,4500.5125,75.0,"[178, 237]"
AAXJ.csv,60.01,60.0,4021.9045,4021.2345,67.0,"[293, 352]"
HLF.csv,68.19,68.34,9138.928999999998,9159.029,134.0,"[79, 97]"
HLF.csv,69.3,69.45,6238.315,6251.815,90.0,"[123, 136]"
HLF.csv,69.71,69.93,5578.079999999999,5595.68,80.0,"[138, 146]"
HLF.csv,69.78,69.12,2862.1235,2835.0635,41.0,"[364, 371]"
CSOD.csv,51.38,51.57,4368.5975,4384.7474999999995,85.0,"[72, 80]"
CSOD.csv,51.74,51.85,2588.175,2593.675,50.0,"[86, 116]"
IHS.csv,112.94,112.78,15926.0335,15903.4735,141.0,"[103, 162]"
FDO.csv,72.64,72.79,4650.184,4659.784000000001,64.0,"[79, 118]"
FDO.csv,72.81,72.78,4661.064,4659.144,64.0,"[119, 178]"
FDO.csv,72.73,72.63,5674.213000000001,5666.413,78.0,"[208, 267]"
FDO.csv,72.62,72.61,4648.904,4648.264,64.0,"[296, 355]"
INTU.csv,66.4,66.33,2657.14,2654.3399999999997,40.0,"[84, 143]"
INTU.csv,66.31,66.34,3316.675,3318.175,50.0,"[274, 333]"
FOSL.csv,117.93,117.96,10497.0815,10499.751499999998,89.0,"[76, 135]"
FOSL.csv,118.31,118.6,10530.9015,10556.7115,89.0,"[144, 166]"
AYI.csv,96.22,96.44,12028.9375,12056.4375,125.0,"[310, 319]"
ILMN.csv,80.61,80.81,8223.577,8243.977,102.0,"[141, 166]"
ILMN.csv,80.78,80.95,8644.8345,8663.0245,107.0,"[167, 179]"
ILMN.csv,80.53,80.82,4994.076999999999,5012.056999999999,62.0,"[193, 195]"
ILMN.csv,81.12,81.3,2759.199,2765.319,34.0,"[199, 207]"
AMGN.csv,112.82,112.62,4626.7635,4618.5635,41.0,"[74, 133]"
AMGN.csv,113.09,113.34,3619.992,3627.992,32.0,"[274, 308]"
GS.csv,156.6,156.36,4855.7085,4848.268500000001,31.0,"[100, 159]"
GS.csv,156.47,156.33,8919.9895,8912.009500000002,57.0,"[196, 255]"
JOY.csv,51.36,51.47,3493.718,3501.198,68.0,"[82, 92]"
JOY.csv,51.58,51.69,3560.2615,3567.8514999999998,69.0,"[97, 152]"
JOY.csv,51.76,51.66,2744.4655,2739.1655,53.0,"[189, 248]"
JOY.csv,51.78,51.9,2538.3915,2544.2715,49.0,"[262, 275]"
GPC.csv,80.22,80.41,3851.728,3860.848,48.0,"[269, 282]"
GPC.csv,80.53,80.47,7249.014999999999,7243.615,90.0,"[323, 382]"
FDX.csv,113.75,114.02,13651.42,13683.82,120.0,"[98, 142]"
FDX.csv,114.7,114.48,8833.1695,8816.229500000001,77.0,"[179, 238]"
FDX.csv,114.52,114.77,10880.7325,10904.4825,95.0,"[280, 320]"
MHK.csv,130.69,130.57,39863.042499999996,39826.4425,305.0,"[107, 166]"
MHK.csv,130.76,130.72,39884.392499999994,39872.1925,305.0,"[167, 226]"
CMI.csv,133.52,133.45,6677.175000000001,6673.674999999999,50.0,"[180, 239]"
CMI.csv,133.53,133.2,6677.675,6661.174999999999,50.0,"[323, 382]"
MCO.csv,70.8,70.68,4744.834499999999,4736.7945,67.0,"[183, 242]"
MCO.csv,70.94,70.9,4754.214499999999,4751.5345,67.0,"[322, 381]"
EMN.csv,79.16,79.12,3088.3765,3086.8165000000004,39.0,"[93, 152]"
FISV.csv,101.1,101.0,7785.9695,7778.2695,77.0,"[305, 364]"
MCK.csv,131.09,131.27,9439.732,9452.692000000001,72.0,"[140, 199]"
LMCA.csv,147.34,147.66,16945.502500000002,16982.302499999998,115.0,"[80, 94]"
LMCA.csv,147.38,147.3,14149.815999999999,14142.136,96.0,"[106, 165]"
LMCA.csv,147.42,147.43,6340.210499999999,6340.6405,43.0,"[202, 261]"
LMCA.csv,147.9,148.27,14347.639500000001,14383.5295,97.0,"[296, 341]"
AZO.csv,422.39,423.31,74342.256,74504.17599999999,176.0,"[172, 218]"
AZO.csv,423.31,422.28,16933.54,16892.339999999997,40.0,"[219, 278]"
AZO.csv,422.04,421.94,17726.827,17722.627,42.0,"[290, 349]"
CNQR.csv,110.97,111.2,5660.6485,5672.3785,51.0,"[95, 143]"
CNQR.csv,111.33,110.97,3563.672,3552.152,32.0,"[186, 245]"
CNQR.csv,110.85,110.88,5654.528499999999,5656.0585,51.0,"[258, 317]"
GCO.csv,67.58,67.75,3582.9255,3591.9355,53.0,"[84, 129]"
BMRN.csv,74.17,74.05,18618.8035,18588.6835,251.0,"[79, 138]"
BMRN.csv,74.1,74.26,16452.086999999996,16487.607,222.0,"[139, 144]"
BMRN.csv,74.29,74.21,18648.9235,18628.8435,251.0,"[198, 257]"
BMRN.csv,74.34,74.5,18141.034,18180.074,244.0,"[267, 281]"
BMRN.csv,74.38,73.93,18671.513499999997,18558.5635,251.0,"[297, 356]"
BXP.csv,106.98,105.96,4280.34,4239.54,40.0,"[81, 101]"
BXP.csv,106.3,106.57,7017.031,7034.851,66.0,"[127, 141]"
BXP.csv,107.1,106.48,4285.14,4260.34,40.0,"[218, 277]"
BXP.csv,106.4,106.74,9896.525500000002,9928.1455,93.0,"[295, 304]"
BXP.csv,106.62,106.45,9916.9855,9901.175500000001,93.0,"[320, 379]"
BIDU.csv,159.48,159.82,12919.163499999999,12946.7035,81.0,"[75, 90]"
BIDU.csv,159.59,159.99,12928.0735,12960.4735,81.0,"[270, 303]"
BIDU.csv,159.34,158.96,12907.8235,12877.0435,81.0,"[329, 388]"
CELG.csv,155.25,155.64,24841.56,24903.96,160.0,"[101, 103]"
FLT.csv,111.44,111.68,20618.047499999997,20662.447500000002,185.0,"[77, 80]"
FLT.csv,111.97,111.95,13773.7405,13771.2805,123.0,"[85, 144]"
FLT.csv,111.95,112.05,13771.2805,13783.5805,123.0,"[173, 232]"
COO.csv,127.14,127.38,4578.166,4586.8060000000005,36.0,"[221, 280]"
FMX.csv,98.03,98.29,7059.412,7078.1320000000005,72.0,"[119, 138]"
FMX.csv,98.66,98.58,13320.5725,13309.7725,135.0,"[232, 291]"
MTH.csv,42.25,42.34,2198.182,2202.862,52.0,"[153, 167]"
MTH.csv,42.57,42.68,2214.8219999999997,2220.542,52.0,"[181, 186]"
MTH.csv,42.05,41.91,2187.7819999999997,2180.5019999999995,52.0,"[328, 387]"
EQIX.csv,166.85,166.71,32203.7255,32176.705500000004,193.0,"[119, 178]"
EQIX.csv,166.89,167.28,32211.445499999998,32286.715500000002,193.0,"[254, 261]"
BIIB.csv,237.92,238.44,85178.403,85364.56300000001,358.0,"[78, 111]"
BIIB.csv,237.88,238.5,85164.083,85386.043,358.0,"[130, 137]"
BIIB.csv,240.64,241.2,11551.887999999999,11578.767999999998,48.0,"[328, 342]"
BIIB.csv,240.23,240.73,11532.207999999999,11556.207999999999,48.0,"[353, 358]"
DNB.csv,104.17,103.76,32816.2275,32687.077500000003,315.0,"[180, 239]"
ISRG.csv,362.92,363.91,76214.985,76422.88500000001,210.0,"[124, 126]"
ISRG.csv,363.1,363.85,76252.785,76410.285,210.0,"[362, 384]"
ESS.csv,148.78,147.37,20384.339500000002,20191.169500000004,137.0,"[77, 103]"
ESS.csv,147.37,147.71,8253.916000000001,8272.956,56.0,"[104, 110]"
ESS.csv,148.16,148.57,8001.829,8023.969,54.0,"[153, 168]"
ESS.csv,148.35,148.23,5193.3725,5189.1725,35.0,"[229, 288]"
AAPL.csv,481.0,480.48,22127.161,22103.241,46.0,"[72, 131]"
AAPL.csv,482.44,483.71,24605.6185,24670.3885,51.0,"[322, 345]"
AAPL.csv,482.51,483.49,22196.621,22241.701,46.0,"[356, 383]"
GOOG.csv,873.73,871.87,97859.15200000002,97650.83200000001,112.0,"[87, 146]"
GOOG.csv,874.0,873.38,63803.2555,63757.9955,73.0,"[200, 259]"
