CRUS.csv,23.11,22.94,1480.264,1469.384,64.0,"[100, 159]"
CRUS.csv,23.14,23.14,1597.9015000000002,1597.9015000000002,69.0,"[302, 361]"
CTSH.csv,82.85,82.64,4060.8214999999996,4050.5315,49.0,"[144, 203]"
CTSH.csv,82.5,82.2,3961.168,3946.7680000000005,48.0,"[234, 293]"
FNGN.csv,56.66,56.05,4930.7245,4877.6545,87.0,"[101, 125]"
FNGN.csv,55.88,55.22,4862.864500000001,4805.4445000000005,87.0,"[127, 140]"
HPY.csv,38.84,38.81,1826.6445000000003,1825.2345000000003,47.0,"[159, 218]"
HPY.csv,38.99,38.94,1209.7985,1208.2485,31.0,"[238, 297]"
HPY.csv,38.96,38.83,1208.8685,1204.8385,31.0,"[301, 360]"
ABC.csv,61.55,61.26,2832.461,2819.121,46.0,"[86, 145]"
ABC.csv,61.19,61.32,2815.901,2821.881,46.0,"[250, 295]"
ABC.csv,61.48,61.48,1845.5049999999999,1845.5049999999999,30.0,"[301, 360]"
MJN.csv,75.11,75.04,5108.718,5103.9580000000005,68.0,"[85, 144]"
MJN.csv,75.12,75.29,3832.2985000000003,3840.9685000000004,51.0,"[149, 194]"
MJN.csv,75.12,75.31,5109.398,5122.318,68.0,"[233, 240]"
MJN.csv,75.16,75.19,5112.118,5114.158,68.0,"[309, 368]"
CFR.csv,69.46,69.36,4029.883,4024.083,58.0,"[137, 196]"
GCO.csv,66.32,66.16,2521.2929999999997,2515.2129999999997,38.0,"[136, 195]"
GCO.csv,66.19,66.2,3045.901,3046.3610000000003,46.0,"[216, 275]"
GCO.csv,65.96,65.76,7652.766,7629.566000000001,116.0,"[293, 352]"
KRC.csv,50.0,50.0,1801.126,1801.126,36.0,"[243, 302]"
CNW.csv,42.68,42.77,1409.5555000000002,1412.5255000000002,33.0,"[176, 210]"
CNW.csv,42.7,42.79,1538.326,1541.566,36.0,"[232, 237]"
CNW.csv,42.71,42.82,1538.686,1542.646,36.0,"[248, 253]"
CNW.csv,42.75,42.6,1540.126,1534.726,36.0,"[280, 339]"
DOW.csv,38.91,38.86,2452.5505,2449.4004999999997,63.0,"[105, 164]"
APC.csv,93.17,93.42,5591.41,5606.41,60.0,"[90, 116]"
KMP.csv,79.54,79.4,5648.5885,5638.6485,71.0,"[116, 175]"
KMP.csv,79.25,79.18,2695.619,2693.2390000000005,34.0,"[307, 366]"
CLR.csv,111.44,110.39,10922.463,10819.563,98.0,"[72, 85]"
CLR.csv,110.36,110.61,5960.629,5974.129,54.0,"[86, 103]"
GME.csv,49.83,49.35,1844.8395,1827.0795,37.0,"[82, 93]"
GME.csv,49.31,49.38,4340.588000000001,4346.7480000000005,88.0,"[100, 159]"
GME.csv,49.34,49.44,4343.228,4352.027999999999,88.0,"[294, 308]"
MTB.csv,110.66,110.33,3542.232,3531.672,32.0,"[83, 142]"
GOLD.csv,70.38,70.54,5279.7625,5291.762500000001,75.0,"[225, 239]"
GOLD.csv,70.24,69.53,5269.2625,5216.0125,75.0,"[305, 334]"
GOLD.csv,69.42,69.58,3888.716,3897.676,56.0,"[351, 355]"
GOLD.csv,69.11,69.27,2972.8805,2979.7605,43.0,"[369, 373]"
AMG.csv,184.26,184.82,13452.235499999999,13493.115499999998,73.0,"[95, 97]"
AMG.csv,184.49,183.36,8118.714000000001,8068.994000000001,44.0,"[123, 182]"
AMG.csv,183.99,184.4,6256.7789999999995,6270.719,34.0,"[208, 213]"
AMG.csv,184.07,183.21,17856.1295,17772.709499999997,97.0,"[215, 274]"
AMG.csv,183.24,183.65,6597.7660000000005,6612.526000000001,36.0,"[307, 308]"
AMG.csv,183.59,184.05,6243.179,6258.819,34.0,"[341, 353]"
DVA.csv,58.1,57.53,4010.1415,3970.8115000000003,69.0,"[82, 138]"
ATK.csv,96.81,97.04,6100.2505,6114.740500000001,63.0,"[138, 152]"
ATK.csv,97.13,97.3,6800.344999999999,6812.245,70.0,"[275, 334]"
DIS.csv,64.39,64.27,3800.2165,3793.1364999999996,59.0,"[122, 181]"
CCOI.csv,32.14,31.97,1158.166,1152.046,36.0,"[83, 142]"
CCOI.csv,32.15,32.25,1158.5259999999998,1162.126,36.0,"[193, 250]"
CCOI.csv,32.12,32.25,1157.446,1162.126,36.0,"[320, 329]"
FRT.csv,103.3,102.73,10847.8675,10788.0175,105.0,"[91, 150]"
FRT.csv,102.27,102.06,7466.9655,7451.6355,73.0,"[245, 304]"
MELI.csv,133.63,134.0,13631.617,13669.357,102.0,"[79, 80]"
MELI.csv,129.32,129.66,7372.4394999999995,7391.8195,57.0,"[184, 185]"
MELI.csv,129.5,129.8,7253.196,7269.996000000001,56.0,"[217, 221]"
MELI.csv,129.78,130.08,7268.876,7285.676,56.0,"[233, 236]"
MELI.csv,129.84,130.14,7272.236,7289.035999999999,56.0,"[250, 296]"
MELI.csv,129.99,130.3,7280.636,7297.996000000001,56.0,"[306, 337]"
MELI.csv,129.6,129.88,7258.795999999999,7274.476,56.0,"[344, 352]"
JAH.csv,47.99,47.77,2544.6555000000003,2532.9955,53.0,"[88, 147]"
COL.csv,66.88,66.43,3278.2915,3256.2415,49.0,"[75, 134]"
DO.csv,62.24,62.28,3175.4185,3177.4585,51.0,"[235, 294]"
DO.csv,62.26,62.39,2553.8035,2559.1335000000004,41.0,"[335, 355]"
KORS.csv,73.06,73.34,2558.2225,2568.0225,35.0,"[93, 100]"
KORS.csv,73.07,72.38,2558.5724999999998,2534.4224999999997,35.0,"[118, 133]"
HCN.csv,61.89,61.86,3343.249,3341.629,54.0,"[190, 249]"
HCN.csv,61.85,61.98,3341.089,3348.1089999999995,54.0,"[270, 297]"
ABMD.csv,20.01,20.09,801.5400000000001,804.74,40.0,"[82, 103]"
ABMD.csv,19.78,19.83,1741.948,1746.348,88.0,"[235, 237]"
ABMD.csv,19.85,19.75,1748.1080000000002,1739.308,88.0,"[266, 325]"
ABMD.csv,19.78,19.84,1741.948,1747.228,88.0,"[368, 373]"
H.csv,44.05,44.14,2908.531,2914.4710000000005,66.0,"[82, 132]"
H.csv,43.94,44.03,3428.593,3435.6130000000003,78.0,"[181, 222]"
H.csv,44.08,43.97,4277.0995,4266.4295,97.0,"[236, 295]"
BWA.csv,100.82,99.91,8470.173999999999,8393.734,84.0,"[78, 129]"
JBHT.csv,72.11,71.94,3678.7885,3670.1185,51.0,"[85, 144]"
JBHT.csv,71.83,71.7,4813.844499999999,4805.1345,67.0,"[194, 253]"
JBHT.csv,71.55,71.75,4795.084499999999,4808.4845,67.0,"[326, 362]"
MD.csv,100.81,100.69,3428.659,3424.579,34.0,"[83, 142]"
MD.csv,100.73,100.65,7354.5455,7348.705500000001,73.0,"[210, 269]"
HOS.csv,56.64,56.11,6628.2895,6566.2795,117.0,"[81, 125]"
HOS.csv,56.07,56.23,3197.1895000000004,3206.3095,57.0,"[135, 143]"
HOS.csv,56.27,56.45,2870.9485,2880.1285000000003,51.0,"[158, 160]"
APA.csv,86.99,86.71,3480.74,3469.5399999999995,40.0,"[111, 170]"
APA.csv,86.38,86.57,2851.6555,2857.9255,33.0,"[319, 355]"
IACI.csv,54.36,54.48,5491.7135,5503.8335,101.0,"[89, 95]"
IACI.csv,54.12,53.62,1949.446,1931.446,36.0,"[149, 178]"
GNC.csv,54.04,53.55,2216.7835,2196.6935,41.0,"[148, 163]"
GNC.csv,53.75,53.86,4408.787,4417.807,82.0,"[236, 240]"
GNC.csv,53.74,53.67,2204.4835000000003,2201.6135000000004,41.0,"[256, 315]"
ADS.csv,215.46,216.27,10558.711500000001,10598.401500000002,49.0,"[96, 101]"
FOSL.csv,118.09,116.99,11101.789,10998.389,94.0,"[88, 126]"
FOSL.csv,116.58,115.39,4664.34,4616.740000000001,40.0,"[131, 176]"
FOSL.csv,115.34,115.6,4384.053,4393.933,38.0,"[221, 237]"
FOSL.csv,115.33,115.68,4383.673,4396.973,38.0,"[252, 297]"
FOSL.csv,115.92,116.25,9043.033,9068.773,78.0,"[323, 330]"
CVLT.csv,86.76,85.83,4599.4655,4550.175499999999,53.0,"[92, 126]"
CVLT.csv,85.25,85.49,11765.983,11799.103,138.0,"[175, 180]"
CPA.csv,140.11,140.51,9108.377500000002,9134.3775,65.0,"[215, 243]"
CELG.csv,151.51,149.68,18485.646999999997,18262.387,122.0,"[74, 93]"
CELG.csv,150.24,150.63,58146.1695,58297.0995,387.0,"[103, 114]"
CELG.csv,150.11,150.42,58095.859500000006,58215.82949999999,387.0,"[147, 149]"
CELG.csv,149.53,149.87,8823.4765,8843.5365,59.0,"[198, 213]"
CELG.csv,149.93,148.5,58026.1995,57472.7895,387.0,"[243, 272]"
CELG.csv,149.67,150.0,8831.736499999999,8851.2065,59.0,"[296, 298]"
CELG.csv,149.66,149.58,50438.2845,50411.32450000001,337.0,"[303, 362]"
EXP.csv,71.19,71.39,4272.61,4284.61,60.0,"[207, 210]"
CHTR.csv,132.54,132.27,18822.177,18783.837,142.0,"[83, 142]"
CHTR.csv,132.16,131.51,10045.426,9996.025999999998,76.0,"[267, 326]"
CHTR.csv,131.85,132.24,17669.369,17721.629,134.0,"[351, 355]"
FDX.csv,113.16,113.39,13014.8025,13041.2525,115.0,"[81, 105]"
FDX.csv,112.77,112.48,6992.956999999999,6974.977,62.0,"[144, 203]"
LMCA.csv,148.37,147.02,14689.9765,14556.326500000001,99.0,"[83, 124]"
LMCA.csv,147.0,146.66,9409.224,9387.464,64.0,"[127, 186]"
LMCA.csv,146.64,145.5,4986.878999999999,4948.119,34.0,"[202, 261]"
LMCA.csv,144.75,145.17,6225.4005,6243.460499999999,43.0,"[334, 350]"
BWLD.csv,114.9,113.76,4252.4295,4210.2495,37.0,"[72, 105]"
BWLD.csv,113.7,114.06,3866.9190000000003,3879.159,34.0,"[139, 141]"
BWLD.csv,113.74,113.32,3868.279,3853.999,34.0,"[169, 228]"
CLB.csv,175.5,176.12,14567.7905,14619.2505,83.0,"[132, 145]"
CLB.csv,176.05,176.5,14437.387,14474.287,82.0,"[152, 154]"
CLB.csv,176.42,176.8,14467.726999999999,14498.887,82.0,"[171, 191]"
CLB.csv,176.26,175.97,19037.458,19006.138,108.0,"[266, 325]"
FLT.csv,110.06,108.54,11557.667500000001,11398.067500000001,105.0,"[82, 95]"
AGU.csv,85.39,84.97,4270.675,4249.675,50.0,"[75, 134]"
AGU.csv,84.86,85.09,5601.991,5617.171,66.0,"[159, 208]"
AGU.csv,85.06,84.83,5615.191,5600.0109999999995,66.0,"[210, 269]"
AGU.csv,84.46,84.64,10474.473999999998,10496.794,124.0,"[287, 312]"
AGU.csv,84.53,84.76,10483.153999999999,10511.673999999999,124.0,"[320, 340]"
CF.csv,210.4,208.49,22093.3675,21892.8175,105.0,"[79, 133]"
CF.csv,209.27,209.91,7325.572500000001,7347.9725,35.0,"[239, 241]"
CF.csv,209.07,209.16,7318.5725,7321.7225,35.0,"[259, 318]"
AZO.csv,418.22,414.38,324127.0875,321151.0875,775.0,"[85, 139]"
