ICE.csv,193.8,194.3,7365.533,7384.533,38.0,"[250, 270]"
ALK.csv,62.28,62.42,1869.505,1873.7050000000002,30.0,"[97, 138]"
ALK.csv,62.27,62.4,1869.2050000000002,1873.105,30.0,"[256, 270]"
COST.csv,115.12,115.36,4490.8165,4500.1765,39.0,"[117, 127]"
LBTYA.csv,76.65,76.81,9659.341000000002,9679.501,126.0,"[104, 127]"
LBTYA.csv,77.05,77.21,8399.831499999998,8417.271499999999,109.0,"[167, 170]"
HOG.csv,64.58,64.71,5490.5975,5501.647499999999,85.0,"[77, 111]"
HOG.csv,65.32,65.47,2548.6164999999996,2554.4665,39.0,"[296, 338]"
ATW.csv,55.54,55.37,2222.74,2215.9399999999996,40.0,"[172, 231]"
ATW.csv,55.56,55.73,2223.54,2230.3399999999997,40.0,"[248, 269]"
ATW.csv,55.81,55.6,3963.7585000000004,3948.8485,71.0,"[278, 337]"
CIEN.csv,26.06,26.12,2581.2865,2587.2265,99.0,"[112, 116]"
CIEN.csv,25.98,26.05,2573.3665,2580.2965000000004,99.0,"[125, 126]"
CIEN.csv,26.22,26.3,2938.0319999999997,2946.9919999999997,112.0,"[164, 172]"
CIEN.csv,26.38,26.44,2058.913,2063.5930000000003,78.0,"[191, 197]"
MDC.csv,28.6,28.67,3233.1955000000003,3241.1055,113.0,"[85, 86]"
MDC.csv,28.75,28.82,3020.1175,3027.4674999999997,105.0,"[99, 123]"
MDC.csv,28.91,28.97,1793.6370000000002,1797.357,62.0,"[126, 147]"
FBHS.csv,39.85,39.93,3468.2545000000005,3475.2145,87.0,"[117, 124]"
FBHS.csv,40.1,40.25,3650.4184999999998,3664.0685,91.0,"[141, 155]"
IACI.csv,55.57,55.55,3001.969,3000.8889999999997,54.0,"[150, 209]"
IACI.csv,55.56,55.49,3001.429,2997.649,54.0,"[320, 379]"
FSLR.csv,43.0,43.09,3054.2485,3060.6385000000005,71.0,"[87, 89]"
DG.csv,57.62,57.48,2363.5635,2357.8235,41.0,"[80, 139]"
DG.csv,57.66,57.79,3172.4925,3179.6425,55.0,"[297, 339]"
ARG.csv,108.03,108.12,4754.474,4758.434000000001,44.0,"[79, 138]"
ARG.csv,108.08,108.33,4756.674,4767.674,44.0,"[252, 264]"
ARG.csv,108.16,108.39,4760.194,4770.314,44.0,"[339, 389]"
LECO.csv,68.15,68.3,3613.1355000000003,3621.0854999999997,53.0,"[100, 124]"
IFF.csv,81.06,81.01,3567.7940000000003,3565.594,44.0,"[133, 192]"
IFF.csv,80.98,80.83,3564.2740000000003,3557.674,44.0,"[285, 344]"
IDCC.csv,37.05,37.14,3669.2965,3678.2065000000002,99.0,"[155, 196]"
IDCC.csv,37.31,37.41,2090.556,2096.156,56.0,"[255, 258]"
IDCC.csv,37.46,37.37,2361.2005,2355.5305,63.0,"[274, 333]"
IDCC.csv,37.41,37.52,1946.5019999999997,1952.2220000000002,52.0,"[337, 390]"
MON.csv,105.37,105.53,5796.5425000000005,5805.3425,55.0,"[75, 134]"
MON.csv,105.71,105.93,3489.5454999999997,3496.8055,33.0,"[189, 207]"
IBM.csv,185.08,185.47,17398.849000000002,17435.509000000002,94.0,"[96, 127]"
BA.csv,118.4,118.08,4618.7365,4606.2564999999995,39.0,"[313, 372]"
HOS.csv,57.01,57.16,8667.052,8689.851999999999,152.0,"[108, 125]"
HOS.csv,58.17,57.56,4829.400500000001,4778.7705000000005,83.0,"[217, 235]"
HOS.csv,57.33,57.45,2695.6744999999996,2701.3145,47.0,"[316, 319]"
HOS.csv,57.3,57.31,2694.2644999999998,2694.7345,47.0,"[327, 386]"
DE.csv,82.12,82.14,2711.0755,2711.7355,33.0,"[216, 275]"
DE.csv,82.15,82.13,2712.0655,2711.4055,33.0,"[287, 346]"
DE.csv,82.12,82.3,2711.0755,2717.0155,33.0,"[352, 390]"
ACE.csv,93.83,94.03,6006.344,6019.144,64.0,"[135, 159]"
GTLS.csv,123.6,123.93,28306.346499999996,28381.9165,229.0,"[74, 100]"
GTLS.csv,123.82,124.07,28356.726499999997,28413.976499999997,229.0,"[101, 120]"
GTLS.csv,123.83,124.2,28359.016499999998,28443.746499999997,229.0,"[123, 124]"
GTLS.csv,124.59,124.89,28906.852000000003,28976.452,232.0,"[138, 154]"
GTLS.csv,124.8,125.13,9486.065999999999,9511.145999999999,76.0,"[176, 218]"
GTLS.csv,124.37,124.64,9453.386,9473.905999999999,76.0,"[241, 248]"
GTLS.csv,124.55,124.83,9467.065999999999,9488.346,76.0,"[375, 389]"
MDVN.csv,50.82,50.96,6912.996,6932.036,136.0,"[161, 212]"
MDVN.csv,50.81,50.93,6911.6359999999995,6927.955999999999,136.0,"[288, 292]"
MDVN.csv,50.93,50.82,6927.955999999999,6912.996,136.0,"[321, 380]"
APD.csv,107.56,107.78,3550.5955,3557.8555,33.0,"[72, 126]"
CLR.csv,111.35,111.76,3452.9584999999997,3465.6684999999998,31.0,"[97, 116]"
CLR.csv,112.4,112.71,8656.069500000001,8679.9395,77.0,"[136, 146]"
CXO.csv,110.37,110.64,21854.953,21908.413,198.0,"[90, 116]"
CELG.csv,152.96,153.31,5660.6495,5673.5995,37.0,"[76, 78]"
CELG.csv,153.22,153.62,18081.373,18128.573,118.0,"[97, 101]"
CELG.csv,153.11,153.48,18068.393000000004,18112.053,118.0,"[112, 125]"
CELG.csv,153.72,154.07,5688.7695,5701.7195,37.0,"[240, 255]"
CELG.csv,153.84,153.15,5693.2095,5667.6795,37.0,"[282, 341]"
CNC.csv,65.79,65.93,4343.371,4352.611,66.0,"[148, 159]"
DRQ.csv,116.45,116.82,5357.861,5374.880999999999,46.0,"[348, 390]"
FMX.csv,96.29,96.26,4526.7945,4525.3845,47.0,"[221, 280]"
CBI.csv,70.72,70.87,2193.4285,2198.0785,31.0,"[112, 123]"
ANSS.csv,85.3,85.57,9213.778,9242.938,108.0,"[79, 83]"
ANSS.csv,85.57,85.71,13264.892499999998,13286.592499999999,155.0,"[86, 145]"
ANSS.csv,86.19,86.12,5344.996999999999,5340.657,62.0,"[212, 271]"
ANSS.csv,86.18,86.03,5344.377,5335.076999999999,62.0,"[277, 336]"
BMRN.csv,68.11,67.88,20026.839,19959.218999999997,294.0,"[284, 343]"
GS.csv,159.01,159.34,15425.3095,15457.3195,97.0,"[164, 169]"
GS.csv,159.53,159.87,11806.479,11831.639000000001,74.0,"[174, 207]"
GS.csv,159.63,159.96,8940.475999999999,8958.956,56.0,"[227, 236]"
GS.csv,159.35,159.73,13227.340499999998,13258.880499999997,83.0,"[357, 387]"
FOSL.csv,119.09,119.41,7265.7035,7285.2235,61.0,"[78, 86]"
FOSL.csv,119.0,118.15,7260.2135,7208.3635,61.0,"[195, 254]"
MHK.csv,130.37,130.74,10039.7595,10068.249500000002,77.0,"[96, 124]"
MHK.csv,131.05,130.71,32109.332500000004,32026.0325,245.0,"[130, 189]"
MHK.csv,131.01,130.6,32099.532499999998,31999.0825,245.0,"[206, 265]"
HAR.csv,67.12,67.31,6176.362000000001,6193.842000000001,92.0,"[141, 151]"
HAR.csv,67.47,67.18,3374.675,3360.1750000000006,50.0,"[222, 281]"
HAR.csv,67.21,67.4,6520.709499999999,6539.1395,97.0,"[309, 340]"
HAR.csv,67.64,67.78,3383.175,3390.175,50.0,"[359, 390]"
CBST.csv,65.39,65.6,6736.5305,6758.160499999999,103.0,"[138, 165]"
CBST.csv,65.78,65.56,2369.206,2361.286,36.0,"[282, 341]"
LULU.csv,74.57,74.76,2760.2194999999997,2767.2495000000004,37.0,"[104, 115]"
LULU.csv,75.24,74.83,2935.4964999999997,2919.5065,39.0,"[142, 201]"
GOOG.csv,872.18,871.17,168332.4155,168137.4855,193.0,"[155, 214]"
HLF.csv,63.65,63.85,5793.4685,5811.668500000001,91.0,"[89, 125]"
HLF.csv,63.94,64.09,17457.9405,17498.8905,273.0,"[129, 136]"
HLF.csv,63.96,63.87,17463.400500000003,17438.8305,273.0,"[220, 279]"
HLF.csv,63.85,63.98,17433.3705,17468.860500000003,273.0,"[280, 291]"
HLF.csv,63.91,64.07,17449.750500000002,17493.4305,273.0,"[315, 319]"
IBB.csv,199.9,200.5,9396.464500000002,9424.6645,47.0,"[81, 89]"
IBB.csv,199.72,200.23,145801.805,146174.10499999998,730.0,"[111, 116]"
IBB.csv,199.96,200.44,145977.005,146327.405,730.0,"[122, 126]"
IBB.csv,200.92,200.81,13261.951,13254.691,66.0,"[330, 389]"
ISRG.csv,391.39,391.06,248146.64899999998,247937.429,634.0,"[199, 258]"
LNKD.csv,225.71,226.17,23249.4905,23296.870499999997,103.0,"[117, 126]"
LNKD.csv,227.21,227.81,11588.888500000001,11619.4885,51.0,"[163, 198]"
LNKD.csv,226.75,227.3,105896.2195,106153.06950000001,467.0,"[227, 272]"
LNKD.csv,227.52,227.88,11604.6985,11623.0585,51.0,"[283, 342]"
LNKD.csv,226.05,226.82,42951.165,43097.465,190.0,"[377, 385]"
BIDU.csv,153.5,153.96,13969.8185,14011.6785,91.0,"[160, 181]"
BIDU.csv,153.94,154.37,10930.9885,10961.5185,71.0,"[185, 198]"
BIDU.csv,154.66,154.89,14384.7055,14406.0955,93.0,"[225, 284]"
BIDU.csv,154.72,154.37,14390.2855,14357.7355,93.0,"[305, 364]"
AAPL.csv,486.91,488.05,32137.291,32212.531,66.0,"[91, 124]"
AAPL.csv,489.95,491.02,53405.9315,53522.5615,109.0,"[143, 158]"
AAPL.csv,490.95,492.13,43695.8615,43800.8815,89.0,"[195, 248]"
AZO.csv,420.22,421.26,55470.502,55607.782,132.0,"[79, 85]"
AZO.csv,421.26,422.82,55607.782,55813.702,132.0,"[86, 121]"
AZO.csv,423.43,424.3,33875.68,33945.28,80.0,"[162, 215]"
