KMX.csv,48.61,48.72,2917.81,2924.41,60.0,"[121, 135]"
MUR.csv,61.94,61.89,2602.627,2600.527,42.0,"[85, 144]"
MUR.csv,61.89,61.76,2786.2075,2780.3574999999996,45.0,"[189, 248]"
MUR.csv,61.55,61.68,2770.9075,2776.7574999999997,45.0,"[289, 295]"
MUR.csv,61.61,61.76,2773.6074999999996,2780.3574999999996,45.0,"[308, 320]"
ITW.csv,75.86,76.03,2504.4955,2510.1055,33.0,"[97, 120]"
ITW.csv,76.17,76.33,3047.94,3054.3399999999997,40.0,"[152, 173]"
ITW.csv,76.37,76.37,6340.0005,6340.0005,83.0,"[209, 268]"
ITW.csv,76.47,76.63,3595.2545,3602.7744999999995,47.0,"[308, 359]"
LECO.csv,68.18,68.41,4637.478000000001,4653.118,68.0,"[85, 92]"
LECO.csv,68.49,68.66,5617.467,5631.407,82.0,"[182, 194]"
LECO.csv,68.37,68.45,5607.627,5614.187000000001,82.0,"[262, 321]"
EGN.csv,83.05,83.23,5399.4775,5411.1775,65.0,"[345, 349]"
BWC.csv,33.02,32.99,1387.987,1386.727,42.0,"[140, 199]"
COG.csv,36.37,36.45,1892.4219999999998,1896.582,52.0,"[288, 296]"
COG.csv,36.31,36.32,1889.3020000000001,1889.8220000000001,52.0,"[301, 360]"
CRM.csv,52.56,52.67,1630.4685000000002,1633.8785,31.0,"[133, 139]"
BWA.csv,104.14,104.38,4687.4575,4698.2575,45.0,"[111, 124]"
BWA.csv,104.11,104.05,3749.0860000000002,3746.926,36.0,"[270, 329]"
DKS.csv,51.86,51.98,4098.2164999999995,4107.6965,79.0,"[207, 218]"
DKS.csv,51.91,52.02,3011.9829999999997,3018.3630000000003,58.0,"[262, 301]"
DKS.csv,51.86,52.0,3009.083,3017.203,58.0,"[324, 349]"
ABG.csv,52.2,52.33,4333.8905,4344.6804999999995,83.0,"[120, 136]"
ABG.csv,52.34,52.46,3193.9535,3201.2735,61.0,"[163, 179]"
KMT.csv,44.44,44.48,1734.2965,1735.8564999999999,39.0,"[198, 257]"
KMT.csv,44.4,44.49,2265.5785,2270.1685,51.0,"[265, 294]"
KMT.csv,44.37,44.47,2264.0485,2269.1485,51.0,"[316, 371]"
LEN.csv,34.59,34.67,1696.0815,1700.0015,49.0,"[126, 137]"
LEN.csv,34.73,34.81,1564.0075,1567.6075,45.0,"[141, 183]"
LEN.csv,35.05,35.15,2489.7985,2496.8985000000002,71.0,"[246, 252]"
LEN.csv,35.25,35.35,2786.0265,2793.9265,79.0,"[286, 293]"
COH.csv,54.41,54.52,2068.7129999999997,2072.893,38.0,"[110, 130]"
HP.csv,75.27,75.45,2861.3929999999996,2868.2329999999997,38.0,"[325, 362]"
CHKP.csv,57.89,57.58,6890.3265,6853.4365,119.0,"[214, 273]"
DLTR.csv,59.08,59.02,1950.7555,1948.7755000000002,33.0,"[87, 146]"
GGG.csv,75.31,75.33,2561.659,2562.339,34.0,"[306, 365]"
AFSI.csv,37.55,37.64,2629.745,2636.045,70.0,"[73, 88]"
AFSI.csv,37.92,38.0,1555.8635,1559.1435,41.0,"[287, 293]"
AFSI.csv,37.97,38.05,1557.9134999999999,1561.1934999999999,41.0,"[356, 367]"
BWLD.csv,117.32,117.68,5280.5575,5296.757500000001,45.0,"[80, 83]"
BWLD.csv,117.79,118.43,5301.7075,5330.507500000001,45.0,"[112, 117]"
BWLD.csv,118.36,118.69,10772.0785,10802.108499999998,91.0,"[274, 297]"
BXP.csv,108.34,108.56,6176.5795,6189.1195,57.0,"[91, 117]"
CREE.csv,72.95,73.12,5326.605500000001,5339.0155,73.0,"[138, 171]"
CREE.csv,73.01,72.65,4089.7560000000003,4069.5960000000005,56.0,"[195, 254]"
CYH.csv,43.55,43.66,1830.2469999999998,1834.8669999999997,42.0,"[206, 215]"
CYH.csv,43.53,43.41,2525.943,2518.9829999999997,58.0,"[272, 331]"
CYH.csv,43.55,43.67,1830.2469999999998,1835.287,42.0,"[356, 374]"
CPHD.csv,37.84,37.99,2650.045,2660.545,70.0,"[109, 126]"
CPHD.csv,37.8,37.9,2647.245,2654.245,70.0,"[181, 219]"
CPHD.csv,37.99,38.07,2166.6295000000005,2171.1895000000004,57.0,"[263, 265]"
GPC.csv,79.72,79.88,3668.281,3675.6409999999996,46.0,"[117, 160]"
BSFT.csv,36.25,36.34,3118.801,3126.541,86.0,"[91, 96]"
BSFT.csv,36.2,36.28,3114.501,3121.381,86.0,"[242, 244]"
BSFT.csv,36.22,36.13,3116.221,3108.481,86.0,"[297, 356]"
BSFT.csv,36.11,36.21,3106.761,3115.361,86.0,"[365, 386]"
ADTN.csv,25.13,25.16,1483.8764999999999,1485.6465,59.0,"[119, 178]"
ADTN.csv,25.08,25.06,1480.9264999999998,1479.7465,59.0,"[221, 280]"
FDS.csv,108.77,108.99,4895.8075,4905.7075,45.0,"[100, 118]"
FDS.csv,109.22,108.9,7318.974499999999,7297.5345,67.0,"[221, 280]"
FDS.csv,108.73,108.97,4894.007500000001,4904.8075,45.0,"[352, 375]"
MLM.csv,97.2,97.4,7777.28,7793.28,80.0,"[132, 170]"
MLM.csv,97.39,97.39,3507.166,3507.166,36.0,"[282, 341]"
EOG.csv,182.08,181.77,29680.610500000003,29630.080500000004,163.0,"[115, 174]"
EOG.csv,181.72,180.73,65603.98849999999,65246.5985,361.0,"[180, 239]"
EOG.csv,179.92,179.94,9177.0985,9178.1185,51.0,"[275, 334]"
LBTYK.csv,72.57,72.73,9072.6875,9092.6875,125.0,"[228, 241]"
LBTYK.csv,72.82,72.97,3423.7044999999994,3430.7545,47.0,"[298, 311]"
DISCK.csv,74.62,74.5,3209.8105000000005,3204.6505,43.0,"[277, 336]"
DISCK.csv,74.66,74.86,3211.5305,3220.1305,43.0,"[342, 380]"
LII.csv,73.45,73.6,7566.7105,7582.160499999999,103.0,"[78, 99]"
LII.csv,73.75,73.92,3762.4285,3771.0985,51.0,"[113, 121]"
ACIW.csv,54.49,54.6,1853.779,1857.519,34.0,"[88, 90]"
MDVN.csv,53.07,53.18,19320.574,19360.614,364.0,"[110, 129]"
MDVN.csv,53.1,53.22,19331.494000000002,19375.174,364.0,"[161, 172]"
ADS.csv,224.92,225.41,11921.9455,11947.9155,53.0,"[294, 339]"
ADS.csv,225.16,226.09,10358.521,10401.301,46.0,"[364, 386]"
KORS.csv,74.48,74.46,3427.2410000000004,3426.321,46.0,"[153, 212]"
KORS.csv,74.24,73.15,2970.74,2927.14,40.0,"[249, 257]"
KORS.csv,72.72,71.97,12654.889000000001,12524.389000000001,174.0,"[261, 267]"
KORS.csv,73.41,72.71,14830.537,14689.136999999999,202.0,"[293, 322]"
KORS.csv,73.09,73.25,4021.1425000000004,4029.9425,55.0,"[332, 335]"
KORS.csv,73.38,73.55,5504.7625,5517.5125,75.0,"[339, 343]"
KORS.csv,73.58,73.75,3312.2574999999997,3319.9075,45.0,"[374, 380]"
ICE.csv,196.26,196.67,11973.073499999999,11998.083499999999,61.0,"[111, 136]"
ICE.csv,196.55,196.97,11990.763500000001,12016.3835,61.0,"[286, 294]"
ATHN.csv,107.34,107.7,3328.6485,3339.8085,31.0,"[73, 83]"
ATHN.csv,107.28,107.56,4399.623500000001,4411.1035,41.0,"[97, 142]"
ATHN.csv,108.11,107.87,12325.938999999998,12298.579,114.0,"[163, 222]"
ATHN.csv,107.5,106.51,3333.6085,3302.9184999999998,31.0,"[230, 276]"
CNQR.csv,107.01,107.23,5993.756,6006.076,56.0,"[104, 120]"
CNQR.csv,107.55,107.74,4088.033,4095.2529999999997,38.0,"[221, 280]"
CNQR.csv,107.68,107.71,4523.707,4524.967,42.0,"[291, 350]"
LNKD.csv,239.97,240.58,69113.808,69289.48800000001,288.0,"[77, 89]"
LNKD.csv,240.14,240.76,24015.35,24077.35,100.0,"[235, 252]"
LNKD.csv,240.19,237.82,24020.35,23783.35,100.0,"[262, 288]"
GTLS.csv,125.33,125.73,14665.0195,14711.8195,117.0,"[280, 293]"
MELI.csv,137.2,137.49,19072.2865,19112.5965,139.0,"[96, 106]"
MELI.csv,137.35,137.63,5769.847,5781.607,42.0,"[122, 125]"
MELI.csv,136.99,136.94,9590.545000000002,9587.045,70.0,"[230, 289]"
MELI.csv,137.08,137.14,9596.845000000001,9601.045,70.0,"[306, 365]"
JLL.csv,84.92,85.12,2633.6285,2639.8285,31.0,"[88, 121]"
JLL.csv,85.68,85.87,29648.221,29713.961,346.0,"[339, 374]"
AZO.csv,424.51,425.39,142638.216,142933.896,336.0,"[74, 92]"
GOOG.csv,894.22,889.34,41135.281,40910.801,46.0,"[178, 237]"
