MR.csv,40.0,40.02,1481.1295,1481.8695,37.0,"[95, 154]"
FTNT.csv,20.67,20.64,1014.0015000000001,1012.5315,49.0,"[87, 146]"
FTNT.csv,20.63,20.68,1012.0415,1014.4915,49.0,"[151, 179]"
ADSK.csv,39.92,40.0,1677.787,1681.147,42.0,"[332, 343]"
MSM.csv,80.13,80.13,9536.886499999999,9536.886499999999,119.0,"[150, 209]"
MSM.csv,80.08,80.26,5927.179,5940.499000000001,74.0,"[275, 305]"
MSM.csv,80.31,80.35,3213.54,3215.14,40.0,"[325, 384]"
AWAY.csv,28.53,28.59,1912.7445,1916.7645,67.0,"[386, 390]"
BWA.csv,105.18,105.43,3682.4225,3691.1725,35.0,"[158, 182]"
BWA.csv,105.25,105.48,3684.8725,3692.9225,35.0,"[324, 370]"
ESS.csv,159.19,159.6,14328.415,14365.315,90.0,"[133, 151]"
ESS.csv,159.63,159.49,27617.5955,27593.375500000002,173.0,"[185, 244]"
ESS.csv,159.64,159.97,27619.3255,27676.415500000003,173.0,"[268, 290]"
ESS.csv,159.33,159.7,33301.7465,33379.076499999996,209.0,"[345, 348]"
CIE.csv,22.79,22.65,981.1204999999999,975.1004999999999,43.0,"[86, 145]"
CIE.csv,22.8,22.75,1665.6555,1662.0055,73.0,"[249, 308]"
CIE.csv,22.77,22.66,1663.4655,1655.4355,73.0,"[312, 371]"
AMGN.csv,113.87,113.97,10477.362000000001,10486.562,92.0,"[127, 186]"
CELG.csv,158.87,159.03,15570.603000000001,15586.283000000001,98.0,"[89, 148]"
CELG.csv,158.71,158.87,5397.259,5402.699,34.0,"[274, 333]"
CELG.csv,158.86,159.36,5402.359,5419.359,34.0,"[363, 373]"
ILMN.csv,82.11,82.34,5256.264,5270.984,64.0,"[88, 89]"
ILMN.csv,82.12,82.34,5256.904,5270.984,64.0,"[95, 110]"
ILMN.csv,82.26,82.61,5265.8640000000005,5288.264,64.0,"[134, 135]"
ILMN.csv,82.12,82.3,5256.904,5268.424,64.0,"[169, 181]"
ILMN.csv,81.57,81.64,10605.554999999998,10614.655,130.0,"[287, 346]"
ILMN.csv,81.26,81.45,10565.255000000001,10589.955,130.0,"[361, 373]"
GCO.csv,69.93,69.85,2168.9385,2166.4584999999997,31.0,"[292, 351]"
EL.csv,71.06,70.64,3198.8575,3179.9575,45.0,"[100, 159]"
EL.csv,70.71,70.54,3960.9559999999997,3951.436,56.0,"[176, 235]"
FNV.csv,43.42,43.53,2085.328,2090.608,48.0,"[81, 93]"
FNV.csv,43.61,43.5,1963.6075,1958.6575,45.0,"[126, 185]"
FNV.csv,43.47,43.61,3522.3534999999997,3533.6935,81.0,"[253, 277]"
FNV.csv,43.55,43.41,2091.5679999999998,2084.848,48.0,"[291, 350]"
FFIV.csv,88.9,89.08,10313.806000000002,10334.686000000002,116.0,"[82, 109]"
FFIV.csv,88.99,89.17,19579.67,19619.27,220.0,"[116, 149]"
FFIV.csv,89.12,89.34,10339.326000000001,10364.846000000001,116.0,"[163, 210]"
FFIV.csv,89.08,89.28,10334.686000000002,10357.886,116.0,"[275, 308]"
FFIV.csv,89.55,89.73,5821.9775,5833.6775,65.0,"[337, 356]"
CTRP.csv,58.8,58.97,2647.1575,2654.8075,45.0,"[151, 154]"
CTRP.csv,57.99,58.03,5800.35,5804.35,100.0,"[316, 375]"
APC.csv,97.16,97.38,4179.0305,4188.4905,43.0,"[73, 77]"
APC.csv,96.58,96.36,3381.4224999999997,3373.7225,35.0,"[119, 178]"
APC.csv,96.47,96.41,7718.88,7714.079999999999,80.0,"[212, 271]"
MLM.csv,97.39,97.34,4675.888,4673.487999999999,48.0,"[126, 185]"
MLM.csv,97.38,97.35,4675.407999999999,4673.967999999999,48.0,"[218, 277]"
MLM.csv,97.2,97.18,4666.768,4665.808,48.0,"[285, 344]"
EQT.csv,89.36,89.57,3664.9035,3673.5135,41.0,"[74, 95]"
EQT.csv,89.54,89.75,11373.0245,11399.6945,127.0,"[96, 106]"
EQT.csv,89.35,89.54,3664.4935,3672.2835000000005,41.0,"[130, 152]"
EQT.csv,89.41,89.59,3219.886,3226.3660000000004,36.0,"[186, 218]"
EQT.csv,89.54,89.76,3224.5660000000003,3232.4860000000003,36.0,"[245, 252]"
EQT.csv,89.42,89.01,11983.749,11928.809,134.0,"[267, 326]"
IHS.csv,112.72,112.76,4171.7695,4173.2495,37.0,"[82, 141]"
IHS.csv,113.21,113.48,4189.8994999999995,4199.8895,37.0,"[154, 167]"
IHS.csv,112.97,113.31,8812.932999999999,8839.453,78.0,"[315, 337]"
INFA.csv,38.09,38.05,1791.3945000000003,1789.5145,47.0,"[170, 229]"
INFA.csv,38.1,38.03,1791.8645000000001,1788.5745000000002,47.0,"[249, 308]"
INFA.csv,38.07,38.1,1790.4545,1791.8645000000001,47.0,"[323, 382]"
EPB.csv,41.35,41.22,1407.019,1402.599,34.0,"[83, 142]"
ITW.csv,77.3,77.42,3866.175,3872.175,50.0,"[231, 290]"
LBTYA.csv,77.03,77.21,3698.608,3707.248,48.0,"[139, 150]"
FBHS.csv,38.87,38.95,3266.374,3273.094,84.0,"[192, 225]"
FBHS.csv,38.84,38.95,3652.2890000000007,3662.6290000000004,94.0,"[276, 288]"
FBHS.csv,38.87,38.83,3810.6029999999996,3806.6829999999995,98.0,"[296, 355]"
BXP.csv,106.92,107.27,5988.716,6008.316,56.0,"[107, 148]"
BXP.csv,107.49,107.44,6128.129499999999,6125.2795,57.0,"[150, 209]"
FLT.csv,111.9,111.25,5036.6575,5007.4075,45.0,"[114, 173]"
FLT.csv,111.45,111.69,6799.6635,6814.3035,61.0,"[218, 266]"
GPI.csv,69.58,69.74,6333.0985,6347.6585,91.0,"[108, 122]"
GPI.csv,69.8,69.99,2793.14,2800.74,40.0,"[128, 185]"
MTH.csv,41.38,41.49,1325.2720000000002,1328.7920000000001,32.0,"[119, 148]"
MTH.csv,42.33,42.42,3514.6805,3522.1505,83.0,"[292, 295]"
GPC.csv,77.25,77.42,14679.165,14711.465000000002,190.0,"[80, 92]"
DKS.csv,51.38,51.49,2878.476,2884.636,56.0,"[75, 111]"
CTSH.csv,86.5,86.17,11246.455,11203.555,130.0,"[80, 139]"
CTSH.csv,86.33,86.51,10447.353500000001,10469.133500000002,121.0,"[157, 194]"
CTSH.csv,86.5,86.52,11246.455,11249.055,130.0,"[280, 339]"
IFF.csv,82.32,82.39,2553.0284999999994,2555.1985,31.0,"[124, 183]"
IFF.csv,82.39,82.2,2555.1985,2549.3085,31.0,"[206, 265]"
LEN.csv,34.53,34.62,1693.1415,1697.5514999999998,49.0,"[289, 292]"
HLF.csv,64.57,64.8,4456.5715,4472.4415,69.0,"[87, 92]"
HLF.csv,64.67,64.08,3105.328,3077.0080000000003,48.0,"[95, 132]"
HLF.csv,64.21,64.15,4239.090999999999,4235.131,66.0,"[134, 193]"
HLF.csv,64.34,64.49,3732.9230000000002,3741.6229999999996,58.0,"[277, 280]"
HLF.csv,64.4,64.54,3349.982,3357.262,52.0,"[306, 310]"
HLF.csv,64.73,64.97,3108.208,3119.728,48.0,"[332, 338]"
FMX.csv,92.84,93.08,14020.3685,14056.6085,151.0,"[82, 89]"
FMX.csv,92.99,92.72,14043.0185,14002.2485,151.0,"[96, 155]"
LECO.csv,69.64,69.8,2647.453,2653.533,38.0,"[148, 155]"
CHTR.csv,136.21,136.49,4359.832,4368.792,32.0,"[78, 97]"
CHTR.csv,136.24,136.52,4360.792,4369.752,32.0,"[118, 125]"
CHTR.csv,136.39,136.7,6002.314,6015.954,44.0,"[197, 218]"
CHTR.csv,136.53,136.5,6008.474,6007.154,44.0,"[250, 309]"
LNKD.csv,247.25,247.75,19781.28,19821.28,80.0,"[72, 80]"
LNKD.csv,248.41,248.91,31052.6875,31115.1875,125.0,"[102, 104]"
LNKD.csv,248.31,248.94,31040.1875,31118.9375,125.0,"[147, 152]"
LNKD.csv,248.79,249.39,19904.48,19952.479999999996,80.0,"[164, 174]"
LNKD.csv,248.84,249.35,19908.48,19949.28,80.0,"[187, 190]"
LNKD.csv,248.77,247.5,19902.88,19801.28,80.0,"[195, 254]"
LNKD.csv,248.22,248.9,31028.9375,31113.9375,125.0,"[309, 316]"
IDXX.csv,106.02,105.83,4347.9635,4340.1735,41.0,"[310, 369]"
GTLS.csv,128.02,128.44,8706.598,8735.158,68.0,"[86, 87]"
GTLS.csv,128.44,128.51,8735.158,8739.918,68.0,"[118, 177]"
GTLS.csv,128.45,128.08,8735.837999999998,8710.678,68.0,"[229, 288]"
ICE.csv,197.22,197.65,10651.069,10674.289,54.0,"[106, 129]"
CVLT.csv,87.99,88.17,6688.505999999999,6702.186,76.0,"[96, 146]"
MELI.csv,140.4,140.76,17972.648,18018.728,128.0,"[88, 103]"
MELI.csv,142.33,142.71,13238.015500000001,13273.355500000001,93.0,"[354, 371]"
BIDU.csv,162.09,162.42,70999.143,71143.68299999999,438.0,"[96, 100]"
BIDU.csv,161.93,162.31,70929.063,71095.503,438.0,"[216, 220]"
JLL.csv,85.15,85.25,3066.5260000000003,3070.126,36.0,"[292, 351]"
BIIB.csv,243.24,244.3,23352.376,23454.136000000002,96.0,"[75, 81]"
BIIB.csv,243.65,244.19,8041.5655,8059.385499999999,33.0,"[178, 191]"
BIIB.csv,242.99,242.86,8019.7855,8015.4955,33.0,"[275, 334]"
BWLD.csv,118.29,117.94,5679.088,5662.288,48.0,"[100, 159]"
BWLD.csv,117.98,118.23,18996.3435,19036.5935,161.0,"[252, 261]"
BWLD.csv,117.93,117.81,18988.2935,18968.9735,161.0,"[275, 334]"
AMZN.csv,324.55,325.29,131770.75100000002,132071.19100000002,406.0,"[81, 94]"
AMZN.csv,324.59,325.0,131786.99099999998,131953.451,406.0,"[301, 360]"
MDVN.csv,50.27,50.17,5229.4439999999995,5219.044,104.0,"[145, 204]"
MDVN.csv,50.21,50.03,5223.204,5204.4839999999995,104.0,"[211, 270]"
N.csv,110.17,109.62,3857.0725,3837.8225,35.0,"[91, 150]"
N.csv,109.17,109.41,3494.552,3502.232,32.0,"[226, 246]"
GWW.csv,262.02,262.68,26727.396999999997,26794.717,102.0,"[146, 166]"
GWW.csv,262.68,262.99,25218.615999999998,25248.376,96.0,"[167, 226]"
GWW.csv,263.08,263.38,45777.528999999995,45829.729,174.0,"[329, 388]"
ISRG.csv,372.72,371.15,79018.442,78685.60199999998,212.0,"[153, 212]"
