ACE.csv,96.29,96.34,9822.937,9828.037,102.0,"[141, 200]"
GMCR.csv,60.94,61.08,7557.994,7575.354,124.0,"[119, 121]"
FNGN.csv,57.62,57.8,4207.5155,4220.6555,73.0,"[80, 82]"
FNGN.csv,57.44,57.57,4194.3755,4203.8655,73.0,"[146, 184]"
CMI.csv,134.42,134.7,23659.536,23708.816,176.0,"[215, 224]"
DRI.csv,51.3,51.41,1591.4085,1594.8184999999999,31.0,"[73, 85]"
DRI.csv,51.36,51.48,2877.3559999999998,2884.0759999999996,56.0,"[152, 198]"
FDO.csv,69.61,69.47,2437.4725,2432.5724999999998,35.0,"[124, 183]"
FDO.csv,69.53,69.44,2434.6725,2431.5225,35.0,"[190, 249]"
FDO.csv,69.4,69.55,2083.105,2087.605,30.0,"[348, 381]"
CTSH.csv,86.52,86.44,7528.5445,7521.5845,87.0,"[91, 150]"
CTSH.csv,86.46,86.48,7004.543499999999,7006.1635,81.0,"[252, 311]"
EW.csv,77.49,77.16,6897.9214999999995,6868.5515,89.0,"[130, 189]"
EW.csv,77.16,77.0,10032.255,10011.455,130.0,"[287, 346]"
BBBY.csv,76.63,76.71,2529.9055,2532.5454999999997,33.0,"[134, 193]"
CBST.csv,63.11,63.25,8395.0955,8413.7155,133.0,"[180, 197]"
CBST.csv,63.25,63.23,8413.7155,8411.0555,133.0,"[227, 286]"
MGA.csv,84.52,84.7,5917.6449999999995,5930.245,70.0,"[79, 91]"
EMN.csv,77.53,77.74,3490.0074999999997,3499.4574999999995,45.0,"[365, 383]"
ACIW.csv,55.83,55.6,3071.8425,3059.1925,55.0,"[102, 161]"
ICE.csv,195.79,196.29,6070.5985,6086.0985,31.0,"[75, 105]"
ICE.csv,196.35,195.63,5891.605,5870.004999999999,30.0,"[110, 169]"
ICE.csv,195.81,195.78,6071.2185,6070.288500000001,31.0,"[218, 277]"
ICE.csv,195.78,195.45,6070.288500000001,6060.0585,31.0,"[288, 347]"
ICE.csv,195.49,195.95,20723.311,20772.070999999996,106.0,"[348, 388]"
ERJ.csv,32.78,32.88,1607.3915,1612.2915,49.0,"[172, 201]"
ERJ.csv,32.83,32.72,1938.1764999999998,1931.6865,59.0,"[208, 267]"
ERJ.csv,32.54,32.61,1302.74,1305.5400000000002,40.0,"[337, 351]"
ILMN.csv,93.06,93.26,6608.5085,6622.7085,71.0,"[149, 178]"
ILMN.csv,92.98,93.19,6602.8285,6617.7384999999995,71.0,"[232, 278]"
ETE.csv,68.69,68.89,5702.5605,5719.1605,83.0,"[96, 113]"
ETE.csv,68.82,68.97,5713.3505,5725.8005,83.0,"[116, 119]"
ETE.csv,68.97,68.74,5725.8005,5706.710499999999,83.0,"[120, 179]"
ETE.csv,68.67,68.57,5700.900500000001,5692.6005,83.0,"[299, 358]"
BMRN.csv,66.75,66.11,2604.3865,2579.4265,39.0,"[179, 217]"
BMRN.csv,65.74,65.88,11637.5995,11662.3795,177.0,"[252, 272]"
BMRN.csv,65.94,66.09,10222.242499999998,10245.4925,155.0,"[286, 295]"
AVGO.csv,45.51,45.51,4233.755499999999,4233.755499999999,93.0,"[80, 139]"
DVN.csv,64.11,64.08,3655.4695,3653.7595,57.0,"[144, 203]"
MJN.csv,80.72,80.89,20666.496,20710.016,256.0,"[84, 108]"
GCO.csv,69.19,69.13,2353.579,2351.539,34.0,"[79, 138]"
GCO.csv,69.14,69.31,3043.314,3050.7940000000003,44.0,"[148, 175]"
GCO.csv,69.21,69.26,3184.821,3187.121,46.0,"[300, 359]"
HLF.csv,67.6,66.81,3989.6064999999994,3942.9964999999997,59.0,"[102, 133]"
JBHT.csv,75.06,74.85,4429.7465,4417.3565,59.0,"[92, 151]"
JBHT.csv,74.91,74.86,4196.156,4193.356,56.0,"[169, 228]"
CRZO.csv,44.83,44.92,2691.0099999999998,2696.4100000000003,60.0,"[77, 79]"
CRZO.csv,43.97,43.56,5057.9525,5010.802500000001,115.0,"[225, 241]"
CRZO.csv,44.0,44.08,5061.4025,5070.6025,115.0,"[310, 369]"
AYI.csv,102.98,103.2,3605.4225,3613.1225,35.0,"[295, 311]"
AYI.csv,103.02,103.27,3606.8224999999998,3615.5724999999998,35.0,"[320, 362]"
AYI.csv,103.12,103.34,3610.3225,3618.0225,35.0,"[371, 390]"
BWA.csv,106.06,106.28,5622.3655,5634.0255,53.0,"[140, 199]"
BWA.csv,105.75,106.0,9095.801,9117.301,86.0,"[356, 377]"
AGU.csv,85.99,86.17,5332.597,5343.757,62.0,"[269, 318]"
CME.csv,76.87,76.72,7611.4765,7596.626499999999,99.0,"[102, 161]"
CME.csv,76.63,76.34,2376.6384999999996,2367.6485,31.0,"[165, 224]"
GTLS.csv,125.29,124.36,4511.566000000001,4478.086,36.0,"[85, 144]"
GTLS.csv,124.97,125.26,12873.2705,12903.140500000001,103.0,"[252, 273]"
GTLS.csv,125.75,126.07,4402.3725,4413.5725,35.0,"[300, 327]"
GTLS.csv,125.92,126.19,6926.7925000000005,6941.6425,55.0,"[351, 362]"
GTLS.csv,126.35,126.64,4676.0795,4686.8095,37.0,"[382, 390]"
EXP.csv,76.42,76.59,5044.951,5056.171,66.0,"[186, 201]"
EXP.csv,76.45,76.65,5046.931,5060.131,66.0,"[209, 226]"
DNB.csv,107.42,107.68,4405.3635,4416.0235,41.0,"[77, 104]"
CSOD.csv,50.9,50.44,2698.8855,2674.5054999999998,53.0,"[98, 138]"
CSOD.csv,50.43,50.54,1867.0395,1871.1095,37.0,"[144, 152]"
HOS.csv,58.22,58.24,5008.2210000000005,5009.941000000001,86.0,"[88, 147]"
HOS.csv,58.32,58.08,5016.821000000001,4996.1810000000005,86.0,"[284, 343]"
AVB.csv,130.58,130.86,10186.513,10208.353000000001,78.0,"[137, 170]"
AVB.csv,130.67,130.96,7449.389499999999,7465.9195,57.0,"[226, 274]"
AVB.csv,130.63,130.99,7447.1095,7467.6295,57.0,"[317, 323]"
HP.csv,76.0,76.17,2661.1225,2667.0725,35.0,"[212, 251]"
CF.csv,209.64,208.9,7338.5225,7312.6225,35.0,"[280, 339]"
CF.csv,208.92,209.36,10656.0985,10678.5385,51.0,"[346, 377]"
BIIB.csv,249.06,249.61,15692.0005,15726.6505,63.0,"[113, 126]"
BIIB.csv,249.67,249.52,14981.409999999998,14972.41,60.0,"[137, 196]"
BIIB.csv,248.79,249.51,17914.132,17965.972,72.0,"[272, 278]"
BIIB.csv,250.37,251.16,19530.133,19591.753,78.0,"[327, 336]"
CLR.csv,117.14,116.3,4686.740000000001,4653.14,40.0,"[91, 150]"
CLR.csv,115.93,116.27,28404.932500000003,28488.2325,245.0,"[156, 158]"
CLR.csv,115.82,116.06,28377.9825,28436.7825,245.0,"[164, 207]"
CLR.csv,116.02,116.38,22857.6295,22928.5495,197.0,"[209, 212]"
CLR.csv,116.57,116.89,24131.749499999998,24197.9895,207.0,"[217, 263]"
CLR.csv,116.54,116.8,28321.2855,28384.4655,243.0,"[328, 346]"
LH.csv,99.71,99.93,4089.2535,4098.2735,41.0,"[82, 89]"
LH.csv,100.24,100.21,31578.2775,31568.8275,315.0,"[328, 387]"
COO.csv,128.11,127.67,7303.4695,7278.3895,57.0,"[85, 144]"
COO.csv,127.77,128.1,10606.200499999999,10633.590499999998,83.0,"[187, 198]"
COO.csv,128.28,128.58,13085.917,13116.517000000002,102.0,"[324, 339]"
CVD.csv,89.29,88.89,6072.9580000000005,6045.758000000001,68.0,"[110, 169]"
CVD.csv,88.83,88.74,9417.350999999999,9407.810999999998,106.0,"[177, 236]"
CVD.csv,88.94,89.19,8183.802,8206.802,92.0,"[280, 307]"
AZO.csv,426.66,427.58,175360.75350000002,175738.87350000002,411.0,"[99, 104]"
AZO.csv,427.27,428.13,199111.781,199512.541,466.0,"[117, 123]"
AZO.csv,427.98,428.1,196874.71000000002,196929.91,460.0,"[210, 269]"
AZO.csv,428.97,428.83,163869.787,163816.307,382.0,"[324, 383]"
CLB.csv,191.1,189.85,119442.8125,118661.5625,625.0,"[75, 134]"
CLB.csv,188.65,189.08,41504.87,41599.47000000001,220.0,"[261, 275]"
CYT.csv,83.59,83.47,3010.3660000000004,3006.0460000000003,36.0,"[104, 163]"
CYT.csv,83.48,83.35,3089.8895,3085.0795,37.0,"[176, 235]"
EGN.csv,83.55,83.74,2591.1584999999995,2597.0485,31.0,"[207, 213]"
EGN.csv,83.94,84.12,9906.333,9927.573,118.0,"[229, 274]"
CXO.csv,111.69,111.92,6144.1425,6156.7925000000005,55.0,"[136, 191]"
CXO.csv,113.28,112.64,60835.9245,60492.2445,537.0,"[324, 383]"
N.csv,108.44,108.81,5097.8445,5115.2345,47.0,"[87, 88]"
N.csv,106.25,106.67,9245.0545,9281.594500000001,87.0,"[114, 116]"
N.csv,104.98,104.03,6300.01,6243.01,60.0,"[141, 177]"
BLK.csv,305.82,306.51,23549.409499999998,23602.5395,77.0,"[87, 121]"
BLK.csv,305.75,306.39,23544.0195,23593.299499999997,77.0,"[142, 168]"
BLK.csv,305.79,306.55,23547.0995,23605.6195,77.0,"[259, 290]"
BIDU.csv,162.05,160.34,9075.996000000001,8980.236,56.0,"[91, 136]"
BIDU.csv,160.04,160.0,7202.9574999999995,7201.1575,45.0,"[150, 209]"
BIDU.csv,160.81,159.89,86520.353,86025.393,538.0,"[237, 296]"
GOOG.csv,1016.76,1015.02,220638.7645,220261.1845,217.0,"[205, 264]"
CELG.csv,156.78,156.08,23361.7415,23257.4415,149.0,"[94, 153]"
CELG.csv,155.77,156.28,6387.713500000001,6408.623500000001,41.0,"[154, 169]"
CELG.csv,156.23,154.66,6406.5734999999995,6342.2035,41.0,"[185, 238]"
LNKD.csv,241.94,242.49,9678.74,9700.74,40.0,"[88, 110]"
LNKD.csv,242.26,239.76,7753.432,7673.432,32.0,"[129, 142]"
LNKD.csv,239.48,240.17,13172.592499999999,13210.542499999998,55.0,"[167, 171]"
LNKD.csv,240.57,241.21,26464.085,26534.485,110.0,"[181, 197]"
LNKD.csv,241.24,241.77,18335.506,18375.786,76.0,"[232, 251]"
LNKD.csv,240.7,241.44,34903.0075,35010.3075,145.0,"[268, 273]"
LNKD.csv,241.95,240.16,18389.466,18253.426,76.0,"[277, 336]"
LNKD.csv,239.33,239.82,14600.3435,14630.2335,61.0,"[350, 356]"
LNKD.csv,240.13,240.68,27856.485999999997,27920.286,116.0,"[359, 390]"
AAPL.csv,530.39,527.59,53570.7435,53287.9435,101.0,"[81, 140]"
AAPL.csv,526.26,527.33,52627.35,52734.350000000006,100.0,"[165, 183]"
AAPL.csv,529.97,527.53,53528.3235,53281.883499999996,101.0,"[282, 341]"
