AET.csv,63.2,63.23,2655.547,2656.807,42.0,"[79, 138]"
KMP.csv,81.02,81.19,5024.456999999999,5034.996999999999,62.0,"[165, 169]"
CSL.csv,73.49,73.68,6762.402,6779.8820000000005,92.0,"[133, 143]"
CTSH.csv,86.56,86.74,6233.572,6246.532,72.0,"[101, 144]"
CTSH.csv,86.73,86.5,5378.477,5364.217,62.0,"[145, 204]"
CTSH.csv,86.41,86.6,5099.3965,5110.6065,59.0,"[240, 263]"
CTSH.csv,86.68,86.69,5375.377,5375.996999999999,62.0,"[319, 378]"
ARMH.csv,46.6,46.54,1911.7435,1909.2834999999998,41.0,"[78, 137]"
ARMH.csv,46.63,46.62,1912.9735,1912.5634999999997,41.0,"[145, 204]"
ARMH.csv,46.61,46.63,1912.1535,1912.9735,41.0,"[239, 298]"
CHD.csv,65.14,65.28,2411.3095,2416.4895,37.0,"[150, 160]"
AN.csv,49.7,49.34,6363.048000000001,6316.968000000001,128.0,"[157, 216]"
BMO.csv,69.78,69.78,4467.144,4467.144,64.0,"[87, 146]"
BMO.csv,69.91,69.9,4475.464,4474.8240000000005,64.0,"[252, 311]"
BMO.csv,69.88,69.86,5312.145999999999,5310.625999999999,76.0,"[318, 377]"
HAR.csv,81.84,81.61,25864.126000000004,25791.446,316.0,"[76, 135]"
MTH.csv,44.88,45.01,5162.602500000001,5177.5525,115.0,"[103, 144]"
FUL.csv,48.25,48.37,2172.4075,2177.8075,45.0,"[78, 127]"
ED.csv,58.62,58.63,2756.3044999999997,2756.7745,47.0,"[204, 263]"
KEX.csv,89.89,89.78,3327.0595,3322.9895,37.0,"[73, 132]"
KEX.csv,89.71,89.89,3948.394,3956.314,44.0,"[160, 162]"
KEX.csv,90.57,90.78,3442.7929999999997,3450.7729999999997,38.0,"[280, 287]"
KEX.csv,91.23,91.47,7390.9135,7410.353499999999,81.0,"[317, 328]"
BEAV.csv,81.8,81.97,5890.852,5903.092000000001,72.0,"[198, 246]"
CRZO.csv,44.27,43.85,5313.820000000001,5263.42,120.0,"[96, 136]"
CRZO.csv,43.78,43.94,4773.401500000001,4790.8415,109.0,"[138, 141]"
CRZO.csv,43.85,43.94,2018.2610000000002,2022.4009999999998,46.0,"[145, 148]"
CRZO.csv,43.94,44.13,1582.966,1589.806,36.0,"[181, 190]"
CRZO.csv,44.3,44.4,8152.844,8171.244,184.0,"[202, 208]"
ACGL.csv,57.69,57.63,5020.3345,5015.114500000001,87.0,"[82, 141]"
ACGL.csv,57.71,57.69,5022.074500000001,5020.3345,87.0,"[183, 242]"
ACGL.csv,57.71,57.75,5022.074500000001,5025.5545,87.0,"[293, 352]"
DRQ.csv,116.19,116.49,5113.514,5126.714,44.0,"[105, 128]"
MD.csv,108.02,108.33,5942.2925,5959.3425,55.0,"[99, 138]"
MD.csv,108.78,109.01,8594.8965,8613.0665,79.0,"[215, 268]"
DOV.csv,91.19,91.24,9393.9305,9399.0805,103.0,"[85, 144]"
DOV.csv,91.24,91.29,8304.1585,8308.7085,91.0,"[176, 235]"
DOV.csv,91.25,91.24,9400.1105,9399.0805,103.0,"[245, 304]"
DOV.csv,91.22,91.42,9397.0205,9417.6205,103.0,"[335, 380]"
LSTR.csv,55.37,55.34,7088.808,7084.968000000001,128.0,"[79, 138]"
LSTR.csv,55.36,55.48,7087.528,7102.888,128.0,"[173, 204]"
DNB.csv,109.1,109.36,5783.485499999999,5797.2654999999995,53.0,"[80, 85]"
FLR.csv,75.07,75.13,11111.877999999999,11120.758,148.0,"[120, 179]"
AGCO.csv,58.72,58.72,5168.668,5168.668,88.0,"[130, 189]"
EOG.csv,181.88,181.7,88943.47649999999,88855.45649999999,489.0,"[92, 151]"
EOG.csv,182.11,182.28,80860.61400000002,80936.09400000001,444.0,"[208, 267]"
EOG.csv,182.7,182.56,22108.123499999998,22091.183500000003,121.0,"[283, 342]"
IFF.csv,83.05,83.22,3157.033,3163.493,38.0,"[101, 105]"
IFF.csv,83.14,83.13,3160.453,3160.0729999999994,38.0,"[117, 176]"
IFF.csv,83.12,83.18,3159.693,3161.973,38.0,"[209, 268]"
IDXX.csv,108.23,108.11,4222.1065,4217.4265,39.0,"[144, 203]"
CBD.csv,49.45,49.44,2770.396,2769.836,56.0,"[132, 191]"
CBD.csv,49.29,49.42,2317.7945,2323.9045,47.0,"[270, 273]"
CBD.csv,49.22,49.22,2314.5045,2314.5045,47.0,"[308, 367]"
MPEL.csv,33.76,33.83,2060.5734999999995,2064.8435,61.0,"[120, 144]"
MPEL.csv,33.71,33.74,2057.5235,2059.3535,61.0,"[225, 284]"
GME.csv,55.17,55.09,2318.287,2314.927,42.0,"[76, 135]"
GME.csv,55.06,55.02,3745.3179999999998,3742.598,68.0,"[152, 211]"
GME.csv,55.08,55.17,3030.5925,3035.5425,55.0,"[229, 288]"
BKE.csv,49.25,49.21,1478.605,1477.405,30.0,"[80, 139]"
DVN.csv,64.63,64.15,10277.7265,10201.406500000001,159.0,"[79, 138]"
DVN.csv,64.64,64.43,8986.446500000002,8957.256500000001,139.0,"[237, 296]"
DVN.csv,64.51,64.46,8968.376500000002,8961.4265,139.0,"[311, 370]"
MMP.csv,58.77,58.91,3938.8245,3948.2045,67.0,"[72, 83]"
MMP.csv,59.01,59.14,3128.7155,3135.6055,53.0,"[93, 120]"
MMP.csv,59.4,59.54,2495.9469999999997,2501.8269999999998,42.0,"[170, 177]"
BWLD.csv,143.1,143.43,7871.6925,7889.842500000001,55.0,"[84, 108]"
BWLD.csv,143.48,143.91,7892.5925,7916.2425,55.0,"[121, 129]"
BWLD.csv,143.38,143.72,7887.0925,7905.7925000000005,55.0,"[163, 173]"
AYI.csv,99.59,99.81,4283.5205,4292.9805,43.0,"[94, 103]"
AYI.csv,99.44,99.8,4277.0705,4292.550499999999,43.0,"[111, 126]"
AYI.csv,100.38,100.14,13050.855,13019.655,130.0,"[305, 364]"
HAIN.csv,83.06,83.27,8888.7945,8911.2645,107.0,"[118, 128]"
HAIN.csv,83.16,83.33,8899.494499999999,8917.6845,107.0,"[150, 202]"
GWW.csv,271.91,271.47,15228.156,15203.516000000001,56.0,"[79, 138]"
GWW.csv,271.68,271.36,15215.276,15197.356,56.0,"[158, 217]"
GWW.csv,271.7,271.19,15216.395999999999,15187.836,56.0,"[266, 325]"
BPL.csv,67.31,67.47,2828.167,2834.8869999999997,42.0,"[87, 126]"
BPL.csv,67.41,67.56,3304.2614999999996,3311.6115,49.0,"[130, 179]"
MHK.csv,137.59,137.58,4541.5855,4541.2555,33.0,"[272, 331]"
MHK.csv,137.61,137.89,4542.2455,4551.4855,33.0,"[350, 368]"
MIC.csv,55.44,55.4,3327.6099999999997,3325.21,60.0,"[138, 197]"
MIC.csv,55.5,55.32,3331.21,3320.41,60.0,"[234, 293]"
CPA.csv,152.17,152.49,8370.542499999998,8388.1425,55.0,"[73, 100]"
CPA.csv,152.07,152.43,8365.0425,8384.842499999999,55.0,"[121, 136]"
CPA.csv,151.96,151.83,8358.9925,8351.8425,55.0,"[150, 209]"
CPA.csv,151.83,150.4,8503.676000000001,8423.596,56.0,"[210, 241]"
CPA.csv,150.86,151.19,15238.2135,15271.5435,101.0,"[245, 248]"
CPA.csv,151.33,151.64,35564.5475,35637.39749999999,235.0,"[264, 267]"
CPA.csv,151.73,152.25,39755.486999999994,39891.727,262.0,"[283, 297]"
FMX.csv,92.64,92.86,5466.9665,5479.9465,59.0,"[82, 84]"
FMX.csv,92.14,92.33,3318.166,3325.0060000000003,36.0,"[111, 115]"
FMX.csv,92.0,92.28,3129.119,3138.639,34.0,"[124, 128]"
FMX.csv,91.93,91.97,7263.7465,7266.9065,79.0,"[140, 199]"
FMX.csv,91.91,92.13,7262.166499999999,7279.5464999999995,79.0,"[202, 237]"
DECK.csv,69.59,69.76,8769.781,8791.201000000001,126.0,"[181, 192]"
AAP.csv,100.19,99.87,3106.9984999999997,3097.0785,31.0,"[184, 243]"
GD.csv,87.03,87.0,5484.110500000001,5482.2205,63.0,"[94, 153]"
GD.csv,87.06,87.18,5486.0005,5493.5605000000005,63.0,"[169, 228]"
CHTR.csv,135.96,135.63,13325.423,13293.083,98.0,"[85, 144]"
CHTR.csv,134.84,135.2,17395.8115,17442.2515,129.0,"[207, 262]"
CHTR.csv,134.91,135.27,14571.658,14610.538000000002,108.0,"[268, 304]"
CHTR.csv,135.06,135.36,4187.9685,4197.268500000001,31.0,"[310, 347]"
CTRP.csv,57.19,57.31,8865.992499999998,8884.5925,155.0,"[110, 119]"
CTRP.csv,58.15,57.58,15295.6855,15145.7755,263.0,"[178, 210]"
COO.csv,128.06,128.0,17161.509000000002,17153.469,134.0,"[80, 139]"
COO.csv,128.0,128.26,15361.42,15392.619999999999,120.0,"[183, 242]"
COO.csv,128.59,128.85,5016.1465,5026.286499999999,39.0,"[258, 260]"
COO.csv,128.81,128.93,9533.199,9542.079,74.0,"[265, 324]"
COO.csv,128.86,129.15,9536.899000000001,9558.359,74.0,"[354, 387]"
ITC.csv,101.17,101.45,4351.4605,4363.5005,43.0,"[146, 168]"
ATHN.csv,139.21,139.61,15036.058,15079.258000000002,108.0,"[77, 117]"
ATHN.csv,139.28,139.72,12675.798499999999,12715.8385,91.0,"[133, 135]"
ALGN.csv,58.23,58.38,2505.0405,2511.4905000000003,43.0,"[101, 103]"
ALGN.csv,58.42,58.25,4207.492,4195.252,72.0,"[144, 203]"
ALGN.csv,57.83,57.99,2256.5065,2262.7465,39.0,"[372, 378]"
APC.csv,95.07,94.81,12930.996,12895.636,136.0,"[86, 145]"
APC.csv,95.82,96.05,10158.291,10182.670999999998,106.0,"[207, 262]"
APC.csv,95.97,96.18,21787.119499999997,21834.7895,227.0,"[274, 295]"
APC.csv,96.33,96.02,15607.026999999998,15556.806999999999,162.0,"[305, 364]"
APC.csv,95.9,96.12,3261.7190000000005,3269.199,34.0,"[371, 380]"
LMCA.csv,153.75,153.3,48741.4445,48598.7945,317.0,"[214, 273]"
ICE.csv,193.7,193.18,23826.530499999997,23762.570499999998,123.0,"[75, 134]"
ICE.csv,193.88,194.3,23848.670499999997,23900.3305,123.0,"[143, 181]"
ICE.csv,194.19,193.68,20391.3175,20337.7675,105.0,"[182, 241]"
ICE.csv,193.71,194.16,20922.058,20970.658,108.0,"[242, 245]"
ICE.csv,194.03,193.65,18240.149,18204.429000000004,94.0,"[253, 312]"
ICE.csv,193.15,193.74,30712.4065,30806.2165,159.0,"[350, 387]"
AMG.csv,198.28,198.82,16458.5305,16503.350499999997,83.0,"[118, 131]"
AMG.csv,198.15,198.56,6143.758500000001,6156.4685,31.0,"[257, 271]"
CELG.csv,150.83,151.16,12821.847500000002,12849.897500000001,85.0,"[293, 322]"
CF.csv,217.9,216.13,23316.6745,23127.2845,107.0,"[125, 184]"
CF.csv,216.04,216.85,11883.392499999998,11927.9425,55.0,"[239, 241]"
GOOG.csv,1026.0,1024.97,44119.1505,44074.8605,43.0,"[87, 146]"
GOOG.csv,1026.3,1025.0,652732.2059999999,651905.406,636.0,"[164, 223]"
