ICON.csv,38.04,38.16,2854.2625,2863.2624999999994,75.0,"[100, 115]"
ICON.csv,37.97,38.01,2849.0125,2852.0125,75.0,"[195, 254]"
ENR.csv,106.68,106.92,4695.0740000000005,4705.634000000001,44.0,"[85, 138]"
LBTYA.csv,80.07,80.05,8328.643999999998,8326.563999999998,104.0,"[79, 138]"
LBTYA.csv,80.03,80.2,8324.484,8342.164,104.0,"[164, 214]"
LBTYA.csv,80.16,80.21,10502.4185,10508.968499999999,131.0,"[269, 328]"
CRS.csv,60.69,60.87,3642.6099999999997,3653.41,60.0,"[80, 105]"
CRS.csv,61.21,60.99,2816.821,2806.701,46.0,"[115, 174]"
CRS.csv,60.93,61.09,2499.2735000000002,2505.8335,41.0,"[203, 218]"
DBD.csv,30.27,30.21,969.752,967.832,32.0,"[190, 249]"
MMP.csv,60.52,60.65,2361.4165000000003,2366.4865,39.0,"[135, 143]"
MMP.csv,60.43,60.38,3808.3105,3805.1605,63.0,"[191, 250]"
MMP.csv,60.28,60.17,2472.6235,2468.1135000000004,41.0,"[290, 349]"
MSG.csv,57.23,56.89,4407.9795,4381.7995,77.0,"[111, 170]"
MSG.csv,56.97,56.95,4387.9595,4386.419500000001,77.0,"[212, 271]"
MSG.csv,56.97,57.1,4387.9595,4397.9695,77.0,"[274, 323]"
CSOD.csv,48.15,48.33,2312.368,2321.0080000000003,48.0,"[77, 83]"
CSOD.csv,48.04,47.57,2018.827,1999.087,42.0,"[180, 228]"
CSOD.csv,47.9,48.03,6276.358499999999,6293.3885,131.0,"[257, 270]"
CSOD.csv,48.03,48.13,2306.608,2311.4080000000004,48.0,"[274, 292]"
CSOD.csv,48.04,48.2,2018.827,2025.547,42.0,"[317, 359]"
CSOD.csv,48.2,48.33,2314.7680000000005,2321.0080000000003,48.0,"[360, 363]"
CREE.csv,57.06,56.82,1884.0955000000001,1876.1755,33.0,"[72, 131]"
CREE.csv,56.96,56.97,12647.007000000001,12649.227,222.0,"[142, 201]"
CREE.csv,56.97,57.1,12649.227,12678.087000000001,222.0,"[298, 315]"
CVI.csv,37.18,37.3,1190.872,1194.712,32.0,"[81, 104]"
MELI.csv,112.19,112.44,10547.189,10570.689,94.0,"[162, 188]"
GGG.csv,78.42,78.28,5647.492,5637.412,72.0,"[164, 223]"
GGG.csv,78.46,78.52,5650.372,5654.692,72.0,"[258, 317]"
AMT.csv,79.1,79.08,5854.659,5853.179,74.0,"[178, 237]"
LGF.csv,34.08,34.15,1534.7575,1537.9075,45.0,"[92, 125]"
LGF.csv,34.1,34.17,2354.1415,2358.9715,69.0,"[144, 159]"
LGF.csv,34.12,34.19,2355.5215,2360.3514999999998,69.0,"[187, 230]"
LGF.csv,34.09,34.17,2353.4515,2358.9715,69.0,"[243, 252]"
JAH.csv,55.01,54.92,4897.201499999999,4889.1915,89.0,"[251, 310]"
DRC.csv,58.69,58.84,2583.5139999999997,2590.114,44.0,"[82, 106]"
DRC.csv,58.8,58.82,1882.712,1883.352,32.0,"[236, 295]"
IPGP.csv,69.51,69.46,2781.54,2779.5399999999995,40.0,"[99, 158]"
MJN.csv,80.41,80.61,7961.936499999999,7981.7365,99.0,"[103, 106]"
MJN.csv,80.52,80.7,7972.826499999999,7990.6465,99.0,"[267, 300]"
HRC.csv,41.12,41.08,2797.3979999999997,2794.678,68.0,"[155, 214]"
DLX.csv,47.02,47.07,1834.9165000000003,1836.8665,39.0,"[80, 139]"
FSLR.csv,63.35,63.51,4245.684499999999,4256.4045,67.0,"[171, 184]"
FSLR.csv,63.34,63.47,4245.0145,4253.724499999999,67.0,"[223, 246]"
CYH.csv,42.8,42.91,2826.031,2833.291,66.0,"[125, 155]"
CYH.csv,42.81,42.9,2826.6910000000003,2832.6310000000003,66.0,"[183, 211]"
GTLS.csv,96.92,96.52,23941.339500000002,23842.5395,247.0,"[78, 137]"
GTLS.csv,96.76,97.08,17708.720500000003,17767.2805,183.0,"[287, 297]"
GTLS.csv,96.79,97.01,23909.2295,23963.5695,247.0,"[307, 313]"
GTLS.csv,96.92,97.18,23941.339500000002,24005.559500000003,247.0,"[326, 343]"
DISCA.csv,85.56,85.78,17541.5425,17586.6425,205.0,"[90, 106]"
DISCA.csv,85.75,85.78,15265.123,15270.463,178.0,"[112, 171]"
DISCA.csv,85.76,85.7,15266.903,15256.223,178.0,"[175, 234]"
DISCA.csv,85.55,85.73,17539.4925,17576.3925,205.0,"[271, 297]"
DISCA.csv,85.78,85.83,15270.463,15279.363,178.0,"[323, 382]"
EPAM.csv,35.47,35.57,1526.3605,1530.6605,43.0,"[355, 360]"
BYI.csv,72.39,72.56,3113.9205,3121.2305,43.0,"[87, 103]"
CVLT.csv,76.01,76.17,2661.4725000000003,2667.0725,35.0,"[208, 250]"
AMGN.csv,115.31,115.55,3691.032,3698.712,32.0,"[250, 261]"
CVD.csv,86.83,87.02,11463.021999999999,11488.101999999999,132.0,"[128, 137]"
CVD.csv,87.34,87.17,3756.7705000000005,3749.4605,43.0,"[201, 260]"
CVD.csv,87.43,87.62,4460.1085,4469.7985,51.0,"[266, 282]"
MNST.csv,57.71,57.85,1847.832,1852.3120000000001,32.0,"[150, 169]"
MNST.csv,57.7,57.84,1847.5120000000002,1851.9920000000002,32.0,"[237, 286]"
CTRP.csv,51.99,52.11,23243.329500000003,23296.9695,447.0,"[82, 97]"
CTRP.csv,51.57,51.68,2270.234,2275.074,44.0,"[183, 206]"
CTRP.csv,51.96,51.96,23177.951,23177.951,446.0,"[267, 326]"
CTRP.csv,51.94,51.94,23169.031,23169.031,446.0,"[328, 387]"
ALV.csv,89.89,90.08,6203.6515,6216.7615,69.0,"[81, 101]"
ALV.csv,89.97,90.19,2790.1785,2796.9984999999997,31.0,"[121, 139]"
ALV.csv,90.38,90.42,2983.6555,2984.9755,33.0,"[297, 356]"
FNGN.csv,58.93,59.06,2063.6725,2068.2225,35.0,"[231, 232]"
FNGN.csv,59.0,58.83,2066.1225,2060.1724999999997,35.0,"[283, 342]"
BWLD.csv,145.14,144.74,5951.8835,5935.4835,41.0,"[82, 141]"
BWLD.csv,145.0,144.87,9136.2205,9128.030499999999,63.0,"[228, 287]"
BWLD.csv,145.4,145.71,9597.631,9618.091,66.0,"[319, 375]"
HAR.csv,80.24,80.46,2568.792,2575.832,32.0,"[95, 106]"
HAR.csv,80.41,80.59,2574.232,2579.992,32.0,"[304, 341]"
GS.csv,162.82,162.94,15632.055999999999,15643.576,96.0,"[76, 135]"
GS.csv,163.04,163.42,17772.7415,17814.1615,109.0,"[137, 163]"
GS.csv,163.33,163.31,14211.014500000001,14209.2745,87.0,"[199, 258]"
GS.csv,163.37,163.48,14214.4945,14224.064499999999,87.0,"[299, 358]"
EGN.csv,74.89,75.08,2547.3790000000004,2553.839,34.0,"[177, 181]"
EGN.csv,75.08,75.25,2553.839,2559.619,34.0,"[227, 250]"
EOG.csv,168.25,168.65,8581.9285,8602.3285,51.0,"[103, 109]"
EOG.csv,169.01,169.41,6254.4995,6269.2995,37.0,"[212, 226]"
EOG.csv,169.1,169.44,6257.8295,6270.4095,37.0,"[266, 292]"
EOG.csv,169.14,169.48,6259.309499999999,6271.889499999999,37.0,"[327, 358]"
GMCR.csv,60.7,60.83,2247.0295,2251.8395,37.0,"[153, 174]"
GMCR.csv,60.67,60.88,2245.9195,2253.6895,37.0,"[215, 250]"
GMCR.csv,60.69,60.71,2246.6594999999998,2247.3995,37.0,"[279, 338]"
LMCA.csv,149.75,149.55,12879.801,12862.601,86.0,"[105, 164]"
LMCA.csv,149.89,150.2,15889.710999999998,15922.570999999998,106.0,"[184, 188]"
LMCA.csv,149.75,149.63,15874.871,15862.150999999998,106.0,"[323, 382]"
ANSS.csv,84.4,84.57,6668.8765,6682.3065,79.0,"[131, 184]"
ANSS.csv,84.5,84.48,2620.6085,2619.9885,31.0,"[245, 304]"
CF.csv,218.55,218.01,20326.4755,20276.2555,93.0,"[260, 319]"
HAIN.csv,84.45,84.4,3716.954,3714.7540000000004,44.0,"[111, 170]"
CELG.csv,150.09,150.44,8406.236,8425.836,56.0,"[88, 104]"
CELG.csv,149.53,149.85,23029.159,23078.439,154.0,"[280, 292]"
CELG.csv,149.53,149.84,23029.159,23076.899,154.0,"[309, 338]"
AMZN.csv,364.92,365.98,20436.716,20496.076,56.0,"[151, 197]"
CMG.csv,539.92,539.5,92327.91849999999,92256.0985,171.0,"[155, 214]"
CMG.csv,539.69,540.89,92288.5885,92493.7885,171.0,"[253, 292]"
CMG.csv,542.2,543.63,112779.368,113076.80799999999,208.0,"[334, 352]"
FDX.csv,135.71,135.89,10315.226,10328.905999999999,76.0,"[83, 142]"
FDX.csv,135.65,135.96,11938.508000000002,11965.788000000002,88.0,"[197, 241]"
DRQ.csv,114.18,114.45,5367.6245,5380.3145,47.0,"[82, 113]"
DRQ.csv,114.34,114.39,5375.1445,5377.4945,47.0,"[126, 185]"
DRQ.csv,114.81,115.07,6774.9965,6790.336499999999,59.0,"[335, 372]"
FOSL.csv,128.9,128.44,11989.025500000002,11946.2455,93.0,"[115, 174]"
FOSL.csv,128.37,128.51,7446.6630000000005,7454.783,58.0,"[176, 235]"
FOSL.csv,128.5,128.79,7454.203,7471.023,58.0,"[282, 296]"
FOSL.csv,128.84,129.14,11983.445500000002,12011.3455,93.0,"[307, 343]"
BIDU.csv,156.46,156.8,12518.080000000002,12545.28,80.0,"[225, 229]"
BIIB.csv,239.51,240.06,45269.0515,45373.001500000006,189.0,"[97, 105]"
BIIB.csv,239.45,238.69,45257.7115,45114.0715,189.0,"[129, 188]"
BIIB.csv,236.91,237.45,140018.8335,140337.9735,591.0,"[266, 287]"
BIIB.csv,237.05,237.72,140101.57350000003,140497.5435,591.0,"[339, 373]"
ATHN.csv,133.07,133.4,5723.160499999999,5737.3505,43.0,"[125, 129]"
ATHN.csv,132.74,131.74,5708.9705,5665.9705,43.0,"[163, 222]"
ATHN.csv,131.53,131.38,5393.873500000001,5387.7235,41.0,"[238, 297]"
