17880,254445,184.76,bid
17880,255516,184.78,ask
17880,257233,184.73,bid
17880,257910,184.76,ask
17884,314482,184.75,bid
17884,625861,184.73,bid
17894,623994,184.75,bid
17894,625003,184.77,ask
17894,971698,184.74,bid
17897,541778,184.76,ask
17898,755469,184.73,bid
17901,646775,184.75,ask
17902,641079,184.72,bid
17902,642028,184.73,ask
17902,920007,184.74,ask
17905,327208,184.68,bid
17909,879122,184.75,ask
17917,335636,184.69,bid
17917,336912,184.77,ask
17919,531724,184.7,bid
17919,532896,184.73,ask
17920,970422,184.71,bid
17922,42773,184.7,bid
17936,151906,184.74,bid
17936,152692,184.76,ask
17937,60598,184.75,bid
17937,61608,184.77,ask
17938,66268,184.72,bid
17952,32616,184.75,bid
17956,237704,184.72,bid
17956,238625,184.75,ask
17956,483902,184.77,ask
17956,880176,184.75,ask
17957,380786,184.74,ask
17957,775686,184.75,ask
17963,53474,184.74,bid
17986,419367,184.75,bid
17986,420329,184.77,ask
17986,423684,184.74,bid
17986,424604,184.76,ask
17986,425710,184.77,ask
17986,435115,184.75,bid
17986,446907,184.76,bid
17986,447662,184.78,ask
17986,455990,184.78,bid
17986,456631,184.79,ask
17986,460183,184.79,bid
17986,465251,184.77,bid
17986,468485,184.78,ask
17986,532540,184.77,ask
17986,537468,184.76,bid
17988,85195,184.78,ask
17995,671050,184.79,ask
18002,427719,184.77,ask
18003,603410,184.75,bid
18004,357868,184.74,bid
18005,421562,184.73,bid
18015,723868,184.72,bid
18017,717917,184.75,ask
18026,111424,184.74,ask
18027,876927,184.7,bid
18027,878757,184.73,ask
18033,715393,184.71,ask
18036,515168,184.72,bid
18036,517229,184.73,ask
18036,781607,184.71,bid
18039,611258,184.7,bid
18039,612280,184.72,ask
18039,871843,184.73,ask
18077,717482,184.72,ask
18093,533981,184.72,bid
18093,534781,184.73,ask
18094,34582,184.71,bid
18133,101139,184.74,bid
18133,102193,184.75,ask
18133,428322,184.75,bid
18133,429353,184.77,ask
18137,184016,184.79,ask
18137,491821,184.77,ask
18146,303242,184.76,ask
18147,808775,184.76,bid
18147,810709,184.77,ask
18162,885055,184.77,bid
18162,886226,184.79,ask
18196,13014,184.78,bid
18196,188461,184.79,bid
18196,189542,184.8,ask
18200,198194,184.78,bid
18201,176509,184.79,bid
18201,428640,184.78,bid
18207,218632,184.79,bid
18207,379809,184.78,bid
18210,572801,184.79,ask
18211,64955,184.8,ask
18211,858527,184.77,bid
18214,136026,184.79,ask
18214,960117,184.78,ask
18221,127180,184.79,ask
18221,864520,184.8,ask
18223,634067,184.79,ask
18230,339798,184.76,bid
18230,342124,184.78,ask
18232,129319,184.75,bid
18238,844523,184.77,ask
18239,937181,184.74,bid
18262,93764,184.76,ask
18269,138288,184.81,bid
18269,139408,184.82,ask
18271,498343,184.83,ask
18277,617625,184.8,bid
18287,858680,184.83,bid
18287,860403,184.84,ask
18288,218244,184.81,bid
18312,776446,184.83,bid
18312,964502,184.81,bid
18313,822019,184.83,ask
18316,541944,184.82,bid
18318,216244,184.81,bid
18322,186729,184.82,bid
18331,481729,184.81,bid
18331,482841,184.82,ask
18338,563381,184.82,bid
18338,565452,184.84,ask
18338,796272,184.81,bid
18346,75735,184.83,ask
18385,36737,184.83,bid
18385,37905,184.84,ask
18385,145104,184.82,bid
18391,949507,184.83,bid
18398,201325,184.87,bid
18398,203356,184.87,ask
18398,953554,184.88,ask
18399,142941,184.84,bid
18399,145038,184.87,ask
18399,446586,184.88,ask
18403,114984,184.85,bid
18405,622273,184.87,ask
18417,68052,184.86,bid
18418,98715,184.85,bid
18419,206206,184.86,ask
18419,359652,184.84,bid
18419,362072,184.85,ask
18419,608592,184.86,ask
18433,57550,184.85,ask
18440,437223,184.86,ask
18450,140040,184.83,bid
18450,141898,184.85,ask
18450,246839,184.86,ask
18450,871028,184.86,bid
18450,872486,184.87,ask
18469,580769,184.85,bid
18478,86835,184.86,ask
18478,840755,184.87,ask
18485,756752,184.84,bid
18498,289399,184.83,bid
18506,257724,184.82,bid
18506,259406,184.86,ask
18528,634004,184.84,ask
18531,115513,184.83,ask
18532,456307,184.85,ask
18533,262799,184.86,ask
18533,928986,184.85,bid
18534,701685,184.87,ask
18536,989454,184.88,ask
18541,553176,184.87,ask
18549,290948,184.86,ask
18555,870722,184.87,ask
18556,122382,184.86,ask
18556,623940,184.87,ask
18567,730367,184.89,ask
18574,101446,184.87,ask
18574,251757,184.89,ask
18581,732797,184.88,ask
18592,715573,184.87,ask
18602,426028,184.86,ask
18605,426599,184.84,bid
18605,428776,184.85,ask
18605,767530,184.86,ask
18612,978149,184.85,ask
18614,722060,184.86,ask
18619,255709,184.85,ask
18619,355644,184.86,ask
18625,997420,184.85,ask
18628,643303,184.85,bid
18628,644325,184.86,ask
18628,892603,184.84,bid
18638,367166,184.85,ask
18639,315250,184.83,bid
18639,316660,184.84,ask
18639,558066,184.85,ask
18644,123375,184.82,bid
18644,124645,184.84,ask
18644,290491,184.85,ask
18647,885928,184.86,ask
18664,639305,184.85,ask
18685,959607,184.84,ask
18700,696613,184.85,ask
18717,621989,184.84,ask
18727,864847,184.83,ask
18729,113590,184.81,bid
18732,774440,184.8,bid
18736,713971,184.81,ask
18738,58428,184.81,bid
18738,60499,184.83,ask
18738,308297,184.8,bid
18753,608062,184.82,ask
18766,14070,184.81,bid
18767,571582,184.85,ask
18774,851180,184.84,ask
18775,102222,184.85,ask
18780,185031,184.84,ask
18783,528143,184.83,ask
18785,707903,184.82,ask
18800,23803,184.83,bid
18800,25168,184.84,ask
18800,300974,184.85,ask
18803,282042,184.85,bid
18803,283454,184.86,ask
18803,633764,184.84,bid
18803,635194,184.89,ask
18804,445728,184.83,bid
18811,335759,184.88,ask
18813,539808,184.86,ask
18827,424278,184.85,ask
18827,923064,184.84,ask
18839,126863,184.85,ask
18842,892002,184.84,bid
18842,893112,184.86,ask
18858,279311,184.85,ask
18861,705147,184.83,bid
18873,89020,184.86,ask
18874,757327,184.84,bid
18874,759185,184.86,bid
18874,760346,184.87,ask
18883,718173,184.87,bid
18883,719262,184.88,ask
18883,964753,184.89,ask
18885,224077,184.86,bid
18885,732260,184.88,bid
18885,733684,184.9,ask
18886,44422,184.87,bid
18886,613380,184.86,bid
18886,720269,184.89,ask
18900,973718,184.88,ask
18912,86105,184.87,ask
18928,498770,184.87,bid
18928,500670,184.88,ask
18930,328931,184.89,ask
18930,828569,184.88,ask
18931,86639,184.88,bid
18931,88008,184.89,ask
18931,331635,184.87,bid
18933,174303,184.88,bid
18933,343152,184.87,bid
18939,461012,184.88,bid
18945,806353,184.9,ask
18946,134399,184.89,bid
18946,242033,184.88,bid
18946,244155,184.89,bid
18946,765628,184.88,bid
18947,79440,184.89,ask
18947,268677,184.9,ask
18951,465457,184.89,ask
18958,120189,184.87,bid
18958,122672,184.88,ask
18964,299043,184.86,bid
18964,800741,184.87,ask
18970,280867,184.87,bid
18970,514021,184.89,ask
18970,866150,184.86,bid
19012,228240,184.88,ask
19012,657863,184.87,ask
19014,930941,184.87,bid
19014,932366,184.88,ask
19015,38005,184.86,bid
19018,699626,184.88,bid
19018,700803,184.89,ask
19019,67807,184.86,bid
19028,727896,184.87,bid
19031,865970,184.88,bid
19040,132819,184.87,bid
19040,635774,184.88,bid
19040,886567,184.87,bid
19041,895401,184.9,ask
19045,27926,184.89,bid
19047,18727,184.87,bid
19047,122143,184.89,bid
19052,674658,184.86,bid
19052,676048,184.89,ask
19052,683799,184.85,bid
19052,685348,184.88,ask
19052,879408,184.84,bid
19052,880635,184.86,ask
19057,266813,184.83,bid
19057,268062,184.84,ask
19058,169567,184.82,bid
19059,459464,184.83,bid
19061,827796,184.84,bid
19061,829343,184.85,ask
19062,30570,184.83,bid
19068,987823,184.84,ask
19069,284026,184.85,ask
19073,316164,184.82,bid
19075,27958,184.84,ask
19076,704255,184.83,bid
19076,813363,184.85,ask
19078,996200,184.84,bid
19078,997692,184.86,ask
19080,38786,184.83,bid
19085,891795,184.84,bid
19087,564915,184.85,ask
19088,85428,184.86,ask
19092,674345,184.85,ask
19098,972190,184.86,ask
19100,738211,184.83,bid
19100,987809,184.85,ask
19101,237939,184.86,ask
19105,120546,184.84,bid
19105,122194,184.87,ask
19105,855242,184.83,bid
19107,558891,184.84,bid
19124,455370,184.86,ask
19134,591936,184.85,bid
19134,593501,184.88,ask
19135,442796,184.87,ask
19141,426884,184.86,ask
19145,985149,184.84,bid
19165,209575,184.85,bid
19165,627068,184.84,bid
19177,909664,184.83,bid
19177,911331,184.84,ask
19178,19923,184.85,ask
19180,548335,184.84,bid
19180,549913,184.86,ask
19180,801098,184.86,bid
19180,802632,184.87,ask
19181,52390,184.85,bid
19181,804252,184.86,bid
19182,789136,184.87,bid
19182,790681,184.88,ask
19183,624381,184.86,bid
19226,265190,184.88,bid
19226,267922,184.89,ask
19226,553372,184.87,bid
19228,26312,184.88,bid
19228,27936,184.9,ask
19229,285087,184.89,ask
19238,994486,184.89,bid
19238,995806,184.9,ask
19239,238309,184.88,bid
19242,19244,184.89,ask
19264,316216,184.87,bid
19264,319360,184.88,ask
19265,575272,184.88,bid
19265,576928,184.89,ask
19275,6005,184.89,bid
19275,7654,184.9,ask
19277,753137,184.93,bid
19277,754798,184.95,ask
19278,73200,184.91,bid
19278,76117,184.94,ask
19279,539480,184.93,ask
19280,61671,184.94,ask
19280,371568,184.93,bid
19281,29366,184.95,ask
19281,312465,184.94,bid
19290,905342,184.93,bid
19290,906795,184.94,ask
19291,346044,184.95,ask
19293,595929,184.94,ask
19293,859243,184.95,ask
19295,210926,184.94,ask
19296,468829,184.95,ask
19298,123586,184.94,ask
19303,416015,184.94,bid
19303,417261,184.95,ask
19311,875256,184.95,bid
19311,876872,184.96,ask
19312,378895,184.97,ask
19316,152203,184.96,bid
19316,153865,184.98,ask
19317,261959,184.97,bid
19317,263716,184.99,ask
19317,993055,184.98,ask
19319,423434,184.98,bid
19319,426862,184.99,ask
19319,769615,184.97,bid
19327,53927,184.98,ask
19328,335165,184.96,bid
19331,683170,184.97,bid
19331,684833,184.99,ask
19335,612928,184.98,ask
19339,191568,184.96,bid
19352,834158,184.95,bid
19352,836445,184.97,ask
19388,324348,184.94,bid
19388,326314,184.95,ask
19392,847640,184.96,ask
19413,404410,184.95,ask
19415,704165,184.96,ask
19424,275304,184.93,bid
19424,276987,184.94,ask
19424,472159,184.95,ask
19425,317482,184.94,ask
19427,277839,184.94,bid
19427,279511,184.95,ask
19427,440861,184.93,bid
19427,774143,184.96,bid
19427,775651,184.97,ask
19427,931994,184.95,bid
19428,125981,184.93,bid
19442,166582,184.95,ask
19447,214801,184.94,bid
19447,472245,184.95,bid
19447,473915,184.97,ask
19447,853554,184.94,bid
19453,252359,184.96,ask
19458,931791,184.97,ask
19473,429651,184.95,bid
19481,956112,184.97,bid
19481,958488,184.98,ask
19482,237201,184.98,bid
19482,240218,184.99,ask
19512,203145,184.98,bid
19512,205601,184.99,ask
19512,377478,184.97,bid
19520,168321,184.96,bid
19520,170381,184.97,ask
19520,521604,184.97,bid
19520,524877,184.98,ask
19520,671217,184.96,bid
19520,923538,184.99,ask
19524,66870,184.98,ask
19527,586442,184.97,ask
19529,91497,184.95,bid
19529,263850,184.99,ask
19532,28539,184.98,ask
19533,480598,184.94,bid
19533,484590,184.96,ask
19533,793999,184.97,ask
19540,66135,184.93,bid
19542,675355,184.92,bid
19542,677091,184.94,ask
19544,345552,184.93,ask
19544,454125,184.91,bid
19544,657315,184.94,ask
19545,589673,184.9,bid
19551,241063,184.91,bid
19551,242674,184.92,ask
19551,992172,184.94,ask
19560,124804,184.9,bid
19560,126566,184.92,ask
19561,602397,184.93,ask
19562,640334,184.92,bid
19564,940522,184.9,bid
19565,115850,184.88,bid
19579,936310,184.92,ask
19580,585664,184.89,ask
19581,890992,184.87,bid
19581,892809,184.88,ask
19584,124700,184.85,bid
19589,50462,184.86,bid
19589,51847,184.9,ask
19590,185521,184.89,ask
19591,694721,184.91,ask
19591,945915,184.89,ask
19599,167052,184.88,bid
19605,345653,184.89,bid
19605,347387,184.9,ask
19606,240109,184.93,ask
19616,839510,184.92,ask
19620,286037,184.9,ask
19623,637313,184.88,bid
19623,638988,184.89,ask
19625,407049,184.89,bid
19625,408708,184.9,ask
19626,71421,184.88,bid
19631,169407,184.89,bid
19636,426968,184.88,bid
19637,138827,184.85,bid
19637,140341,184.89,ask
19658,18343,184.89,bid
19658,20213,184.9,ask
19663,128178,184.91,ask
19666,334778,184.94,ask
19667,91727,184.9,bid
19668,982193,184.93,ask
19674,832570,184.92,ask
19677,655537,184.89,bid
19677,657356,184.91,ask
19688,106921,184.9,bid
19688,108741,184.92,ask
19688,318520,184.89,bid
19691,890799,184.9,bid
19692,748267,184.89,bid
19692,750002,184.91,ask
19692,761718,184.9,bid
19692,763375,184.92,ask
19699,539491,184.93,ask
19703,925627,184.89,bid
19703,928321,184.9,ask
19708,520881,184.88,bid
19708,524094,184.89,ask
19724,829147,184.89,bid
19724,831168,184.9,ask
19736,892292,184.87,bid
19741,405075,184.89,ask
19741,980156,184.88,bid
19741,982466,184.9,ask
19742,965612,184.89,ask
19745,937309,184.87,bid
19745,939252,184.88,ask
19750,885999,184.88,bid
19750,888088,184.89,ask
19752,954872,184.87,bid
19752,956782,184.88,ask
19772,519784,184.86,bid
19772,521864,184.87,ask
19774,482730,184.85,bid
19774,484610,184.86,ask
19775,762442,184.84,bid
19776,244000,184.85,ask
19801,517907,184.85,bid
19801,519889,184.86,ask
19802,61976,184.86,bid
19802,63872,184.88,ask
19809,364102,184.85,bid
19809,366354,184.87,ask
19815,774706,184.86,ask
19816,695319,184.84,bid
19816,697362,184.85,ask
19816,945673,184.86,ask
19822,516605,184.85,ask
19859,352115,184.83,bid
19859,355249,184.84,ask
19861,367507,184.79,bid
19861,369429,184.81,ask
19861,723685,184.77,bid
19862,119069,184.76,bid
19862,120996,184.8,ask
19863,465454,184.81,bid
19863,467270,184.83,ask
19864,715026,184.82,bid
19864,717859,184.84,ask
19867,849572,184.81,bid
19871,251138,184.77,bid
19871,613413,184.78,bid
19882,359333,184.83,ask
19885,405709,184.82,ask
19891,238033,184.77,bid
19891,491180,184.8,ask
19893,846250,184.8,bid
19893,848065,184.82,ask
19894,340327,184.78,bid
19894,844707,184.8,bid
19898,864558,184.81,ask
19902,157585,184.78,bid
19904,252722,184.8,ask
19904,506214,184.76,bid
19906,314357,184.78,ask
19918,405184,184.79,bid
19918,407160,184.8,ask
19918,848640,184.8,bid
19918,850597,184.81,ask
19918,957001,184.79,bid
19926,893922,184.8,ask
19927,207132,184.8,bid
19927,209048,184.81,ask
19944,132952,184.84,ask
19945,130892,184.81,bid
19949,260933,184.82,ask
19951,127674,184.84,ask
19951,878116,184.82,bid
19953,864168,184.85,ask
19954,390313,184.86,ask
19955,631416,184.87,ask
19961,59877,184.84,bid
19964,829018,184.83,bid
19971,867076,184.82,bid
19971,869207,184.84,ask
19972,148327,184.86,ask
19973,188501,184.84,ask
19975,405600,184.86,ask
19978,350431,184.84,ask
19982,709938,184.81,bid
19982,711829,184.82,ask
19982,846075,184.8,bid
19982,848119,184.83,ask
19985,205815,184.82,ask
19986,318508,184.81,ask
19991,867442,184.82,ask
19992,10415,184.84,ask
19993,18334,184.81,bid
19997,855878,184.85,ask
19999,6831,184.82,bid
19999,519143,184.83,bid
19999,521006,184.87,ask
20000,12003,184.86,ask
20001,17972,184.84,bid
20003,901883,184.87,ask
20013,6274,184.85,bid
20013,8322,184.86,ask
20013,191295,184.87,ask
20014,780869,184.86,ask
20014,953510,184.84,bid
20014,955532,184.85,ask
20015,204687,184.87,ask
20016,664770,184.83,bid
20016,792985,184.81,bid
20016,795862,184.84,ask
20017,48967,184.79,bid
20017,50994,184.85,ask
20019,598875,184.8,bid
20026,377120,184.84,ask
20030,924061,184.81,bid
20033,443408,184.83,ask
20039,553582,184.8,bid
20039,555303,184.82,ask
20046,340784,184.81,ask
20046,450345,184.79,bid
20052,79150,184.8,ask
20055,867155,184.8,bid
20055,868868,184.81,ask
20056,354532,184.82,ask
20057,108429,184.83,ask
20060,126171,184.82,ask
20064,838799,184.76,bid
20064,840885,184.8,ask
20065,778460,184.79,bid
20066,92633,184.76,bid
20066,96121,184.79,ask
20074,243509,184.73,bid
20074,245689,184.75,ask
20074,420095,184.75,bid
20074,422173,184.76,ask
20076,924429,184.78,ask
20117,715517,184.77,bid
20120,655771,184.78,bid
20120,657944,184.79,ask
20120,955184,184.77,bid
20120,957297,184.78,ask
20121,160071,184.79,ask
20122,108626,184.8,ask
20126,283521,184.79,ask
20126,441937,184.8,ask
20132,36366,184.79,ask
20135,558295,184.78,bid
20135,560473,184.8,ask
20139,35657,184.79,bid
20139,37963,184.81,ask
20139,699961,184.8,bid
20140,288129,184.82,ask
20144,167798,184.81,bid
20144,169639,184.83,ask
20144,412661,184.8,bid
20145,163491,184.81,bid
20145,513541,184.84,ask
20146,197138,184.85,ask
20152,4400,184.84,ask
20154,609266,184.83,ask
20160,202462,184.8,bid
20160,204279,184.81,ask
20161,457044,184.79,bid
20161,459227,184.8,ask
20161,817078,184.75,bid
20161,819289,184.79,ask
20162,211270,184.74,bid
20163,116124,184.78,ask
20165,151229,184.73,bid
20166,984819,184.74,bid
20169,27381,184.77,ask
20169,347482,184.75,bid
20171,585068,184.78,ask
20181,358432,184.76,bid
20183,78413,184.75,bid
20189,404526,184.76,bid
20190,349613,184.77,ask
20209,887398,184.73,bid
20209,889683,184.76,ask
20210,9844,184.76,bid
20210,12038,184.77,ask
20211,350302,184.75,bid
20227,340487,184.76,bid
20228,387427,184.75,bid
20233,279273,184.76,ask
20233,782314,184.76,bid
20233,784496,184.77,ask
20238,64711,184.75,bid
20238,68441,184.76,ask
20238,424293,184.77,ask
20240,402674,184.76,bid
20240,592976,184.75,bid
20244,941698,184.76,ask
20245,529166,184.73,bid
20245,698408,184.75,bid
20250,977680,184.74,bid
20251,528523,184.73,bid
20260,61679,184.75,ask
20267,307945,184.74,ask
20277,187061,184.72,bid
20283,353193,184.73,bid
20295,161083,184.72,bid
20311,254858,184.73,ask
20315,181662,184.71,bid
20318,342114,184.72,ask
20330,171947,184.7,bid
20331,425253,184.69,bid
20333,47566,184.7,ask
20333,299460,184.68,bid
20333,621793,184.69,ask
20340,124041,184.67,bid
20341,142900,184.68,ask
20361,938200,184.66,bid
20361,940467,184.67,ask
20365,992676,184.65,bid
20367,709382,184.66,ask
20368,13746,184.64,bid
20372,188509,184.65,ask
20376,842007,184.63,bid
20382,526150,184.64,bid
20385,149207,184.63,bid
20386,592213,184.62,bid
20391,550341,184.64,ask
20398,379102,184.61,bid
20398,381202,184.63,ask
20401,389400,184.6,bid
20401,663382,184.59,bid
20403,916774,184.62,ask
20413,989653,184.61,ask
20416,281013,184.6,bid
20418,788500,184.59,bid
20418,790854,184.6,ask
20450,666013,184.58,bid
20450,669871,184.59,ask
20453,549225,184.59,bid
20453,551697,184.6,ask
20464,257014,184.57,bid
20464,259320,184.59,ask
20464,560874,184.58,bid
20466,863171,184.57,bid
20480,158696,184.58,bid
20482,437400,184.57,bid
20493,98888,184.58,bid
20495,15111,184.59,bid
20495,17068,184.6,ask
20496,268560,184.6,bid
20496,271091,184.61,ask
20496,540817,184.62,ask
20497,62565,184.61,bid
20497,64960,184.63,ask
20497,480938,184.6,bid
20497,483575,184.62,ask
20497,485972,184.61,ask
20499,245565,184.62,bid
20499,247940,184.63,ask
20499,497118,184.64,ask
20500,260353,184.6,bid
20505,75741,184.63,ask
20505,321340,184.62,bid
20505,323708,184.65,ask
20506,361066,184.64,ask
20506,660693,184.61,bid
20507,407047,184.63,ask
20521,456455,184.6,bid
20521,458555,184.62,ask
20522,799548,184.63,ask
20526,180688,184.62,ask
20526,675322,184.59,bid
20526,677680,184.6,ask
20527,576827,184.58,bid
20530,84439,184.57,bid
20530,86873,184.59,ask
20537,801287,184.58,ask
20542,344809,184.55,bid
20542,347376,184.56,ask
20542,597206,184.57,ask
20542,850485,184.52,bid
20542,852860,184.56,ask
20543,462939,184.55,ask
20553,64824,184.45,bid
20553,68861,184.47,ask
20553,392761,184.49,ask
20555,480018,184.48,ask
20556,313891,184.46,bid
20559,61887,184.45,bid
20564,151214,184.46,ask
20564,678459,184.44,bid
20564,681034,184.45,ask
20566,33927,184.41,bid
20567,302633,184.42,bid
20569,64505,184.46,ask
20572,177943,184.43,bid
20572,619577,184.44,bid
20572,622052,184.47,ask
20573,877794,184.48,bid
20573,880011,184.5,ask
20574,301438,184.5,bid
20574,304011,184.51,ask
20575,20995,184.52,bid
20575,23650,184.53,ask
20575,461454,184.53,bid
20575,463998,184.54,ask
20575,751810,184.55,ask
20576,477111,184.57,ask
20576,986210,184.58,ask
20577,226711,184.55,bid
20577,529803,184.56,bid
20577,532368,184.6,ask
20578,988178,184.57,bid
20578,990768,184.62,ask
20579,496249,184.58,bid
20579,498699,184.63,ask
20582,457310,184.62,ask
20586,150570,184.54,bid
20586,152949,184.6,ask
20586,684085,184.52,bid
20586,686645,184.59,ask
20587,193884,184.49,bid
20587,196351,184.57,ask
20587,437811,184.5,bid
20587,442695,184.54,ask
20587,781859,184.52,bid
20587,784413,184.55,ask
20589,370750,184.53,bid
20589,373239,184.58,ask
20592,582890,184.59,ask
20595,265052,184.58,ask
20599,758179,184.55,ask
20602,308022,184.52,bid
20614,53051,184.51,bid
20614,55533,184.54,ask
20615,306247,184.54,bid
20615,308840,184.55,ask
20617,148841,184.56,bid
20617,151347,184.57,ask
20617,321034,184.55,bid
20618,75519,184.56,ask
20620,690625,184.54,bid
20620,693146,184.55,ask
20622,547411,184.51,bid
20624,137527,184.53,bid
20628,95121,184.51,bid
20628,97573,184.54,ask
20629,680801,184.53,ask
20636,155053,184.5,bid
20636,157660,184.51,ask
20636,313574,184.47,bid
20636,316136,184.53,ask
20642,867290,184.51,ask
20643,589809,184.5,ask
20647,49101,184.46,bid
20647,51542,184.47,ask
20647,727333,184.45,bid
20647,729727,184.46,ask
20647,968507,184.44,bid
20647,970965,184.45,ask
20650,488730,184.43,bid
20650,491392,184.44,ask
20652,41446,184.42,bid
20652,43963,184.43,ask
20652,257767,184.41,bid
20652,260517,184.42,ask
20653,397954,184.37,bid
20653,400537,184.4,ask
20653,572721,184.38,bid
20653,575388,184.41,ask
20654,24004,184.37,bid
20654,26580,184.39,ask
20654,593266,184.42,ask
20654,858793,184.4,ask
20656,269391,184.38,bid
20657,9643,184.42,ask
20659,563973,184.39,bid
20659,672583,184.38,bid
20662,879984,184.39,bid
20663,384633,184.41,bid
20663,387670,184.44,ask
