AGO,23.51,22.44,23.41,0.32
AGN,125.04,122.00,124.97,0.59
NYT,14.52,14.21,14.40,0.07
NOC,119.30,117.00,118.86,0.51
AGU,88.44,87.48,88.22,0.24
ERIC,12.63,12.46,12.58,0.05
BWP,13.63,13.25,13.46,0.05
SPR,29.32,28.44,28.84,0.21
ITUB,13.13,12.75,13.08,0.10
SPW,104.55,101.06,103.68,0.61
VRTX,85.65,82.03,85.00,0.34
BWA,57.24,54.79,56.93,0.46
BWC,34.11,33.52,34.08,0.14
SPN,26.43,25.37,26.39,0.27
SPF,8.66,8.35,8.62,0.09
SPG,159.59,157.13,158.73,0.40
ENDP,72.00,69.92,71.80,0.57
GT,27.27,24.68,26.94,0.43
GS,164.40,162.10,164.06,0.44
GG,27.00,25.46,26.98,0.26
GE,25.44,25.11,25.44,0.10
GD,104.01,102.90,103.73,0.22
BYI,70.32,66.97,70.10,0.70
GM,35.22,34.76,35.20,0.09
JNS,10.96,10.65,10.95,0.07
MAS,22.42,21.91,22.24,0.10
MAR,50.20,49.02,50.11,0.18
MAT,37.12,36.62,37.06,0.07
AMCX,67.21,66.06,66.69,0.22
JNY,14.93,14.88,14.93,0.00
SNH,21.68,21.21,21.38,0.07
SNI,78.18,76.95,77.44,0.15
MAA,67.78,67.01,67.50,0.13
MAC,60.77,59.67,60.49,0.17
JNJ,92.62,91.71,92.56,0.23
MAN,76.91,75.25,76.66,0.38
BEN,53.39,52.51,53.13,0.11
BEE,9.50,9.22,9.48,0.06
IDCC,28.70,27.73,28.58,0.24
LNKD,195.00,189.87,191.67,1.10
VLO,49.04,47.34,49.01,0.38
LSI,11.10,11.07,11.10,0.01
VLY,9.80,9.64,9.77,0.04
TTM,31.10,30.21,31.04,0.20
GRT,9.60,9.44,9.50,0.03
GRA,98.83,97.19,97.95,0.44
CPRT,35.17,34.37,34.78,0.15
HLX,22.43,21.71,22.15,0.13
NOG,15.50,14.90,15.39,0.14
HLS,33.23,32.37,33.21,0.21
KKR,24.19,23.78,24.13,0.10
HLF,67.19,64.85,66.90,0.55
NOV,76.13,75.33,75.94,0.18
CSX,27.37,27.04,27.37,0.08
CTB,24.06,23.29,23.82,0.17
CTL,31.25,30.02,30.77,0.19
WHR,139.09,136.26,138.43,0.61
WSH,41.72,41.30,41.40,0.07
YOKU,30.15,29.07,29.92,0.24
V,224.75,222.46,224.05,0.47
NTAP,41.25,39.85,41.10,0.40
RLJ,24.94,24.44,24.91,0.14
LMT,160.76,156.54,159.80,0.51
EDR,9.53,9.21,9.39,0.05
ORI,15.34,15.05,15.34,0.05
PSEC,11.37,11.23,11.33,0.04
DPS,50.24,49.84,50.07,0.09
DPZ,71.99,70.22,71.80,0.38
DPM,49.71,48.50,49.00,0.21
AGCO,51.85,51.23,51.60,0.11
SEMG,63.33,61.01,61.87,0.16
LO,47.94,46.73,47.72,0.25
LM,44.80,43.49,44.66,0.27
LH,91.92,89.94,91.81,0.52
A,60.38,59.37,60.08,0.16
EZPW,13.39,12.25,13.31,0.34
CFN,41.24,40.41,41.15,0.19
PNR,77.94,76.42,77.93,0.29
PNW,54.11,53.51,54.02,0.06
PNM,25.09,24.56,25.09,0.11
CFX,69.81,64.39,69.71,0.99
PNC,81.24,80.11,81.14,0.31
CFR,74.39,73.18,74.30,0.32
CBOE,57.26,55.74,56.66,0.26
PRE,101.09,97.86,100.96,0.77
PRA,46.69,45.93,46.66,0.17
JOY,56.49,55.39,56.25,0.19
PRU,84.66,83.11,84.62,0.39
FITB,21.54,21.19,21.54,0.08
SAP,79.25,77.97,79.17,0.29
INXN,24.45,24.03,24.32,0.09
CHD,64.66,63.67,64.38,0.14
CHK,25.11,24.47,24.95,0.16
CHL,47.58,47.10,47.46,0.11
ASBC,16.67,16.33,16.66,0.09
SNE,17.28,16.75,17.20,0.12
CHU,13.51,13.28,13.49,0.05
JAH,61.05,58.43,59.70,0.56
MRK,55.21,54.41,55.10,0.17
SNA,109.52,107.70,109.43,0.38
DBD,36.53,33.17,36.31,0.92
APH,88.68,87.41,88.54,0.28
BRKR,22.07,21.48,22.04,0.12
APO,31.99,31.30,31.83,0.11
APL,33.38,32.67,32.90,0.11
APC,82.25,80.18,81.52,0.41
APA,81.17,78.53,80.96,0.68
APD,117.04,110.61,116.93,2.08
QLIK,28.29,26.87,28.11,0.24
EWBC,34.86,34.31,34.84,0.17
SNV,3.46,3.40,3.45,0.02
AVGO,59.51,57.38,59.08,0.42
HMY,3.11,2.95,3.09,0.03
NLY,10.96,10.83,10.93,0.02
TKR,58.47,56.91,58.14,0.35
LPLA,54.01,52.23,53.94,0.44
HME,59.11,58.46,58.76,0.08
HMC,37.05,36.40,37.02,0.14
AFL,62.82,62.00,62.79,0.18
DLB,41.78,40.61,41.52,0.34
PAYX,41.65,41.00,41.54,0.11
CSOD,58.87,57.04,58.87,0.35
GCI,28.20,27.88,28.18,0.08
AFG,56.08,55.15,56.06,0.22
GCO,72.56,70.61,72.13,0.41
DLR,53.95,52.80,53.57,0.20
DLX,46.84,45.43,46.82,0.29
BTU,16.60,16.30,16.44,0.05
XCO,5.14,4.97,5.02,0.04
SNY,49.61,49.11,49.49,0.11
BTI,101.78,100.77,101.78,0.23
CREE,61.09,59.13,60.81,0.44
WYN,70.53,69.59,70.29,0.15
ECA,19.20,18.61,18.89,0.07
LNT,53.21,52.48,53.14,0.12
ECL,102.77,100.55,102.30,0.54
RMD,46.00,45.36,45.97,0.08
LNG,47.37,45.11,46.88,0.32
AREX,20.84,19.80,20.24,0.16
EXPD,41.90,41.33,41.77,0.15
ETFC,21.82,21.04,21.79,0.20
BBL,62.29,61.17,62.29,0.31
BBG,24.87,22.92,24.27,0.48
BBD,11.01,10.72,10.98,0.07
BBY,24.82,24.45,24.68,0.06
BBT,37.47,36.89,37.43,0.12
TRIP,92.47,88.72,92.30,0.60
NUE,50.58,49.73,50.55,0.22
VMI,149.00,145.51,148.95,0.64
TUP,77.93,77.07,77.86,0.18
DNKN,49.25,48.30,49.23,0.18
VMW,94.42,92.56,93.72,0.30
CLGX,34.23,33.01,34.17,0.31
ANSS,82.13,80.10,82.06,0.39
CYS,8.61,8.38,8.59,0.05
CYT,92.64,90.25,92.26,0.44
BIIB,329.45,315.00,328.62,1.81
POR,30.68,30.00,30.63,0.14
TSS,29.61,29.29,29.48,0.07
POL,36.18,35.01,35.98,0.33
POM,20.35,19.97,20.34,0.09
CYH,41.70,40.58,41.49,0.16
CYN,71.97,70.59,71.93,0.32
CWH,27.08,26.49,27.00,0.12
YUM,73.89,72.86,73.82,0.22
HUN,23.00,22.20,22.73,0.18
NPBC,10.50,10.25,10.50,0.06
ENTG,11.99,11.65,11.98,0.08
PAY,28.55,28.03,28.36,0.08
AAPL,544.85,534.20,544.43,2.05
SRCL,116.50,115.08,115.75,0.23
PAA,54.37,53.17,53.80,0.19
PAG,42.52,40.20,41.98,0.56
DCI,42.14,41.43,42.03,0.12
CDNS,14.62,14.46,14.57,0.04
AWK,43.57,42.59,43.57,0.19
AWI,61.12,59.60,60.75,0.26
DCT,7.67,7.56,7.65,0.01
WEC,43.32,42.64,43.31,0.10
TWGP,2.77,2.65,2.77,0.02
WEN,9.36,9.18,9.36,0.05
X,26.60,25.75,26.57,0.22
PLCE,53.77,52.62,53.43,0.16
OII,71.74,69.22,71.31,0.54
IHS,116.70,114.00,116.63,0.48
PLCM,12.98,12.56,12.87,0.08
CCI,74.69,72.71,74.55,0.26
OIS,100.23,97.51,98.57,0.61
OMI,35.65,34.96,35.45,0.11
AEP,49.74,48.75,49.70,0.22
AES,14.60,14.20,14.49,0.07
AET,66.27,64.68,65.75,0.23
AMAT,19.00,17.73,18.87,0.20
SWKS,32.19,31.75,32.11,0.08
GPOR,63.12,60.98,62.19,0.46
SSNC,40.50,39.04,40.13,0.24
AEM,33.62,31.69,33.47,0.27
AEO,13.68,13.29,13.60,0.10
BSBR,4.95,4.74,4.91,0.05
CTXS,58.12,55.53,57.64,0.36
BUD,100.28,99.04,100.25,0.27
AGNC,22.20,21.88,22.12,0.05
C,49.93,49.05,49.86,0.13
UMPQ,17.18,16.87,17.18,0.10
MSCI,42.75,42.16,42.45,0.10
XRX,10.81,10.61,10.79,0.04
MSCC,23.30,22.68,23.21,0.12
HALO,15.23,14.70,15.14,0.07
MOS,48.22,47.43,47.63,0.17
SAPE,15.95,15.60,15.87,0.07
PSA,165.19,162.29,164.52,0.48
PSX,74.92,72.63,74.65,0.49
MOH,35.37,33.13,35.36,0.29
MON,110.92,108.76,109.88,0.44
JLL,121.42,117.48,120.80,0.67
ETR,64.58,63.22,64.43,0.22
ETP,54.64,53.80,54.13,0.21
KMB,108.85,107.43,108.75,0.25
BCE,42.90,42.58,42.83,0.06
KMI,33.93,33.56,33.66,0.07
KMT,44.00,43.15,43.92,0.17
HNT,31.79,31.16,31.74,0.14
KMP,80.50,79.75,80.02,0.18
ETN,71.70,70.25,71.55,0.27
BCR,138.02,135.57,137.89,0.50
DK,28.83,28.10,28.74,0.22
DLTR,51.89,51.51,51.84,0.08
VRX,142.41,140.00,141.79,0.50
DF,14.31,14.01,14.15,0.04
VRA,24.34,23.81,24.19,0.07
ROVI,24.10,21.95,23.45,0.26
WERN,26.00,25.50,25.95,0.13
DD,64.15,63.05,63.98,0.30
CI,76.44,75.37,76.14,0.18
JDSU,13.50,13.20,13.49,0.07
SRE,92.94,91.78,92.90,0.22
CB,85.36,84.18,85.32,0.26
CA,33.10,32.52,33.08,0.13
CF,232.19,227.20,231.23,1.03
CE,53.15,51.79,52.80,0.33
CY,10.00,9.81,9.94,0.02
CX,13.05,12.70,12.87,0.05
CS,31.58,31.10,31.45,0.14
CR,65.92,64.78,65.91,0.27
CP,155.35,152.45,154.97,0.46
CHMT,25.50,24.80,25.16,0.14
TDC,43.16,42.39,42.80,0.16
NOK,7.31,7.11,7.20,0.04
TDG,175.56,173.02,174.57,0.48
TDS,25.48,24.65,25.30,0.19
TDW,47.20,46.69,47.15,0.11
FHN,11.87,11.62,11.86,0.06
CVX,112.74,111.18,112.51,0.43
CVS,69.57,68.09,69.48,0.35
ZNGA,4.81,4.62,4.76,0.04
LOW,46.81,46.03,46.64,0.20
CVI,37.69,36.28,37.36,0.37
CVG,19.88,19.41,19.86,0.10
CVD,102.60,100.35,102.35,0.38
CVE,26.68,26.03,26.21,0.06
CVC,17.52,16.21,16.41,0.23
CVA,17.88,17.34,17.82,0.11
TWTC,29.94,28.89,29.76,0.19
HPY,40.37,39.60,40.16,0.13
HPQ,29.92,29.18,29.83,0.07
HPT,25.91,25.51,25.81,0.09
VR,36.48,35.93,36.47,0.16
TJX,60.52,59.72,60.17,0.15
VZ,47.46,47.00,47.31,0.11
NTGR,33.60,32.77,33.54,0.14
LAMR,51.55,50.29,51.40,0.23
RJF,51.37,50.00,51.34,0.28
WDC,86.75,85.04,86.71,0.34
DRQ,101.90,98.81,101.32,0.69
GLNG,35.27,34.75,34.83,0.07
DRI,48.47,48.01,48.17,0.09
DRH,11.90,11.56,11.82,0.06
WDR,69.32,67.84,68.96,0.20
DRC,59.09,57.58,58.52,0.31
DRE,16.28,15.99,16.14,0.04
OHI,31.46,31.02,31.20,0.07
UIL,39.74,38.56,39.72,0.28
IOC,53.00,51.50,52.10,0.15
D,70.75,69.00,70.69,0.38
STLD,17.68,17.23,17.67,0.09
CXW,32.00,30.87,31.50,0.21
LECO,70.84,69.18,70.84,0.40
CXO,111.96,108.64,110.69,0.53
HCSG,27.19,26.13,26.93,0.18
HR,22.43,22.06,22.24,0.04
HP,89.74,87.06,89.66,0.65
HT,5.45,5.38,5.44,0.02
HK,3.80,3.56,3.70,0.05
HI,29.65,28.35,29.63,0.26
HL,3.33,3.22,3.33,0.02
HD,77.87,76.94,77.59,0.25
HE,26.47,26.00,26.46,0.09
SCI,18.55,18.00,18.47,0.16
INTC,24.74,24.31,24.70,0.09
SCG,48.56,47.69,48.45,0.17
KLIC,11.58,11.36,11.58,0.04
INVN,21.42,20.30,20.58,0.19
ACOR,34.09,30.92,34.06,0.98
TIBX,21.98,21.50,21.94,0.15
AUXL,26.14,24.84,26.02,0.25
YHOO,38.69,37.79,38.52,0.15
PBI,25.50,24.81,25.40,0.13
MPC,85.85,83.90,85.58,0.37
AVT,43.14,41.28,43.10,0.29
AVP,15.37,14.46,14.60,0.20
MPW,13.38,13.12,13.31,0.04
FNFG,8.55,8.44,8.54,0.02
AVA,29.62,28.91,29.62,0.12
AVB,129.48,128.24,128.34,0.18
CPWR,10.49,10.28,10.47,0.05
ACAS,14.91,14.57,14.86,0.07
JBLU,8.53,8.29,8.52,0.05
GOV,24.84,24.45,24.66,0.06
TEL,57.38,56.49,57.27,0.25
TEN,58.46,56.58,58.32,0.45
NBR,18.34,17.68,18.14,0.14
TEF,15.51,15.23,15.51,0.07
TEG,55.37,54.43,55.23,0.16
TEX,43.99,43.02,43.80,0.21
NBL,66.97,65.60,66.45,0.37
TER,19.26,18.82,19.25,0.06
ISIL,11.63,11.22,11.50,0.08
ADS,279.64,272.91,279.40,1.02
ADP,76.28,75.20,76.21,0.22
DNB,99.50,96.76,97.66,0.25
CLMT,27.87,27.41,27.74,0.10
GME,36.28,35.37,35.86,0.15
DNR,16.37,16.17,16.24,0.03
MCK,175.85,174.07,175.67,0.35
ADM,40.90,40.22,40.67,0.11
ADI,50.70,49.63,50.69,0.18
VIAB,85.49,83.46,84.71,0.32
XEC,111.52,105.76,110.00,1.33
XEL,29.45,28.98,29.43,0.08
BRO,29.65,29.07,29.53,0.09
BRE,62.32,61.47,61.71,0.12
BSAC,22.16,21.31,22.15,0.22
TWC,146.19,143.30,144.81,0.34
TWI,18.09,17.14,18.04,0.23
TWO,10.08,9.95,10.03,0.02
DISH,58.87,57.60,58.32,0.18
TWX,65.36,64.46,64.60,0.26
RKT,108.67,105.08,107.57,0.73
ALSN,29.83,28.84,29.69,0.11
EAT,50.57,49.28,50.30,0.22
HOG,64.96,64.33,64.76,0.15
ESS,168.99,165.75,166.58,0.56
HON,94.60,93.26,94.53,0.29
MLHR,28.08,27.05,28.02,0.25
HOT,76.28,73.09,75.36,0.66
HOS,42.74,41.91,42.67,0.17
TROW,80.89,79.60,80.62,0.28
ESI,31.26,30.06,31.11,0.30
SHOO,34.64,33.50,34.32,0.27
IPXL,22.59,21.66,22.42,0.18
VSH,14.03,13.61,13.88,0.06
VSI,45.02,44.01,44.25,0.19
RYN,44.87,44.30,44.77,0.08
RYL,43.28,42.12,43.09,0.28
EOG,176.75,172.60,175.47,0.79
IDXX,124.23,119.08,124.07,0.54
ICLR,45.55,43.21,44.80,0.38
AMX,21.23,20.76,21.10,0.06
CCOI,43.14,42.00,42.74,0.22
FIS,54.07,53.32,54.07,0.14
VAL,75.38,74.21,75.08,0.21
LHO,29.89,29.35,29.70,0.12
ADTN,25.88,25.44,25.74,0.06
VAR,81.39,79.97,81.37,0.37
FII,27.48,26.89,27.45,0.12
FIO,10.93,10.52,10.86,0.08
QQQ,89.70,88.30,89.63,0.28
ODFL,53.62,52.69,53.41,0.24
CMO,12.85,12.63,12.77,0.05
CMI,141.23,136.89,140.92,0.89
CMG,561.51,539.00,557.65,4.90
CME,77.17,76.03,76.99,0.20
CHKP,65.81,64.55,65.71,0.15
CMA,46.72,45.86,46.64,0.24
PCL,42.67,42.06,42.51,0.09
FWLT,31.80,31.40,31.63,0.05
CMS,28.21,27.86,28.20,0.06
PCG,43.94,43.00,43.91,0.16
SREV,7.54,7.30,7.52,0.06
FNGN,64.08,60.64,64.00,1.00
PCLN,1282.60,1239.22,1276.07,8.23
BRFS,16.98,16.59,16.95,0.11
FSLR,52.94,50.03,52.85,0.70
GRMN,46.92,45.80,46.26,0.23
SNPS,41.10,40.27,41.10,0.11
DSW,38.91,38.15,38.60,0.11
DST,95.38,94.27,94.82,0.21
EDU,31.82,30.09,31.52,0.33
MD,58.81,57.84,58.70,0.14
OKS,56.29,54.93,55.94,0.22
MA,76.64,75.13,76.53,0.35
INT,45.89,44.41,45.38,0.22
MO,35.28,34.74,35.28,0.11
MU,25.01,24.68,24.91,0.08
MT,16.75,16.44,16.75,0.07
MW,46.94,45.91,46.53,0.22
RWT,19.09,18.72,18.94,0.06
UHS,82.45,78.55,82.03,0.47
MS,30.05,29.54,29.91,0.08
MR,35.75,34.50,34.93,0.16
ING,14.47,14.22,14.44,0.07
AMGN,124.16,121.22,124.15,0.47
DOX,44.35,42.96,44.34,0.27
COST,115.93,114.14,115.81,0.29
DOV,-922337203685477.62,-922337203685477.62,-922337203685477.62,1.88
DOW,46.63,45.70,46.30,0.17
GLW,19.10,18.75,19.09,0.05
SCHW,25.82,25.23,25.80,0.13
BSX,13.08,12.84,13.03,0.04
XXIA,12.72,12.35,12.64,0.12
F,15.09,14.88,15.08,0.05
AUQ,5.17,5.00,5.09,0.03
AUY,10.31,9.95,10.27,0.06
AVY,49.50,48.75,49.45,0.17
SBS,9.43,9.05,9.39,0.08
MMP,70.52,68.74,68.99,0.41
MMS,47.47,46.60,47.40,0.20
MMM,130.38,128.66,130.14,0.34
SBH,28.89,28.54,28.79,0.05
MMC,47.33,46.41,47.29,0.17
CTSH,99.96,97.78,99.77,0.50
CIEN,23.37,22.61,23.29,0.18
BAP,132.15,130.37,131.71,0.50
VVUS,6.96,6.75,6.87,0.05
KOG,12.09,11.51,11.82,0.13
ERF,19.92,19.43,19.81,0.10
BAC,16.82,16.63,16.75,0.04
KOS,10.72,10.37,10.62,0.07
BAM,39.10,38.42,38.92,0.17
BAH,19.47,18.22,19.15,0.21
WOOF,32.12,31.44,31.73,0.11
BJRI,28.94,28.03,28.87,0.22
MDCO,29.57,28.00,29.28,0.33
CELG,165.60,160.00,164.74,1.07
WETF,15.56,14.62,15.27,0.17
STO,25.92,25.67,25.80,0.06
STI,37.45,36.71,37.44,0.17
STJ,66.17,64.66,66.16,0.35
EQT,97.32,93.00,95.64,0.76
STT,68.92,68.03,68.50,0.12
MRO,33.42,32.72,33.27,0.19
YPF,27.25,24.50,26.74,0.61
STR,23.84,23.46,23.82,0.05
STX,50.00,48.71,49.62,0.26
STZ,79.64,78.41,79.44,0.20
TFM,34.31,33.81,34.26,0.10
CERN,59.46,57.41,59.28,0.32
NCR,34.16,33.35,33.63,0.16
TFX,96.55,93.88,96.41,0.73
FNV,52.22,49.97,52.12,0.42
DNDN,2.88,2.81,2.88,0.01
LII,88.92,87.35,88.35,0.26
FNF,32.71,31.70,32.28,0.11
FNB,12.07,11.81,12.06,0.07
WTR,24.46,23.88,24.45,0.11
RP,21.64,20.94,21.63,0.15
RS,73.03,71.56,72.86,0.23
RY,65.14,63.83,64.84,0.27
RE,146.83,143.30,146.76,0.76
RF,10.31,10.13,10.30,0.04
RL,156.50,153.45,156.15,0.61
WTI,14.96,14.39,14.80,0.13
QGEN,22.78,22.26,22.78,0.12
HRS,71.74,70.80,71.69,0.14
HRL,44.86,43.95,44.78,0.18
HRC,37.48,36.67,37.39,0.15
HRB,30.91,30.27,30.73,0.14
IDIX,7.50,6.99,7.36,0.09
NTES,74.93,71.01,72.40,0.66
RHT,58.45,56.98,58.43,0.40
RHI,40.54,39.70,40.45,0.21
KAR,28.63,28.09,28.50,0.13
AEE,38.40,37.85,38.39,0.11
WFM,51.92,50.32,51.46,0.27
WFC,46.07,45.44,45.98,0.16
CHTR,130.00,124.76,128.91,0.71
WFT,14.90,14.28,14.86,0.10
UGI,43.72,43.12,43.67,0.11
RTN,96.29,94.91,95.29,0.26
SEIC,34.58,34.10,34.45,0.04
SGMS,13.45,13.16,13.19,0.07
UGP,21.52,20.97,21.47,0.14
DISCA,81.00,78.45,79.30,0.55
ENB,43.44,42.45,43.14,0.21
OXY,92.51,91.15,92.27,0.31
G,15.02,14.54,14.97,0.13
ENI,14.54,14.19,14.49,0.08
DISCK,74.71,72.54,72.85,0.45
ENR,96.36,93.98,96.29,0.40
ENS,70.48,69.25,70.47,0.23
CZZ,11.98,11.67,11.97,0.09
LPNT,54.00,52.67,53.50,0.21
CZR,22.99,21.61,22.71,0.22
EME,41.44,40.88,41.43,0.11
CBST,75.30,73.90,75.13,0.32
ATO,46.00,45.08,45.86,0.16
UTIW,15.64,15.37,15.58,0.06
ATK,135.58,132.16,133.37,0.68
ATI,31.91,30.94,31.34,0.26
ATW,47.36,46.44,47.19,0.20
ATU,33.96,33.39,33.96,0.11
CBSH,43.85,42.91,43.85,0.21
PVR,27.88,27.38,27.39,0.13
PODD,45.22,44.25,44.97,0.20
SEE,32.45,31.73,32.41,0.13
PVG,6.76,6.40,6.68,0.07
TTEK,28.83,28.40,28.74,0.10
PVH,120.15,116.90,119.46,0.75
SEM,10.87,10.64,10.73,0.04
FRC,49.62,48.99,49.44,0.14
UDR,26.11,25.75,25.89,0.06
CLH,55.14,54.62,54.96,0.13
CLI,21.53,21.13,21.50,0.09
CLD,18.78,18.34,18.72,0.11
CLF,22.10,21.53,21.90,0.08
PDS,10.20,9.55,10.15,0.10
CLB,185.88,179.80,184.87,1.05
PDM,16.84,16.62,16.71,0.05
MRVL,15.30,15.06,15.23,0.04
CLX,87.29,86.07,86.96,0.16
FRT,111.46,110.20,110.76,0.26
HMSY,23.01,22.11,22.84,0.18
FRX,70.62,69.15,70.34,0.33
CLR,113.18,108.56,111.98,1.06
EXPE,78.27,74.76,76.69,0.57
FDS,104.48,103.49,103.60,0.12
INFA,40.47,39.05,39.98,0.24
INFY,58.55,57.45,58.38,0.22
SWI,43.80,42.66,43.76,0.25
DO,47.62,46.83,47.58,0.15
SWK,80.81,79.85,80.59,0.19
LBTYA,84.74,83.13,84.11,0.23
TTWO,19.35,18.87,19.21,0.07
SWN,41.75,40.63,41.57,0.29
BPI,18.60,17.94,18.57,0.13
DG,56.41,55.50,55.91,0.16
DE,86.27,85.17,85.85,0.20
DB,49.00,48.28,49.00,0.16
BPL,75.12,73.63,73.72,0.41
BPO,19.08,18.96,18.98,0.03
LBTYK,83.65,81.18,82.79,0.37
SWY,33.09,32.23,33.06,0.22
DV,36.37,35.21,36.16,0.31
TGT,57.36,56.45,56.86,0.18
HBAN,9.12,9.00,9.09,0.03
TCBI,59.37,57.91,59.27,0.47
GILD,82.62,80.90,82.55,0.32
ATVI,19.86,19.48,19.78,0.07
TGI,66.61,63.52,65.81,0.34
MYGN,30.89,30.11,30.85,0.17
DHI,23.34,22.85,23.24,0.11
MLM,116.67,114.35,115.90,0.42
INTU,70.76,69.12,70.72,0.44
AZPN,46.13,45.16,46.11,0.16
DHR,76.31,74.78,76.22,0.35
AJG,45.64,44.97,45.61,0.16
NRG,28.28,27.40,28.28,0.17
JIVE,7.68,7.11,7.60,0.13
GTLS,88.71,85.91,88.33,0.48
PX,129.79,127.33,129.41,0.64
WM,43.37,42.62,43.33,0.15
WU,16.27,16.09,16.12,0.04
WR,34.18,33.53,34.13,0.15
WY,30.45,30.08,30.39,0.09
WX,35.84,35.06,35.74,0.20
HSC,25.22,24.70,25.16,0.12
OVTI,15.21,14.55,15.09,0.17
ARIA,8.67,8.16,8.66,0.08
RIO,58.43,57.33,58.17,0.20
HSP,44.35,43.35,44.11,0.23
HST,18.90,18.52,18.86,0.08
RIG,43.45,42.72,43.36,0.14
HSY,104.10,102.51,104.01,0.39
EQY,23.53,23.12,23.50,0.07
BNS,57.57,56.50,57.53,0.28
H,49.77,48.81,49.39,0.22
EQR,58.86,57.86,58.30,0.18
TRMB,37.32,36.07,36.92,0.20
KNX,21.85,21.54,21.84,0.09
HAR,104.80,103.02,103.99,0.36
HAS,53.03,51.65,52.93,0.34
LVLT,38.10,36.79,38.00,0.22
SYA,19.15,18.71,19.15,0.14
LXP,11.02,10.80,10.88,0.03
SYK,82.93,80.45,82.75,0.62
SYY,35.64,35.10,35.62,0.10
LXK,41.27,40.20,41.06,0.22
GWRE,49.90,47.19,49.80,0.61
RGP,27.44,26.85,26.85,0.14
RGR,73.30,69.60,72.76,0.86
RGS,13.40,13.15,13.32,0.06
EMC,25.23,24.75,25.08,0.08
EMN,83.10,81.00,82.48,0.50
RGA,74.19,72.79,73.91,0.26
RGC,19.68,18.86,19.52,0.10
EMR,64.71,63.95,64.54,0.15
SDRL,35.92,35.30,35.78,0.17
VGR,18.47,18.22,18.47,0.06
AINV,9.01,8.76,8.95,0.04
MPEL,43.65,41.96,42.24,0.24
WWD,43.10,41.89,42.95,0.31
COP,65.11,64.23,64.71,0.20
COV,71.04,69.93,70.97,0.26
PEP,80.87,78.36,79.69,0.39
FSP,12.22,11.96,12.12,0.05
FST,3.14,3.02,3.07,0.03
COG,39.17,38.04,38.83,0.32
COF,72.42,70.81,72.37,0.32
COH,47.97,46.83,47.90,0.23
PEG,34.55,34.28,34.50,0.05
COL,77.84,76.84,77.84,0.22
PEB,31.49,30.81,31.34,0.17
ADVS,30.67,29.58,30.60,0.22
PENN,11.89,11.51,11.84,0.11
WAG,67.16,64.36,66.39,0.64
ULTA,87.05,85.60,86.04,0.23
WAT,112.11,110.05,112.05,0.44
OEH,14.96,14.54,14.89,0.08
HCBK,9.21,9.03,9.21,0.04
UFS,105.56,104.31,105.41,0.28
FNSR,23.55,22.71,23.40,0.20
MKC,65.01,64.08,64.98,0.17
GNW,15.54,15.17,15.50,0.08
AIV,30.10,29.55,29.99,0.05
GNC,52.63,51.31,52.39,0.25
AIG,49.74,48.30,49.59,0.24
DIS,78.24,77.20,77.90,0.13
MNST,71.51,70.33,71.33,0.30
NSC,92.75,91.96,92.47,0.14
NSR,35.25,34.74,34.97,0.08
VOLC,21.45,21.24,21.42,0.04
IP,49.21,48.27,49.10,0.13
IT,67.54,65.62,67.06,0.21
URI,83.42,81.22,82.71,0.45
IM,25.95,25.06,25.95,0.18
IRM,27.63,27.00,27.61,0.14
IO,4.10,3.75,4.07,0.05
UTX,113.58,111.69,113.30,0.45
IRF,25.42,25.00,25.40,0.10
PWR,31.79,31.21,31.77,0.14
PWE,8.02,7.85,7.94,0.03
LINTA,28.66,27.75,28.52,0.15
OPK,8.47,7.67,8.39,0.24
GGB,6.91,6.61,6.90,0.08
HBI,72.91,71.57,72.73,0.31
EPR,51.58,50.61,51.23,0.21
TIVO,12.72,12.26,12.71,0.08
NAV,35.27,34.15,35.12,0.19
EPD,67.79,66.57,67.03,0.30
CTRP,47.63,38.81,45.99,1.21
EPB,32.09,30.79,30.86,0.36
SHLD,44.01,39.75,43.42,1.03
WAFD,21.95,21.68,21.80,0.04
LYV,21.81,21.34,21.74,0.08
SXC,22.21,21.75,22.20,0.11
CRZO,43.56,41.53,43.51,0.55
CGNX,40.14,38.52,39.91,0.38
SXT,49.49,48.34,49.48,0.35
LYB,83.76,81.88,83.37,0.49
VVC,37.10,36.43,37.09,0.14
BWLD,133.32,130.03,133.17,0.65
SVM,3.30,3.01,3.30,0.07
FSL,21.08,20.35,20.92,0.14
BBEP,20.63,20.39,20.62,0.05
SVU,5.88,5.65,5.87,0.05
TXT,36.88,36.19,36.84,0.16
GXP,25.58,24.83,25.57,0.14
FISV,56.31,55.36,56.09,0.16
ESV,51.60,50.42,51.46,0.27
CPHD,51.75,50.57,51.41,0.16
FLS,76.98,74.56,76.49,0.55
FLR,79.76,78.40,78.87,0.33
FLT,117.00,114.31,116.53,0.44
FINL,25.85,25.48,25.79,0.08
FLO,19.88,19.56,19.86,0.06
SFL,17.07,16.78,16.99,0.06
COO,127.88,125.91,126.54,0.38
TRI,34.49,33.60,34.33,0.10
TRN,60.29,59.01,60.15,0.30
TRP,45.71,44.46,45.40,0.30
TRW,76.46,74.57,76.34,0.35
TRV,82.90,81.56,82.88,0.32
HTS,19.35,19.01,19.27,0.08
HTZ,25.76,25.23,25.60,0.10
AT,2.56,2.34,2.52,0.06
NGD,6.00,5.70,5.95,0.05
GNRC,57.68,53.00,56.64,0.50
NI,34.93,34.40,34.77,0.10
NIHD,3.10,2.91,3.09,0.04
RRD,17.64,17.21,17.55,0.07
RRC,85.05,82.97,84.21,0.39
MCRS,56.28,55.53,56.01,0.10
NG,3.31,3.14,3.27,0.04
NS,52.84,52.06,52.62,0.12
NU,44.77,44.18,44.69,0.11
RDY,42.05,41.08,42.02,0.19
RDC,32.13,31.64,32.05,0.12
ELS,40.26,39.68,40.12,0.08
ELP,10.97,10.63,10.92,0.09
ICON,39.81,38.23,39.61,0.27
LEA,77.02,75.50,76.86,0.35
FBP,5.00,4.78,4.89,0.05
LEG,30.88,30.19,30.81,0.15
BIDU,170.14,164.10,170.04,0.99
OZM,14.53,13.79,14.14,0.14
LEN,41.11,39.55,41.00,0.37
USG,34.46,33.49,34.27,0.22
USB,40.35,40.02,40.27,0.08
AZN,67.56,66.64,67.53,0.20
AZO,544.00,536.00,540.80,0.99
MXIM,31.29,30.53,31.25,0.10
PCAR,59.90,58.35,59.85,0.39
SGY,35.18,32.08,34.61,0.82
QIHU,100.46,96.02,99.94,0.65
PXD,181.38,177.89,179.50,0.81
CNW,38.18,36.93,37.91,0.35
CNP,23.52,23.15,23.50,0.07
CNQ,35.47,34.58,35.31,0.22
ICE,219.83,215.74,216.91,0.90
WAB,76.15,73.69,75.94,0.75
CNC,59.46,58.13,59.46,0.25
CNO,18.24,17.51,18.24,0.17
CNL,48.93,47.96,48.72,0.21
CNK,30.11,29.72,30.05,0.07
CNI,56.42,55.50,56.24,0.18
PFE,31.85,31.40,31.70,0.09
PFG,44.49,43.26,44.46,0.40
THOR,36.25,35.64,36.03,0.09
AMTD,33.17,32.18,33.14,0.25
PNRA,179.16,175.27,177.88,0.59
JBHT,73.64,72.68,73.43,0.17
LSTR,58.86,57.35,58.81,0.43
SIX,37.60,36.66,37.58,0.16
SIG,79.78,78.40,79.53,0.26
JWN,58.68,57.30,58.56,0.29
SID,4.92,4.71,4.90,0.05
SSYS,118.98,113.39,118.23,1.11
TAP,54.68,52.68,54.53,0.39
QLGC,11.47,11.30,11.44,0.05
MDRX,16.68,16.36,16.68,0.04
NGLS,56.94,54.63,54.99,0.55
TAL,44.70,42.52,43.72,0.19
GIS,49.27,48.26,49.19,0.16
MJN,78.74,77.51,78.23,0.16
AMZN,357.20,346.50,357.20,2.09
PACW,40.20,39.40,40.11,0.19
MENT,20.53,19.59,20.49,0.22
AHL,38.62,37.78,38.59,0.13
ITRI,33.85,32.30,33.64,0.29
PTEN,28.81,27.77,28.53,0.21
CTCM,11.38,10.97,11.31,0.05
XYL,37.84,37.02,37.84,0.16
TSN,37.62,36.73,37.47,0.17
TSO,49.96,48.09,49.68,0.36
TSM,17.52,17.25,17.45,0.04
WBMD,46.53,44.15,46.51,0.46
TSU,26.57,25.96,26.50,0.14
CNQR,125.42,120.79,124.84,0.95
HUM,97.23,95.28,97.02,0.38
APOL,32.20,31.70,32.00,0.05
KBR,31.49,30.78,31.30,0.16
NFG,75.82,74.06,75.77,0.29
HCP,37.99,37.47,37.88,0.09
K,59.51,59.10,59.48,0.06
FFIV,111.75,108.80,111.74,0.40
BLL,54.87,53.50,54.48,0.21
HCA,50.65,48.67,50.00,0.23
ORLY,152.87,150.30,152.82,0.61
BLK,305.76,296.13,304.54,0.95
HCN,57.42,56.55,56.99,0.11
NFX,24.78,24.01,24.78,0.24
SLCA,29.89,28.85,29.65,0.26
PRGO,150.90,148.41,150.76,0.54
RES,18.13,17.40,18.08,0.21
IDTI,11.82,11.57,11.75,0.05
REG,51.19,49.69,50.22,0.24
FCX,33.29,32.35,33.16,0.19
STWD,24.53,24.33,24.40,0.04
GORO,5.29,4.90,5.24,0.09
FCN,37.00,36.45,36.83,0.12
LQDT,24.64,24.04,24.44,0.11
FMX,89.82,88.46,89.19,0.31
FMC,72.34,71.07,72.16,0.31
LTM,43.75,43.00,43.59,0.15
TSCO,66.76,65.32,66.18,0.35
SU,33.53,32.69,33.51,0.22
ST,40.75,40.28,40.45,0.11
UNFI,68.94,66.91,68.87,0.40
SO,42.31,41.50,42.23,0.18
SM,86.99,83.72,86.75,0.86
SF,47.72,46.03,47.65,0.49
SE,37.28,36.75,37.07,0.07
SD,6.38,6.09,6.31,0.07
IBM,182.36,177.86,181.84,0.85
IBN,33.33,32.56,33.31,0.21
CAR,38.83,37.92,38.67,0.22
IBB,260.12,253.00,260.03,1.36
CAT,96.41,95.11,96.11,0.25
CAJ,29.76,29.49,29.75,0.08
CAH,70.36,68.68,69.92,0.32
CAM,60.96,58.97,60.50,0.45
RFMD,5.96,5.76,5.91,0.04
CAB,64.76,59.70,64.26,1.25
CAG,29.06,28.80,29.00,0.06
INCY,68.17,65.34,66.14,0.35
PGH,6.71,6.62,6.65,0.01
PGR,23.94,23.42,23.85,0.11
FLEX,8.90,8.71,8.89,0.03
AKRX,24.01,23.39,23.93,0.13
ZION,30.41,29.60,30.33,0.23
WCC,84.49,82.47,84.43,0.49
WCG,58.98,55.80,58.41,0.63
WCN,43.81,43.08,43.70,0.14
ALKS,52.16,51.13,52.13,0.26
RSG,34.09,33.40,34.06,0.15
OGE,35.21,34.65,35.17,0.08
NUVA,37.12,35.34,36.94,0.31
DKS,51.91,50.66,51.45,0.14
GAS,46.20,45.30,46.13,0.19
MIC,58.15,57.10,58.06,0.21
RCII,25.00,24.13,24.84,0.24
GHL,50.35,49.68,49.83,0.12
LINE,32.93,32.21,32.73,0.15
PPL,31.42,30.97,31.37,0.08
FULT,12.54,12.37,12.47,0.04
AON,84.41,82.65,84.32,0.30
AOL,45.74,44.53,44.89,0.30
LMCA,133.48,128.11,133.39,0.88
AOS,48.47,47.54,48.25,0.16
MEOH,63.07,61.01,62.79,0.34
AYI,133.34,129.42,133.00,0.96
URBN,36.03,34.86,36.03,0.30
L,44.01,43.29,43.99,0.20
URS,43.53,41.62,42.51,0.44
AYR,18.24,17.67,18.22,0.13
IPG,17.14,16.82,17.13,0.07
SFY,12.38,11.76,12.32,0.17
NLSN,45.35,43.92,45.27,0.29
IPI,14.49,13.87,13.96,0.10
PRXL,52.19,50.23,52.02,0.42
SFG,65.59,64.31,65.42,0.34
SAVE,46.78,45.52,46.70,0.31
ACTG,14.24,14.01,14.22,0.03
KSU,100.12,98.20,98.52,0.45
NGG,67.58,66.97,67.42,0.14
KSS,51.32,50.52,51.13,0.22
EROC,5.46,5.34,5.38,0.03
HDB,32.80,32.22,32.73,0.14
XLS,19.79,19.35,19.73,0.10
KORS,98.81,95.83,98.41,0.45
BMO,64.84,63.61,64.71,0.29
BMR,20.41,20.10,20.32,0.06
BMS,38.80,38.36,38.80,0.07
BMY,53.50,52.51,53.49,0.18
EL,67.64,66.48,67.54,0.30
SHW,190.57,185.05,190.42,1.36
ED,54.52,53.98,54.52,0.08
PMCS,7.44,7.11,7.39,0.06
EA,27.74,27.20,27.56,0.10
EC,36.38,35.88,36.30,0.10
UTHR,101.29,99.09,100.94,0.47
EW,67.52,66.25,67.19,0.29
EV,37.32,36.97,37.25,0.06
SHO,13.32,13.02,13.30,0.07
MGA,87.78,86.52,87.25,0.24
MGM,25.63,25.15,25.58,0.08
TXRH,25.37,24.54,25.35,0.20
EXPR,17.84,17.16,17.71,0.18
LUV,21.32,21.00,21.20,0.05
LUK,28.41,27.78,28.29,0.10
ADSK,54.49,53.39,54.13,0.17
WPX,17.49,17.01,17.47,0.07
WPZ,50.75,49.63,49.64,0.26
PCP,264.28,259.32,263.87,0.85
SLXP,102.62,100.79,102.18,0.36
GTE,7.45,7.34,7.43,0.02
XL,28.92,28.58,28.88,0.06
CMC,19.86,19.31,19.84,0.11
ATML,7.90,7.70,7.85,0.03
VTR,62.84,61.50,62.60,0.21
TLK,37.58,37.19,37.39,0.07
TLM,10.82,10.68,10.73,0.03
KEG,7.84,7.43,7.81,0.09
LNC,49.58,48.41,49.57,0.25
KEY,12.90,12.66,12.88,0.07
KEX,101.95,98.30,100.85,0.80
WBS,30.20,29.57,30.16,0.18
TSLA,202.72,193.25,199.63,1.77
B,37.40,36.68,37.25,0.12
WBC,95.68,88.62,94.81,1.37
SINA,70.95,67.35,70.50,0.83
ARRS,28.15,26.77,27.88,0.35
GTI,10.41,10.01,10.38,0.11
RPM,39.75,38.94,39.67,0.23
AKAM,59.94,58.63,59.71,0.27
BEAV,81.61,79.50,81.60,0.49
M,53.44,52.54,53.14,0.19
HXL,42.74,42.03,42.59,0.14
BEAM,83.36,83.26,83.32,0.03
ALXN,180.34,173.20,180.00,1.56
RBC,73.16,71.93,72.98,0.26
RBA,22.88,22.33,22.87,0.13
LGF,32.73,32.20,32.47,0.09
PBCT,14.01,13.84,14.00,0.03
UBNT,46.51,43.95,45.74,0.49
AXS,43.37,42.38,43.36,0.24
AXP,88.98,88.01,88.90,0.22
NFLX,439.49,425.00,436.55,2.40
JE,6.89,6.65,6.82,0.07
IRWD,14.07,13.20,14.00,0.19
OFC,26.82,26.24,26.49,0.09
CLNE,9.99,9.58,9.91,0.12
FRAN,18.46,17.81,18.27,0.16
IAG,4.05,3.83,4.03,0.04
VALE,14.43,14.02,14.40,0.10
BOH,57.80,57.11,57.76,0.24
CAVM,39.17,37.59,38.76,0.32
PHM,19.85,19.36,19.82,0.12
PHG,35.81,35.38,35.81,0.10
BRCM,31.27,30.52,31.14,0.17
BRCD,9.49,9.17,9.43,0.07
SKT,33.97,32.83,33.86,0.24
ESRX,76.69,75.47,76.60,0.20
VMC,66.20,64.41,66.00,0.48
IGT,14.84,14.37,14.81,0.09
KLAC,64.45,62.64,64.44,0.39
SKM,21.07,20.74,20.99,0.04
GSK,55.12,54.55,55.06,0.15
GES,28.89,28.44,28.85,0.12
MFA,7.60,7.44,7.55,0.03
MFC,19.04,18.35,19.02,0.13
NWSA,17.82,17.41,17.66,0.09
TCO,69.60,68.12,68.86,0.29
TCK,24.46,23.61,23.68,0.09
WGL,37.64,36.84,37.51,0.19
TCB,15.92,15.65,15.90,0.07
MHK,146.03,142.94,145.68,0.78
DDS,90.14,87.21,89.98,0.67
DDR,16.16,15.67,16.06,0.08
SIRI,3.54,3.42,3.51,0.02
SIRO,69.60,68.58,68.99,0.13
DDD,70.94,66.76,70.67,0.91
PAAS,14.13,13.23,14.08,0.22
ANF,34.61,33.68,34.33,0.21
NVS,82.32,81.84,82.28,0.12
ANN,33.51,32.46,33.49,0.20
ANH,5.07,4.96,5.03,0.03
ANV,5.26,5.00,5.19,0.06
MELI,96.50,92.01,95.97,0.94
ANR,5.18,5.01,5.17,0.05
MCHP,45.85,45.21,45.81,0.12
GWW,239.72,235.33,239.64,0.52
GWR,94.83,92.50,94.52,0.44
TMH,44.62,42.12,44.51,0.61
WYNN,223.76,218.00,221.28,1.01
TMK,75.86,74.48,75.85,0.36
TMO,123.43,120.61,122.90,0.56
QEP,31.83,31.18,31.74,0.16
ARMH,47.19,46.14,46.96,0.24
BX,31.68,31.00,31.61,0.17
HES,79.37,77.36,78.67,0.46
N,112.13,106.15,112.09,1.25
KRC,56.85,56.36,56.53,0.09
MLNX,36.81,35.40,36.59,0.41
GNTX,32.18,31.38,32.02,0.18
EIX,50.22,49.22,50.19,0.23
WSM,55.53,54.59,54.97,0.21
RCL,52.30,50.89,52.22,0.35
RCI,39.48,38.89,39.20,0.10
ARCC,18.45,18.12,18.41,0.06
ARCO,8.78,8.50,8.71,0.06
FAX,5.95,5.85,5.90,0.02
AWAY,42.09,40.96,41.91,0.15
NDAQ,38.85,38.30,38.69,0.07
FAF,26.68,25.82,26.63,0.15
PDLI,8.41,8.20,8.38,0.05
GOOG,1199.90,1179.66,1199.90,4.01
LVS,79.33,77.61,78.79,0.19
VECO,40.75,39.11,40.73,0.35
SFLY,46.59,44.44,46.39,0.29
EXXI,23.64,23.05,23.41,0.11
POT,33.78,33.31,33.46,0.06
CCL,40.26,39.86,40.24,0.09
AAXJ,57.28,56.57,57.13,0.16
CCK,44.24,43.18,43.92,0.17
CCJ,21.35,20.78,21.30,0.14
CCE,45.99,45.15,45.96,0.16
PII,131.03,126.20,130.28,1.06
FLIR,31.25,30.78,30.95,0.15
MYL,46.31,45.00,46.19,0.31
PIR,18.76,18.48,18.68,0.06
SIAL,95.70,94.38,95.70,0.28
SCCO,31.67,30.94,31.64,0.19
WMT,75.49,74.56,75.36,0.16
WMB,41.31,40.32,40.85,0.17
OI,33.90,32.77,33.70,0.22
OC,43.41,42.30,43.07,0.21
NTRS,62.11,61.36,62.04,0.14
MWW,7.55,7.26,7.49,0.07
MWV,36.36,35.81,36.23,0.08
REGN,327.91,314.11,326.98,2.93
DEI,26.71,26.11,26.43,0.10
MWE,72.68,70.39,72.43,0.38
DEO,122.24,121.08,122.12,0.31
CVLT,69.85,67.09,69.38,0.58
NWS,17.39,17.02,17.26,0.10
AME,51.25,50.16,51.22,0.27
AMD,3.71,3.64,3.70,0.01
AMG,194.98,191.94,194.10,0.56
EPAM,44.50,42.67,44.26,0.60
NWE,46.10,44.81,46.02,0.30
PVTB,28.47,27.79,28.31,0.17
NWL,31.26,30.65,31.24,0.14
AMP,107.53,105.77,107.33,0.43
AMT,82.91,81.16,82.49,0.26
LRCX,52.06,50.35,51.91,0.24
UPL,23.90,23.14,23.79,0.20
CFFN,12.05,11.94,12.05,0.03
O,41.69,41.00,41.48,0.11
UPS,96.74,95.44,96.56,0.28
CVBF,14.97,14.65,14.94,0.09
WWW,28.28,27.51,28.19,0.16
BVN,12.67,12.18,12.56,0.08
IVR,16.48,16.08,16.44,0.10
HTLD,20.26,19.82,20.17,0.09
IVZ,34.55,33.92,34.53,0.17
ACC,36.82,35.09,35.95,0.18
NEM,23.56,22.46,23.53,0.22
ACE,96.20,94.95,96.14,0.25
ACI,3.97,3.83,3.95,0.03
NEE,93.11,91.68,92.85,0.26
ACN,81.98,80.63,81.74,0.29
ACM,29.95,29.35,29.72,0.13
HFC,45.07,44.11,45.05,0.25
OPEN,74.00,72.42,73.59,0.27
BKD,29.72,29.07,29.50,0.11
BKE,43.54,42.82,43.44,0.14
FDML,17.46,17.04,17.18,0.09
NATI,28.41,27.66,28.40,0.14
SOHU,71.05,68.00,70.51,0.54
BKU,31.76,31.11,31.73,0.15
BKS,16.16,15.38,16.08,0.16
SJR,23.49,23.10,23.47,0.09
MDVN,82.76,79.40,81.93,0.50
SJM,95.24,93.21,95.14,0.48
EBAY,54.95,54.11,54.92,0.16
MET,50.05,48.85,50.01,0.27
GOLD,78.80,76.22,78.31,0.53
PDCO,40.52,39.53,40.39,0.13
TXN,43.75,43.05,43.74,0.10
TV,29.37,28.73,28.85,0.11
TW,111.08,108.91,110.70,0.39
TS,46.59,45.69,46.50,0.19
TM,116.39,114.86,116.15,0.38
TK,54.90,53.64,54.35,0.25
QSII,18.23,17.75,18.20,0.07
TE,16.65,16.26,16.60,0.09
