1667,517.83,bid
1667,517.89,ask
1669,517.91,ask
1670,517.79,bid
1671,517.9,ask
1673,517.91,ask
1676,517.9,ask
1677,517.83,bid
1678,517.72,bid
1678,517.79,ask
1679,517.6,bid
1679,517.78,ask
1680,517.79,ask
1682,517.62,bid
1685,517.82,ask
1685,517.67,bid
1685,517.77,ask
1685,517.71,bid
1686,517.74,bid
1686,517.73,bid
1686,517.74,ask
1730,517.87,bid
1730,518.0,ask
1730,517.88,bid
1731,517.89,bid
1731,517.99,ask
1732,517.88,bid
1734,517.9,bid
1737,517.98,bid
1737,518.0,ask
1738,517.9,bid
1738,517.94,bid
1739,517.99,bid
1739,517.94,bid
1741,517.98,bid
1741,517.99,bid
1741,517.93,bid
1742,517.99,bid
1743,517.93,bid
1745,517.94,bid
1746,517.95,bid
1747,517.97,bid
1748,517.98,bid
1748,517.99,bid
1749,517.81,bid
1751,517.99,ask
1752,517.82,bid
1753,517.81,bid
1753,517.89,ask
1753,517.84,ask
1753,517.82,ask
1754,517.77,bid
1755,517.76,bid
1755,517.9,ask
1755,517.91,ask
1757,517.83,bid
1757,517.86,bid
1757,517.91,bid
1757,517.92,ask
1758,517.86,bid
1758,517.76,bid
1760,517.77,bid
1760,517.86,ask
1760,517.84,ask
1760,517.83,ask
1760,517.78,ask
1761,517.76,bid
1761,517.77,ask
1761,517.77,bid
1761,517.89,ask
1761,517.83,bid
1761,517.92,ask
1762,517.77,bid
1764,517.89,ask
1765,517.79,bid
1766,517.77,bid
1768,517.78,bid
1771,517.72,bid
1771,517.84,ask
1772,517.76,bid
1772,517.72,bid
1773,517.68,bid
1774,517.82,ask
1776,517.63,bid
1777,517.81,ask
1778,517.54,bid
1778,517.74,ask
1778,517.56,bid
1779,517.57,bid
1783,517.59,bid
1786,517.61,bid
1786,517.7,ask
1787,517.68,bid
1787,517.79,ask
1787,517.69,bid
1787,517.7,bid
1788,517.71,bid
1788,517.72,bid
1788,517.81,bid
1788,517.87,ask
1789,517.82,bid
1790,517.83,bid
1790,517.95,ask
1790,517.84,bid
