1667,38.23,bid
1667,38.24,ask
1667,38.2,bid
1667,38.21,ask
1668,38.21,bid
1668,38.22,ask
1684,38.22,bid
1684,38.23,ask
1685,38.23,bid
1685,38.24,ask
1731,38.23,bid
1731,38.24,ask
1731,38.29,bid
1731,38.3,ask
1742,38.31,ask
1742,38.3,bid
1743,38.31,bid
1743,38.32,ask
1743,38.3,bid
1749,38.29,bid
1749,38.31,ask
1750,38.3,ask
1764,38.27,bid
1764,38.28,ask
1765,38.28,bid
1765,38.29,ask
1766,38.27,bid
1774,38.28,bid
