1667,33.25,bid
1667,33.36,ask
1667,33.18,bid
1667,33.27,ask
1731,33.18,bid
1731,33.27,ask
1731,33.32,bid
1731,33.36,ask
1732,33.33,bid
1737,33.34,bid
1738,33.35,bid
1740,33.4,ask
1741,33.39,bid
1741,33.44,ask
1742,33.36,bid
1742,33.38,bid
1749,33.41,ask
1752,33.39,bid
1753,33.4,bid
1754,33.44,ask
1788,33.34,bid
1788,33.4,ask
