1667,49.38,bid
1667,49.4,ask
1668,49.41,ask
1673,49.4,ask
1682,49.4,bid
1682,49.42,ask
1683,49.41,ask
1684,49.42,bid
1684,49.44,ask
1685,49.4,bid
1685,49.43,ask
1731,49.4,bid
1731,49.43,ask
1731,49.45,bid
1731,49.49,ask
1732,49.48,ask
1741,49.48,bid
1741,49.5,ask
1742,49.46,bid
1742,49.51,ask
1742,49.45,bid
1742,49.46,bid
1742,49.52,ask
1743,49.45,bid
1743,49.51,ask
1744,49.5,ask
1745,49.46,bid
1748,49.48,ask
1749,49.45,bid
1753,49.46,bid
1754,49.45,bid
1755,49.46,bid
1756,49.45,bid
1763,49.46,bid
1777,49.45,bid
1777,49.46,bid
1782,49.45,bid
1783,49.46,bid
1789,49.45,bid
1790,49.46,bid
