1667,244.6,bid
1667,244.93,ask
1668,244.41,bid
1668,244.78,ask
1731,244.41,bid
1731,244.78,ask
1731,244.83,bid
1731,245.25,ask
1745,244.84,bid
1768,244.85,bid
1776,244.87,bid
1782,244.88,bid
1783,244.9,bid
