1667,47.55,bid
1667,47.56,ask
1679,47.57,ask
1731,47.55,bid
1731,47.57,ask
1731,47.56,bid
1731,47.58,ask
1734,47.57,ask
1735,47.55,bid
1735,47.56,ask
1735,47.57,ask
1741,47.56,bid
1741,47.58,ask
1747,47.57,ask
1750,47.57,bid
1750,47.58,ask
1751,47.56,bid
1751,47.57,ask
1751,47.58,ask
1763,47.57,bid
1764,47.56,bid
1790,47.57,bid
