1668,89.39,bid
1668,89.45,ask
1668,89.4,bid
1668,89.46,ask
1731,89.4,bid
1731,89.46,ask
1731,89.54,ask
1731,89.41,bid
1732,89.4,bid
1733,89.41,bid
1742,89.43,bid
1742,89.41,bid
1743,89.43,bid
1743,89.42,bid
1744,89.44,bid
1745,89.53,ask
1746,89.42,bid
1749,89.52,ask
1752,89.48,ask
1756,89.4,bid
1774,89.47,ask
