1668,44.35,bid
1668,44.36,ask
1668,44.31,bid
1668,44.34,ask
1731,44.31,bid
1731,44.34,ask
1731,44.42,bid
1731,44.44,ask
1731,44.45,ask
1732,44.44,ask
1733,44.41,bid
1733,44.42,bid
1735,44.41,bid
1735,44.43,ask
1736,44.39,bid
1736,44.42,ask
1736,44.43,ask
1737,44.42,ask
1738,44.38,bid
1738,44.4,ask
1738,44.36,bid
1738,44.37,bid
1739,44.38,bid
1741,44.4,bid
1741,44.41,ask
1742,44.42,ask
1742,44.41,bid
1743,44.4,bid
1747,44.39,bid
1747,44.41,ask
1747,44.43,ask
1750,44.38,bid
1750,44.4,ask
1750,44.41,ask
1751,44.37,bid
1752,44.36,bid
1754,44.39,ask
1754,44.4,ask
1755,44.34,bid
1756,44.35,bid
1757,44.39,ask
1757,44.36,bid
1758,44.38,bid
1760,44.37,bid
1760,44.38,ask
1760,44.39,ask
1761,44.35,bid
1761,44.37,ask
1763,44.36,ask
1764,44.37,ask
1764,44.39,ask
1765,44.37,ask
1766,44.36,bid
1767,44.35,bid
1767,44.39,ask
1768,44.36,bid
1770,44.41,ask
1770,44.38,bid
