1668,31.15,bid
1668,31.16,ask
1668,31.18,bid
1668,31.2,ask
1670,31.2,bid
1670,31.22,ask
1672,31.19,bid
1673,31.18,bid
1673,31.21,ask
1673,31.22,ask
1676,31.21,ask
1677,31.22,ask
1677,31.21,ask
1679,31.19,ask
1731,31.18,bid
1731,31.19,ask
1731,31.16,bid
1732,31.17,ask
1733,31.19,ask
1733,31.17,ask
1734,31.17,bid
1734,31.19,ask
1734,31.16,bid
1734,31.18,ask
1735,31.18,bid
1735,31.2,ask
1735,31.16,bid
1735,31.18,ask
1735,31.2,ask
1736,31.19,ask
1737,31.17,bid
1737,31.2,ask
1746,31.19,ask
1746,31.19,bid
1746,31.21,ask
1747,31.18,bid
1748,31.2,ask
1749,31.2,bid
1749,31.21,ask
1749,31.18,bid
1749,31.2,ask
1756,31.19,ask
1770,31.2,bid
1770,31.21,ask
