1668,90.44,bid
1668,90.5,ask
1668,90.48,bid
1668,90.57,ask
1668,90.54,ask
1669,90.46,bid
1669,90.45,bid
1672,90.5,bid
1676,90.55,ask
1677,90.53,ask
1678,90.55,ask
1731,90.5,bid
1731,90.55,ask
1731,90.62,bid
1731,90.71,ask
1732,90.63,bid
1737,90.7,ask
1741,90.69,ask
1741,90.71,ask
1756,90.72,ask
1775,90.62,bid
1776,90.63,bid
1782,90.68,ask
