1668,16.85,bid
1668,16.86,ask
1668,16.83,bid
1668,16.84,ask
1684,16.85,bid
1684,16.86,ask
1731,16.85,bid
1731,16.86,ask
1731,16.89,bid
1731,16.9,ask
1741,16.91,bid
1741,16.92,ask
1776,16.9,bid
1776,16.91,ask
