1668,116.05,bid
1668,116.11,ask
1668,115.93,bid
1668,115.95,ask
1675,115.96,ask
1675,115.94,bid
1676,115.93,bid
1677,115.94,bid
1677,115.93,bid
1678,115.92,bid
1678,115.95,ask
1679,115.91,bid
1680,115.88,bid
1680,115.93,ask
1681,115.92,ask
1681,115.89,bid
1681,115.93,ask
1683,115.9,bid
1684,115.89,bid
1684,115.9,bid
1684,115.93,bid
1684,115.98,ask
1685,115.94,bid
1685,115.99,bid
1685,116.0,ask
1731,115.99,bid
1731,116.0,ask
1731,116.12,bid
1731,116.23,ask
1736,116.11,bid
1736,116.22,ask
1737,116.23,ask
1739,116.09,bid
1739,116.2,ask
1740,116.15,bid
1740,116.23,ask
1741,116.14,bid
1741,116.19,bid
1741,116.27,ask
1742,116.18,bid
1742,116.14,bid
1742,116.28,ask
1743,116.17,bid
1745,116.18,bid
1752,116.15,bid
1752,116.27,ask
1753,116.28,ask
1755,116.16,bid
1756,116.15,bid
1757,116.13,bid
1778,116.27,ask
1780,116.26,ask
1784,116.14,bid
