1668,106.17,bid
1668,106.26,ask
1668,106.07,bid
1668,106.1,ask
1731,106.07,bid
1731,106.1,ask
1731,106.21,bid
1731,106.24,ask
1731,106.19,bid
1731,106.33,ask
1734,106.32,ask
1735,106.21,bid
1736,106.22,bid
1736,106.31,ask
1740,106.29,ask
1741,106.27,ask
1750,106.2,bid
1750,106.25,ask
1753,106.21,bid
1755,106.17,bid
1755,106.24,ask
1760,106.23,ask
1763,106.22,ask
1764,106.16,bid
1766,106.17,bid
1766,106.21,ask
1772,106.16,bid
1776,106.15,bid
1776,106.19,ask
1780,106.16,bid
1780,106.13,bid
1781,106.14,bid
