1668,53.93,bid
1668,53.99,ask
1668,53.96,ask
1731,53.93,bid
1731,53.96,ask
1731,54.0,bid
1731,54.01,ask
1741,54.03,bid
1741,54.04,ask
1742,54.04,bid
1742,54.06,ask
1743,54.0,bid
1743,54.04,ask
1743,54.06,ask
1757,54.05,ask
1759,54.04,ask
1760,54.03,ask
1772,53.96,bid
1772,54.01,ask
1773,53.97,bid
1774,53.96,bid
1784,53.93,bid
1784,53.99,ask
1785,53.95,bid
1788,53.94,bid
1788,53.98,ask
1788,53.95,bid
1789,53.99,ask
