1668,109.36,bid
1668,109.42,ask
1668,109.12,bid
1668,109.19,ask
1670,109.11,bid
1671,109.19,bid
1671,109.21,ask
1676,109.21,bid
1676,109.3,ask
1676,109.32,ask
1676,109.33,ask
1677,109.32,ask
1685,109.39,ask
1686,109.38,ask
1731,109.21,bid
1731,109.38,ask
1731,109.46,bid
1731,109.49,ask
1732,109.5,ask
1732,109.47,bid
1742,109.49,bid
1742,109.49,ask
1742,109.48,bid
1742,109.5,ask
1743,109.49,ask
1743,109.5,ask
1744,109.49,bid
1747,109.47,bid
