1668,84.77,bid
1668,84.81,ask
1668,84.81,bid
1668,84.87,ask
1731,84.81,bid
1731,84.87,ask
1731,84.9,bid
1731,84.95,ask
1731,84.93,bid
1731,84.98,ask
1741,84.98,bid
1741,85.0,ask
1742,85.01,ask
1746,85.09,ask
1755,85.0,bid
1755,85.01,bid
1755,85.08,ask
1763,85.07,ask
1764,85.08,ask
1764,85.07,ask
1764,85.08,ask
1768,85.07,ask
1768,85.08,ask
1777,84.98,bid
1777,85.07,ask
