1668,35.19,bid
1668,35.33,ask
1668,35.23,bid
1668,35.32,ask
1731,35.23,bid
1731,35.32,ask
1731,35.26,bid
1731,35.39,ask
1735,35.4,ask
1737,35.28,bid
1742,35.27,bid
1743,35.28,bid
1747,35.29,bid
